"department","VerifyCode","CardNo","checktime","id_no","name","status"
"MinDA","FP","","9/8/2017 12:11 PM","203","203","C/Out"
"MinDA","FP","","9/8/2017 5:59 PM","203","203","C/Out"
"MinDA","FP","","9/11/2017 7:52 AM","203","203","C/In"
"MinDA","FP","","9/11/2017 12:03 PM","203","203","C/Out"
"MinDA","FP","","9/11/2017 12:19 PM","203","203","C/In"
"MinDA","FP","","9/11/2017 5:12 PM","203","203","C/Out"
"MinDA","FP","","9/12/2017 12:24 PM","203","203","C/Out"
"MinDA","FP","","9/12/2017 12:58 PM","203","203","C/In"
"MinDA","FP","","9/12/2017 5:02 PM","203","203","C/Out"
"MinDA","FP","","9/15/2017 8:19 AM","203","203","C/In"
"MinDA","FP","","9/15/2017 5:09 PM","203","203","C/Out"
"MinDA","FP","","9/18/2017 8:37 AM","203","203","C/In"
"MinDA","FP","","9/18/2017 12:00 PM","203","203","C/Out"
"MinDA","FP","","9/18/2017 12:01 PM","203","203","C/Out"
"MinDA","FP","","9/18/2017 12:01 PM","203","203","C/In"
"MinDA","FP","","9/18/2017 5:00 PM","203","203","C/Out"
"MinDA","FP","","9/19/2017 8:29 AM","203","203","C/In"
"MinDA","FP","","9/19/2017 12:00 PM","203","203","C/Out"
"MinDA","FP","","9/19/2017 12:01 PM","203","203","C/In"
"MinDA","FP","","9/19/2017 5:00 PM","203","203","C/Out"
"MinDA","FP","","9/20/2017 7:43 AM","203","203","C/In"
"MinDA","FP","","9/20/2017 12:16 PM","203","203","C/Out"
"MinDA","FP","","9/20/2017 12:17 PM","203","203","C/In"
"MinDA","FP","","9/22/2017 8:13 AM","203","203","C/In"
"MinDA","FP","","9/22/2017 12:19 PM","203","203","C/Out"
"MinDA","FP","","9/22/2017 12:20 PM","203","203","C/In"
"MinDA","FP","","9/22/2017 5:05 PM","203","203","C/Out"
"MinDA","FP","","9/8/2017 12:10 PM","204","204","C/Out"
"MinDA","FP","","9/8/2017 12:11 PM","204","204","C/In"
"MinDA","FP","","9/11/2017 8:53 AM","204","204","C/In"
"MinDA","FP","","9/11/2017 12:03 PM","204","204","C/Out"
"MinDA","FP","","9/11/2017 12:04 PM","204","204","C/In"
"MinDA","FP","","9/11/2017 6:09 PM","204","204","C/Out"
"MinDA","FP","","9/12/2017 8:57 AM","204","204","C/In"
"MinDA","FP","","9/12/2017 12:58 PM","204","204","C/Out"
"MinDA","FP","","9/12/2017 12:59 PM","204","204","C/In"
"MinDA","FP","","9/15/2017 12:42 PM","204","204","C/Out"
"MinDA","FP","","9/15/2017 12:43 PM","204","204","C/In"
"MinDA","FP","","9/18/2017 12:04 PM","204","204","C/Out"
"MinDA","FP","","9/18/2017 12:05 PM","204","204","C/In"
"MinDA","FP","","9/18/2017 6:01 PM","204","204","C/Out"
"MinDA","FP","","9/19/2017 9:12 AM","204","204","C/In"
"MinDA","FP","","9/19/2017 12:12 PM","204","204","C/Out"
"MinDA","FP","","9/19/2017 12:24 PM","204","204","C/In"
"MinDA","FP","","9/19/2017 6:03 PM","204","204","C/Out"
"MinDA","FP","","9/20/2017 9:00 AM","204","204","C/In"
"MinDA","FP","","9/20/2017 12:16 PM","204","204","C/Out"
"MinDA","FP","","9/20/2017 12:17 PM","204","204","C/In"
"MinDA","FP","","9/20/2017 6:04 PM","204","204","C/Out"
"MinDA","FP","","9/22/2017 12:55 PM","204","204","C/Out"
"MinDA","FP","","9/22/2017 12:56 PM","204","204","C/In"
"MinDA","FP","","9/22/2017 5:31 PM","204","204","C/Out"
"MinDA","FP","","9/25/2017 8:54 AM","204","204","C/In"
"MinDA","FP","","9/11/2017 7:51 AM","206","206","C/In"
"MinDA","FP","","9/11/2017 12:03 PM","206","206","C/Out"
"MinDA","FP","","9/11/2017 12:41 PM","206","206","C/In"
"MinDA","FP","","9/11/2017 5:01 PM","206","206","C/Out"
"MinDA","FP","","9/12/2017 7:55 AM","206","206","C/In"
"MinDA","FP","","9/12/2017 12:36 PM","206","206","C/Out"
"MinDA","FP","","9/12/2017 12:37 PM","206","206","C/In"
"MinDA","FP","","9/12/2017 5:05 PM","206","206","C/Out"
"MinDA","FP","","9/13/2017 7:41 AM","206","206","C/In"
"MinDA","FP","","9/13/2017 12:01 PM","206","206","C/Out"
"MinDA","FP","","9/13/2017 12:21 PM","206","206","C/In"
"MinDA","FP","","9/13/2017 5:00 PM","206","206","C/Out"
"MinDA","FP","","9/14/2017 7:52 AM","206","206","C/In"
"MinDA","FP","","9/15/2017 7:54 AM","206","206","C/In"
"MinDA","FP","","9/15/2017 5:03 PM","206","206","C/Out"
"MinDA","FP","","9/18/2017 7:54 AM","206","206","C/In"
"MinDA","FP","","9/18/2017 12:00 PM","206","206","C/Out"
"MinDA","FP","","9/18/2017 12:01 PM","206","206","C/In"
"MinDA","FP","","9/18/2017 5:00 PM","206","206","C/Out"
"MinDA","FP","","9/19/2017 7:53 AM","206","206","C/In"
"MinDA","FP","","9/19/2017 12:06 PM","206","206","C/Out"
"MinDA","FP","","9/19/2017 12:07 PM","206","206","C/In"
"MinDA","FP","","9/19/2017 5:00 PM","206","206","C/Out"
"MinDA","FP","","9/20/2017 7:44 AM","206","206","C/In"
"MinDA","FP","","9/20/2017 12:23 PM","206","206","C/Out"
"MinDA","FP","","9/20/2017 12:24 PM","206","206","C/In"
"MinDA","FP","","9/20/2017 5:02 PM","206","206","C/Out"
"MinDA","FP","","9/22/2017 7:48 AM","206","206","C/In"
"MinDA","FP","","9/22/2017 12:54 PM","206","206","C/Out"
"MinDA","FP","","9/22/2017 12:55 PM","206","206","C/In"
"MinDA","FP","","9/22/2017 5:01 PM","206","206","C/Out"
"MinDA","FP","","9/25/2017 7:55 AM","206","206","C/In"
"MinDA","FP","","9/8/2017 7:17 AM","216","216","C/In"
"MinDA","FP","","9/8/2017 12:15 PM","216","216","C/Out"
"MinDA","FP","","9/8/2017 12:16 PM","216","216","C/In"
"MinDA","FP","","9/8/2017 12:16 PM","216","216","C/In"
"MinDA","FP","","9/8/2017 5:00 PM","216","216","C/Out"
"MinDA","FP","","9/11/2017 7:31 AM","216","216","C/In"
"MinDA","FP","","9/11/2017 12:25 PM","216","216","C/Out"
"MinDA","FP","","9/11/2017 12:26 PM","216","216","C/In"
"MinDA","FP","","9/11/2017 5:04 PM","216","216","C/Out"
"MinDA","FP","","9/12/2017 7:24 AM","216","216","C/In"
"MinDA","FP","","9/12/2017 12:11 PM","216","216","C/Out"
"MinDA","FP","","9/12/2017 12:12 PM","216","216","C/In"
"MinDA","FP","","9/12/2017 5:01 PM","216","216","C/Out"
"MinDA","FP","","9/13/2017 7:15 AM","216","216","C/In"
"MinDA","FP","","9/15/2017 6:35 AM","216","216","C/In"
"MinDA","FP","","9/15/2017 12:04 PM","216","216","C/Out"
"MinDA","FP","","9/15/2017 12:05 PM","216","216","C/In"
"MinDA","FP","","9/15/2017 5:00 PM","216","216","C/Out"
"MinDA","FP","","9/18/2017 7:29 AM","216","216","C/In"
"MinDA","FP","","9/18/2017 12:02 PM","216","216","C/Out"
"MinDA","FP","","9/18/2017 12:03 PM","216","216","C/In"
"MinDA","FP","","9/18/2017 5:00 PM","216","216","C/Out"
"MinDA","FP","","9/19/2017 7:52 AM","216","216","C/In"
"MinDA","FP","","9/19/2017 12:12 PM","216","216","C/Out"
"MinDA","FP","","9/19/2017 12:20 PM","216","216","C/In"
"MinDA","FP","","9/19/2017 5:00 PM","216","216","C/Out"
"MinDA","FP","","9/20/2017 7:43 AM","216","216","C/In"
"MinDA","FP","","9/20/2017 12:22 PM","216","216","C/Out"
"MinDA","FP","","9/20/2017 12:23 PM","216","216","C/In"
"MinDA","FP","","9/20/2017 12:23 PM","216","216","C/In"
"MinDA","FP","","9/20/2017 5:01 PM","216","216","C/Out"
"MinDA","FP","","9/22/2017 7:27 AM","216","216","C/In"
"MinDA","FP","","9/22/2017 12:15 PM","216","216","C/Out"
"MinDA","FP","","9/22/2017 12:16 PM","216","216","C/In"
"MinDA","FP","","9/22/2017 5:00 PM","216","216","C/Out"
"MinDA","FP","","9/25/2017 8:57 AM","216","216","C/In"
"MinDA","FP","","9/8/2017 12:10 PM","236","236","C/Out"
"MinDA","FP","","9/8/2017 12:11 PM","236","236","C/In"
"MinDA","FP","","9/8/2017 5:59 PM","236","236","C/Out"
"MinDA","FP","","9/14/2017 8:04 AM","236","236","C/In"
"MinDA","FP","","9/15/2017 5:04 PM","236","236","C/Out"
"MinDA","FP","","9/18/2017 8:02 AM","236","236","C/In"
"MinDA","FP","","9/18/2017 12:01 PM","236","236","C/Out"
"MinDA","FP","","9/18/2017 12:02 PM","236","236","C/In"
"MinDA","FP","","9/18/2017 5:03 PM","236","236","C/Out"
"MinDA","FP","","9/19/2017 7:58 AM","236","236","C/In"
"MinDA","FP","","9/19/2017 12:00 PM","236","236","C/Out"
"MinDA","FP","","9/19/2017 12:24 PM","236","236","C/In"
"MinDA","FP","","9/19/2017 5:11 PM","236","236","C/Out"
"MinDA","FP","","9/20/2017 7:50 AM","236","236","C/In"
"MinDA","FP","","9/20/2017 12:07 PM","236","236","C/Out"
"MinDA","FP","","9/20/2017 12:08 PM","236","236","C/In"
"MinDA","FP","","9/22/2017 12:19 PM","236","236","C/Out"
"MinDA","FP","","9/22/2017 12:20 PM","236","236","C/In"
"MinDA","FP","","9/22/2017 5:04 PM","236","236","C/Out"
"MinDA","FP","","9/25/2017 8:20 AM","236","236","C/In"
