"department","VerifyCode","CardNo","checktime","id_no","name","status"
"MinDA","FP","","9/5/2017 5:06 PM","321","321","C/Out"
"MinDA","FP","","9/6/2017 6:46 AM","321","321","C/In"
"MinDA","FP","","9/6/2017 12:08 PM","321","321","C/In"
"MinDA","FP","","9/6/2017 12:30 PM","321","321","C/In"
"MinDA","FP","","9/6/2017 5:19 PM","321","321","C/Out"
"MinDA","FP","","9/7/2017 6:25 AM","321","321","C/In"
"MinDA","FP","","9/7/2017 12:08 PM","321","321","C/In"
"MinDA","FP","","9/7/2017 12:08 PM","321","321","C/In"
"MinDA","FP","","9/7/2017 5:04 PM","321","321","C/Out"
"MinDA","FP","","9/5/2017 5:06 PM","322","322","C/Out"
"MinDA","FP","","9/6/2017 7:32 AM","322","322","C/In"
"MinDA","FP","","9/6/2017 12:26 PM","322","322","C/In"
"MinDA","FP","","9/6/2017 12:27 PM","322","322","C/Out"
"MinDA","FP","","9/6/2017 12:27 PM","322","322","C/In"
"MinDA","FP","","9/6/2017 5:44 PM","322","322","C/Out"
"MinDA","FP","","9/7/2017 7:00 AM","322","322","C/In"
"MinDA","FP","","9/7/2017 12:06 PM","322","322","C/In"
"MinDA","FP","","9/7/2017 12:06 PM","322","322","C/In"
"MinDA","FP","","9/7/2017 6:18 PM","322","322","C/Out"
