"department","VerifyCode","CardNo","checktime","id_no","name","status"
"MinDA","FP","","7/3/2017 7:52 AM","203","203","C/In"
"MinDA","FP","","7/3/2017 3:30 PM","203","203","C/Out"
"MinDA","FP","","7/4/2017 8:01 AM","203","203","C/In"
"MinDA","FP","","7/4/2017 12:18 PM","203","203","C/Out"
"MinDA","FP","","7/4/2017 3:30 PM","203","203","C/Out"
"MinDA","FP","","7/5/2017 3:32 PM","203","203","C/Out"
"MinDA","FP","","7/6/2017 7:53 AM","203","203","C/In"
"MinDA","FP","","7/6/2017 4:09 PM","203","203","C/Out"
"MinDA","FP","","7/7/2017 7:59 AM","203","203","C/In"
"MinDA","FP","","7/7/2017 12:38 PM","203","203","C/Out"
"MinDA","FP","","7/7/2017 12:54 PM","203","203","C/In"
"MinDA","FP","","7/7/2017 5:26 PM","203","203","C/Out"
"MinDA","FP","","7/3/2017 7:33 AM","206","206","C/In"
"MinDA","FP","","7/4/2017 7:50 AM","206","206","C/In"
"MinDA","FP","","7/4/2017 12:05 PM","206","206","C/Out"
"MinDA","FP","","7/4/2017 12:06 PM","206","206","C/In"
"MinDA","FP","","7/4/2017 5:01 PM","206","206","C/Out"
"MinDA","FP","","7/5/2017 7:45 AM","206","206","C/In"
"MinDA","FP","","7/5/2017 12:03 PM","206","206","C/Out"
"MinDA","FP","","7/5/2017 12:04 PM","206","206","C/In"
"MinDA","FP","","7/5/2017 5:00 PM","206","206","C/Out"
"MinDA","FP","","7/6/2017 7:33 AM","206","206","C/In"
"MinDA","FP","","7/6/2017 12:05 PM","206","206","C/Out"
"MinDA","FP","","7/6/2017 12:06 PM","206","206","C/In"
"MinDA","FP","","7/6/2017 5:06 PM","206","206","C/Out"
"MinDA","FP","","7/7/2017 7:37 AM","206","206","C/In"
"MinDA","FP","","7/7/2017 12:54 PM","206","206","C/Out"
"MinDA","FP","","7/7/2017 12:55 PM","206","206","C/In"
"MinDA","FP","","7/7/2017 5:01 PM","206","206","C/Out"
"MinDA","FP","","7/3/2017 8:25 AM","236","236","C/In"
"MinDA","FP","","7/3/2017 1:02 PM","236","236","C/In"
"MinDA","FP","","7/4/2017 8:22 AM","236","236","C/In"
"MinDA","FP","","7/4/2017 12:07 PM","236","236","C/Out"
"MinDA","FP","","7/4/2017 12:08 PM","236","236","C/In"
"MinDA","FP","","7/4/2017 5:13 PM","236","236","C/Out"
"MinDA","FP","","7/5/2017 8:22 AM","236","236","C/In"
"MinDA","FP","","7/5/2017 5:01 PM","236","236","C/Out"
"MinDA","FP","","7/5/2017 5:04 PM","236","236","C/Out"
"MinDA","FP","","7/6/2017 12:06 PM","236","236","C/Out"
"MinDA","FP","","7/6/2017 12:07 PM","236","236","C/In"
"MinDA","FP","","7/6/2017 5:12 PM","236","236","C/Out"
"MinDA","FP","","7/7/2017 8:14 AM","236","236","C/In"
"MinDA","FP","","7/7/2017 12:13 PM","236","236","C/Out"
"MinDA","FP","","7/7/2017 12:14 PM","236","236","C/In"
"MinDA","FP","","7/7/2017 5:24 PM","236","236","C/Out"
