"department","VerifyCode","CardNo","checktime","id_no","name","status"
"MinDA","Fingerpint","","12/19/2017 7:26 AM","291","291","C/In"
"MinDA","Fingerpint","","12/19/2017 12:02 PM","291","291","C/Out"
"MinDA","Fingerpint","","12/19/2017 12:03 PM","291","291","C/In"
"MinDA","Fingerpint","","12/19/2017 5:01 PM","291","291","C/Out"
"MinDA","Fingerpint","","12/20/2017 7:28 AM","291","291","C/In"
"MinDA","Fingerpint","","12/20/2017 12:02 PM","291","291","C/Out"
"MinDA","Fingerpint","","12/20/2017 12:02 PM","291","291","C/In"
"MinDA","Fingerpint","","12/19/2017 10:02 AM","293","293","C/In"
"MinDA","Fingerpint","","12/19/2017 12:02 PM","293","293","C/Out"
"MinDA","Fingerpint","","12/19/2017 12:02 PM","293","293","C/In"
"MinDA","Fingerpint","","12/19/2017 5:01 PM","293","293","C/Out"
