"department","VerifyCode","CardNo","checktime","id_no","name","status"
"MinDA","Fingerpint","","11/6/2017 7:22 AM","79","REYNALDO, GERARDO B","C/In"
"MinDA","Fingerpint","","11/6/2017 12:01 PM","79","REYNALDO, GERARDO B","C/Out"
"MinDA","Fingerpint","","11/6/2017 12:01 PM","79","REYNALDO, GERARDO B","C/In"
"MinDA","Fingerpint","","11/6/2017 5:00 PM","79","REYNALDO, GERARDO B","C/In"
"MinDA","Fingerpint","","11/15/2017 5:17 PM","79","REYNALDO, GERARDO B","C/In"
"MinDA","Fingerpint","","11/16/2017 7:18 AM","79","REYNALDO, GERARDO B","C/In"
"MinDA","Fingerpint","","11/16/2017 5:01 PM","79","REYNALDO, GERARDO B","C/Out"
"MinDA","Fingerpint","","11/20/2017 6:44 AM","79","REYNALDO, GERARDO B","C/In"
"MinDA","Fingerpint","","11/20/2017 5:26 PM","79","REYNALDO, GERARDO B","C/In"
"MinDA","Fingerpint","","11/21/2017 7:32 AM","79","REYNALDO, GERARDO B","C/In"
"MinDA","Fingerpint","","11/21/2017 12:01 PM","79","REYNALDO, GERARDO B","C/Out"
"MinDA","Fingerpint","","11/21/2017 12:01 PM","79","REYNALDO, GERARDO B","C/In"
"MinDA","Fingerpint","","11/21/2017 5:00 PM","79","REYNALDO, GERARDO B","C/In"
"MinDA","Fingerpint","","11/21/2017 5:00 PM","79","REYNALDO, GERARDO B","C/Out"
"MinDA","Fingerpint","","11/22/2017 7:45 AM","79","REYNALDO, GERARDO B","C/In"
"MinDA","Fingerpint","","11/22/2017 12:02 PM","79","REYNALDO, GERARDO B","C/Out"
"MinDA","Fingerpint","","11/22/2017 12:02 PM","79","REYNALDO, GERARDO B","C/In"
"MinDA","Fingerpint","","11/22/2017 5:01 PM","79","REYNALDO, GERARDO B","C/Out"
"MinDA","Fingerpint","","11/23/2017 7:11 AM","79","REYNALDO, GERARDO B","C/In"
"MinDA","Fingerpint","","11/23/2017 12:00 PM","79","REYNALDO, GERARDO B","C/Out"
"MinDA","Fingerpint","","11/23/2017 12:00 PM","79","REYNALDO, GERARDO B","C/In"
"MinDA","Fingerpint","","12/7/2017 12:03 PM","79","REYNALDO, GERARDO B","C/Out"
"MinDA","Fingerpint","","12/7/2017 12:03 PM","79","REYNALDO, GERARDO B","C/In"
"MinDA","Fingerpint","","12/8/2017 6:02 PM","79","REYNALDO, GERARDO B","C/In"
"MinDA","Fingerpint","","11/13/2017 8:21 AM","174","BUHAT, RENATO JR. A","C/In"
"MinDA","Fingerpint","","11/13/2017 12:05 PM","174","BUHAT, RENATO JR. A","C/Out"
"MinDA","Fingerpint","","11/13/2017 12:09 PM","174","BUHAT, RENATO JR. A","C/In"
"MinDA","Fingerpint","","11/14/2017 12:04 PM","174","BUHAT, RENATO JR. A","C/Out"
"MinDA","Fingerpint","","11/14/2017 12:54 PM","174","BUHAT, RENATO JR. A","C/In"
"MinDA","Fingerpint","","11/14/2017 5:13 PM","174","BUHAT, RENATO JR. A","C/Out"
"MinDA","Fingerpint","","12/6/2017 7:46 AM","174","BUHAT, RENATO JR. A","C/In"
"MinDA","Fingerpint","","12/6/2017 12:48 PM","174","BUHAT, RENATO JR. A","C/Out"
"MinDA","Fingerpint","","12/6/2017 12:50 PM","174","BUHAT, RENATO JR. A","C/In"
"MinDA","Fingerpint","","12/6/2017 5:02 PM","174","BUHAT, RENATO JR. A","C/Out"
"MinDA","Fingerpint","","12/8/2017 5:02 PM","174","BUHAT, RENATO JR. A","C/Out"
"MinDA","Fingerpint","","11/2/2017 7:41 AM","291","291","C/In"
"MinDA","Fingerpint","","11/2/2017 12:31 PM","291","291","C/Out"
"MinDA","Fingerpint","","11/2/2017 12:31 PM","291","291","C/In"
"MinDA","Fingerpint","","11/2/2017 5:05 PM","291","291","C/Out"
"MinDA","Fingerpint","","11/3/2017 7:42 AM","291","291","C/In"
"MinDA","Fingerpint","","11/3/2017 12:08 PM","291","291","C/Out"
"MinDA","Fingerpint","","11/3/2017 12:08 PM","291","291","C/In"
"MinDA","Fingerpint","","11/3/2017 5:03 PM","291","291","C/Out"
"MinDA","Fingerpint","","11/6/2017 7:31 AM","291","291","C/In"
"MinDA","Fingerpint","","11/6/2017 12:01 PM","291","291","C/Out"
"MinDA","Fingerpint","","11/6/2017 12:04 PM","291","291","C/In"
"MinDA","Fingerpint","","11/6/2017 5:01 PM","291","291","C/Out"
"MinDA","Fingerpint","","11/7/2017 7:41 AM","291","291","C/In"
"MinDA","Fingerpint","","11/7/2017 12:01 PM","291","291","C/Out"
"MinDA","Fingerpint","","11/7/2017 12:15 PM","291","291","C/In"
"MinDA","Fingerpint","","11/7/2017 5:01 PM","291","291","C/Out"
"MinDA","Fingerpint","","11/8/2017 7:34 AM","291","291","C/In"
"MinDA","Fingerpint","","11/8/2017 12:10 PM","291","291","C/Out"
"MinDA","Fingerpint","","11/8/2017 12:22 PM","291","291","C/In"
"MinDA","Fingerpint","","11/8/2017 5:01 PM","291","291","C/Out"
"MinDA","Fingerpint","","11/9/2017 7:39 AM","291","291","C/In"
"MinDA","Fingerpint","","11/9/2017 12:02 PM","291","291","C/Out"
"MinDA","Fingerpint","","11/9/2017 12:16 PM","291","291","C/In"
"MinDA","Fingerpint","","11/9/2017 5:02 PM","291","291","C/Out"
"MinDA","Fingerpint","","11/10/2017 7:37 AM","291","291","C/In"
"MinDA","Fingerpint","","11/10/2017 12:01 PM","291","291","C/Out"
"MinDA","Fingerpint","","11/10/2017 12:18 PM","291","291","C/In"
"MinDA","Fingerpint","","11/10/2017 5:01 PM","291","291","C/Out"
"MinDA","Fingerpint","","11/13/2017 7:36 AM","291","291","C/In"
"MinDA","Fingerpint","","11/13/2017 12:01 PM","291","291","C/Out"
"MinDA","Fingerpint","","11/13/2017 12:10 PM","291","291","C/In"
"MinDA","Fingerpint","","11/13/2017 5:02 PM","291","291","C/Out"
"MinDA","Fingerpint","","11/14/2017 7:44 AM","291","291","C/In"
"MinDA","Fingerpint","","11/14/2017 12:01 PM","291","291","C/Out"
"MinDA","Fingerpint","","11/14/2017 12:14 PM","291","291","C/In"
"MinDA","Fingerpint","","11/14/2017 5:01 PM","291","291","C/Out"
"MinDA","Fingerpint","","11/15/2017 7:48 AM","291","291","C/In"
"MinDA","Fingerpint","","11/15/2017 12:02 PM","291","291","C/Out"
"MinDA","Fingerpint","","11/15/2017 12:24 PM","291","291","C/In"
"MinDA","Fingerpint","","11/15/2017 5:03 PM","291","291","C/Out"
"MinDA","Fingerpint","","11/16/2017 7:26 AM","291","291","C/In"
"MinDA","Fingerpint","","11/16/2017 12:02 PM","291","291","C/Out"
"MinDA","Fingerpint","","11/16/2017 12:14 PM","291","291","C/In"
"MinDA","Fingerpint","","11/16/2017 5:01 PM","291","291","C/Out"
"MinDA","Fingerpint","","11/17/2017 7:44 AM","291","291","C/In"
"MinDA","Fingerpint","","11/17/2017 12:02 PM","291","291","C/Out"
"MinDA","Fingerpint","","11/17/2017 12:04 PM","291","291","C/In"
"MinDA","Fingerpint","","11/17/2017 5:01 PM","291","291","C/Out"
"MinDA","Fingerpint","","11/20/2017 6:05 AM","291","291","C/In"
"MinDA","Fingerpint","","11/20/2017 5:01 PM","291","291","C/Out"
"MinDA","Fingerpint","","11/21/2017 7:28 AM","291","291","C/In"
"MinDA","Fingerpint","","11/21/2017 12:11 PM","291","291","C/Out"
"MinDA","Fingerpint","","11/21/2017 12:11 PM","291","291","C/In"
"MinDA","Fingerpint","","11/21/2017 5:00 PM","291","291","C/Out"
"MinDA","Fingerpint","","11/22/2017 7:35 AM","291","291","C/In"
"MinDA","Fingerpint","","11/22/2017 12:02 PM","291","291","C/Out"
"MinDA","Fingerpint","","11/22/2017 12:28 PM","291","291","C/In"
"MinDA","Fingerpint","","11/22/2017 5:01 PM","291","291","C/Out"
"MinDA","Fingerpint","","11/23/2017 7:37 AM","291","291","C/In"
"MinDA","Fingerpint","","11/23/2017 12:00 PM","291","291","C/Out"
"MinDA","Fingerpint","","11/23/2017 12:20 PM","291","291","C/In"
"MinDA","Fingerpint","","11/23/2017 5:01 PM","291","291","C/Out"
"MinDA","Fingerpint","","11/24/2017 7:26 AM","291","291","C/In"
"MinDA","Fingerpint","","11/24/2017 12:15 PM","291","291","C/Out"
"MinDA","Fingerpint","","11/24/2017 12:15 PM","291","291","C/In"
"MinDA","Fingerpint","","11/24/2017 5:00 PM","291","291","C/Out"
"MinDA","Fingerpint","","11/27/2017 7:22 AM","291","291","C/In"
"MinDA","Fingerpint","","11/27/2017 12:02 PM","291","291","C/Out"
"MinDA","Fingerpint","","11/27/2017 12:04 PM","291","291","C/In"
"MinDA","Fingerpint","","11/27/2017 5:00 PM","291","291","C/Out"
"MinDA","Fingerpint","","11/28/2017 7:17 AM","291","291","C/In"
"MinDA","Fingerpint","","11/28/2017 12:10 PM","291","291","C/Out"
"MinDA","Fingerpint","","11/28/2017 12:10 PM","291","291","C/In"
"MinDA","Fingerpint","","11/28/2017 5:00 PM","291","291","C/Out"
"MinDA","Fingerpint","","11/29/2017 7:14 AM","291","291","C/In"
"MinDA","Fingerpint","","11/29/2017 12:01 PM","291","291","C/Out"
"MinDA","Fingerpint","","11/29/2017 12:01 PM","291","291","C/In"
"MinDA","Fingerpint","","11/29/2017 5:00 PM","291","291","C/Out"
"MinDA","Fingerpint","","12/1/2017 7:30 AM","291","291","C/In"
"MinDA","Fingerpint","","12/1/2017 12:01 PM","291","291","C/Out"
"MinDA","Fingerpint","","12/1/2017 12:01 PM","291","291","C/In"
"MinDA","Fingerpint","","12/1/2017 5:00 PM","291","291","C/Out"
"MinDA","Fingerpint","","12/4/2017 7:27 AM","291","291","C/In"
"MinDA","Fingerpint","","12/4/2017 12:07 PM","291","291","C/Out"
"MinDA","Fingerpint","","12/4/2017 12:07 PM","291","291","C/In"
"MinDA","Fingerpint","","12/4/2017 5:01 PM","291","291","C/Out"
"MinDA","Fingerpint","","12/5/2017 7:17 AM","291","291","C/In"
"MinDA","Fingerpint","","12/5/2017 12:01 PM","291","291","C/Out"
"MinDA","Fingerpint","","12/5/2017 12:01 PM","291","291","C/In"
"MinDA","Fingerpint","","12/5/2017 5:00 PM","291","291","C/Out"
"MinDA","Fingerpint","","12/6/2017 7:14 AM","291","291","C/In"
"MinDA","Fingerpint","","12/6/2017 12:02 PM","291","291","C/Out"
"MinDA","Fingerpint","","12/6/2017 12:02 PM","291","291","C/In"
"MinDA","Fingerpint","","12/6/2017 5:01 PM","291","291","C/Out"
"MinDA","Fingerpint","","12/7/2017 7:25 AM","291","291","C/In"
"MinDA","Fingerpint","","12/7/2017 12:03 PM","291","291","C/Out"
"MinDA","Fingerpint","","12/7/2017 12:03 PM","291","291","C/In"
"MinDA","Fingerpint","","12/7/2017 5:02 PM","291","291","C/Out"
"MinDA","Fingerpint","","12/8/2017 5:01 PM","291","291","C/Out"
"MinDA","Fingerpint","","12/11/2017 7:20 AM","291","291","C/In"
"MinDA","Fingerpint","","12/11/2017 12:02 PM","291","291","C/Out"
"MinDA","Fingerpint","","12/11/2017 12:18 PM","291","291","C/In"
"MinDA","Fingerpint","","12/15/2017 7:29 AM","291","291","C/In"
"MinDA","Fingerpint","","12/15/2017 12:01 PM","291","291","C/Out"
"MinDA","Fingerpint","","12/15/2017 12:05 PM","291","291","C/In"
"MinDA","Fingerpint","","12/15/2017 5:01 PM","291","291","C/Out"
"MinDA","Fingerpint","","12/18/2017 7:30 AM","291","291","C/In"
"MinDA","Fingerpint","","12/18/2017 12:01 PM","291","291","C/Out"
"MinDA","Fingerpint","","12/18/2017 12:13 PM","291","291","C/In"
"MinDA","Fingerpint","","12/18/2017 5:01 PM","291","291","C/Out"
"MinDA","Fingerpint","","12/19/2017 7:26 AM","291","291","C/In"
"MinDA","Fingerpint","","11/6/2017 12:48 PM","293","293","C/In"
"MinDA","Fingerpint","","11/6/2017 5:25 PM","293","293","C/Out"
"MinDA","Fingerpint","","11/8/2017 12:10 PM","293","293","C/In"
"MinDA","Fingerpint","","11/8/2017 5:07 PM","293","293","C/Out"
"MinDA","Fingerpint","","11/14/2017 9:44 AM","293","293","C/In"
"MinDA","Fingerpint","","11/14/2017 12:26 PM","293","293","C/In"
"MinDA","Fingerpint","","11/14/2017 12:26 PM","293","293","C/Out"
"MinDA","Fingerpint","","11/14/2017 5:01 PM","293","293","C/Out"
"MinDA","Fingerpint","","11/15/2017 5:54 PM","293","293","C/Out"
"MinDA","Fingerpint","","11/16/2017 10:32 AM","293","293","C/In"
"MinDA","Fingerpint","","11/16/2017 12:10 PM","293","293","C/Out"
"MinDA","Fingerpint","","11/16/2017 12:10 PM","293","293","C/In"
"MinDA","Fingerpint","","11/16/2017 5:16 PM","293","293","C/Out"
"MinDA","Fingerpint","","11/17/2017 12:19 PM","293","293","C/Out"
"MinDA","Fingerpint","","11/17/2017 12:19 PM","293","293","C/In"
"MinDA","Fingerpint","","11/20/2017 12:48 PM","293","293","C/Out"
"MinDA","Fingerpint","","11/20/2017 12:48 PM","293","293","C/In"
"MinDA","Fingerpint","","11/20/2017 5:07 PM","293","293","C/Out"
"MinDA","Fingerpint","","11/22/2017 10:49 AM","293","293","C/In"
"MinDA","Fingerpint","","11/22/2017 12:04 PM","293","293","C/Out"
"MinDA","Fingerpint","","11/22/2017 12:04 PM","293","293","C/In"
"MinDA","Fingerpint","","11/22/2017 5:34 PM","293","293","C/Out"
"MinDA","Fingerpint","","12/7/2017 9:52 AM","293","293","C/In"
"MinDA","Fingerpint","","12/7/2017 12:16 PM","293","293","C/Out"
"MinDA","Fingerpint","","12/7/2017 12:16 PM","293","293","C/In"
"MinDA","Fingerpint","","12/7/2017 5:56 PM","293","293","C/Out"
"MinDA","Fingerpint","","12/8/2017 12:13 PM","293","293","C/Out"
"MinDA","Fingerpint","","12/8/2017 12:13 PM","293","293","C/In"
"MinDA","Fingerpint","","12/8/2017 6:06 PM","293","293","C/Out"
"MinDA","Fingerpint","","12/11/2017 12:36 PM","293","293","C/Out"
"MinDA","Fingerpint","","12/11/2017 12:36 PM","293","293","C/In"
"MinDA","Fingerpint","","12/11/2017 5:07 PM","293","293","C/Out"
