"department","VerifyCode","CardNo","checktime","id_no","name","status"
"MinDA","Fingerpint","","7/3/2017 7:17 AM","291","291","C/In"
"MinDA","Fingerpint","","7/3/2017 12:01 PM","291","291","C/Out"
"MinDA","Fingerpint","","7/3/2017 12:19 PM","291","291","C/In"
"MinDA","Fingerpint","","7/3/2017 5:01 PM","291","291","C/Out"
"MinDA","Fingerpint","","7/4/2017 7:17 AM","291","291","C/In"
"MinDA","Fingerpint","","7/4/2017 12:04 PM","291","291","C/Out"
"MinDA","Fingerpint","","7/4/2017 12:14 PM","291","291","C/In"
"MinDA","Fingerpint","","7/4/2017 5:01 PM","291","291","C/Out"
"MinDA","Fingerpint","","7/5/2017 7:15 AM","291","291","C/In"
"MinDA","Fingerpint","","7/5/2017 7:23 AM","291","291","C/In"
"MinDA","Fingerpint","","7/5/2017 12:06 PM","291","291","C/Out"
"MinDA","Fingerpint","","7/5/2017 12:18 PM","291","291","C/In"
"MinDA","Fingerpint","","7/5/2017 5:01 PM","291","291","C/Out"
"MinDA","Fingerpint","","7/6/2017 7:10 AM","291","291","C/In"
"MinDA","Fingerpint","","7/6/2017 12:01 PM","291","291","C/Out"
"MinDA","Fingerpint","","7/6/2017 12:23 PM","291","291","C/Out"
"MinDA","Fingerpint","","7/6/2017 5:00 PM","291","291","C/Out"
"MinDA","Fingerpint","","7/7/2017 7:04 AM","291","291","C/In"
"MinDA","Fingerpint","","7/7/2017 12:06 PM","291","291","C/Out"
"MinDA","Fingerpint","","7/7/2017 12:14 PM","291","291","C/In"
"MinDA","Fingerpint","","7/7/2017 5:01 PM","291","291","C/Out"
"MinDA","Fingerpint","","7/3/2017 7:48 AM","292","292","C/In"
"MinDA","Fingerpint","","7/3/2017 12:09 PM","292","292","C/Out"
"MinDA","Fingerpint","","7/3/2017 12:09 PM","292","292","C/In"
"MinDA","Fingerpint","","7/3/2017 5:01 PM","292","292","C/Out"
"MinDA","Fingerpint","","7/4/2017 7:41 AM","292","292","C/In"
"MinDA","Fingerpint","","7/4/2017 12:30 PM","292","292","C/In"
"MinDA","Fingerpint","","7/4/2017 12:31 PM","292","292","C/Out"
"MinDA","Fingerpint","","7/4/2017 12:31 PM","292","292","C/In"
"MinDA","Fingerpint","","7/4/2017 5:00 PM","292","292","C/Out"
"MinDA","Fingerpint","","7/5/2017 7:53 AM","292","292","C/In"
"MinDA","Fingerpint","","7/5/2017 12:23 PM","292","292","C/Out"
"MinDA","Fingerpint","","7/5/2017 12:23 PM","292","292","C/In"
"MinDA","Fingerpint","","7/5/2017 6:10 PM","292","292","C/Out"
"MinDA","Fingerpint","","7/6/2017 7:53 AM","292","292","C/In"
"MinDA","Fingerpint","","7/6/2017 12:09 PM","292","292","C/Out"
"MinDA","Fingerpint","","7/6/2017 12:09 PM","292","292","C/In"
"MinDA","Fingerpint","","7/6/2017 7:25 PM","292","292","C/Out"
"MinDA","Fingerpint","","7/7/2017 7:56 AM","292","292","C/In"
"MinDA","Fingerpint","","7/7/2017 12:07 PM","292","292","C/Out"
"MinDA","Fingerpint","","7/7/2017 12:07 PM","292","292","C/In"
"MinDA","Fingerpint","","7/7/2017 6:59 PM","292","292","C/Out"
"MinDA","Fingerpint","","7/6/2017 9:05 AM","293","293","C/In"
"MinDA","Fingerpint","","7/6/2017 12:09 PM","293","293","C/Out"
"MinDA","Fingerpint","","7/6/2017 12:09 PM","293","293","C/In"
"MinDA","Fingerpint","","7/6/2017 6:05 PM","293","293","C/Out"
"MinDA","Fingerpint","","7/7/2017 12:07 PM","293","293","C/Out"
"MinDA","Fingerpint","","7/7/2017 12:07 PM","293","293","C/In"
"MinDA","Fingerpint","","7/7/2017 5:14 PM","293","293","C/Out"
