"department","VerifyCode","CardNo","checktime","id_no","name","status"
"MinDA","FP","","5/2/2017 6:48 AM","216","216","C/In"
"MinDA","FP","","5/2/2017 12:35 PM","216","216","C/Out"
"MinDA","FP","","5/2/2017 12:36 PM","216","216","C/In"
"MinDA","FP","","5/2/2017 5:00 PM","216","216","C/Out"
"MinDA","FP","","5/3/2017 7:04 AM","216","216","C/In"
"MinDA","FP","","5/3/2017 12:29 PM","216","216","C/Out"
"MinDA","FP","","5/3/2017 12:30 PM","216","216","C/In"
"MinDA","FP","","5/3/2017 5:00 PM","216","216","C/Out"
"MinDA","FP","","5/4/2017 7:01 AM","216","216","C/In"
"MinDA","FP","","5/4/2017 7:01 AM","216","216","C/In"
"MinDA","FP","","5/4/2017 12:02 PM","216","216","C/Out"
"MinDA","FP","","5/4/2017 12:26 PM","216","216","C/In"
"MinDA","FP","","5/4/2017 5:00 PM","216","216","C/Out"
"MinDA","FP","","5/5/2017 7:04 AM","216","216","C/In"
"MinDA","FP","","5/5/2017 12:31 PM","216","216","C/Out"
"MinDA","FP","","5/5/2017 12:33 PM","216","216","C/In"
"MinDA","FP","","5/5/2017 5:01 PM","216","216","C/Out"
"MinDA","FP","","5/15/2017 12:32 PM","216","216","C/In"
"MinDA","FP","","5/15/2017 5:14 PM","216","216","C/Out"
"MinDA","FP","","5/16/2017 7:21 AM","216","216","C/In"
"MinDA","FP","","5/16/2017 12:16 PM","216","216","C/Out"
"MinDA","FP","","5/16/2017 12:28 PM","216","216","C/In"
"MinDA","FP","","5/16/2017 5:04 PM","216","216","C/Out"
"MinDA","FP","","5/17/2017 7:02 AM","216","216","C/In"
"MinDA","FP","","5/17/2017 12:14 PM","216","216","C/Out"
"MinDA","FP","","5/17/2017 12:15 PM","216","216","C/In"
"MinDA","FP","","5/17/2017 5:01 PM","216","216","C/Out"
"MinDA","FP","","5/18/2017 6:56 AM","216","216","C/In"
"MinDA","FP","","5/18/2017 12:17 PM","216","216","C/Out"
"MinDA","FP","","5/18/2017 12:18 PM","216","216","C/In"
"MinDA","FP","","5/18/2017 5:00 PM","216","216","C/Out"
"MinDA","FP","","5/19/2017 7:38 AM","216","216","C/In"
"MinDA","FP","","5/19/2017 12:00 PM","216","216","C/Out"
"MinDA","FP","","5/19/2017 12:20 PM","216","216","C/In"
"MinDA","FP","","5/19/2017 5:00 PM","216","216","C/Out"
"MinDA","FP","","5/22/2017 7:08 AM","216","216","C/In"
"MinDA","FP","","5/22/2017 12:21 PM","216","216","C/Out"
"MinDA","FP","","5/22/2017 12:22 PM","216","216","C/In"
"MinDA","FP","","5/22/2017 5:00 PM","216","216","C/Out"
"MinDA","FP","","5/23/2017 7:16 AM","216","216","C/In"
"MinDA","FP","","5/23/2017 12:34 PM","216","216","C/Out"
"MinDA","FP","","5/23/2017 12:35 PM","216","216","C/In"
"MinDA","FP","","5/23/2017 5:00 PM","216","216","C/Out"
"MinDA","FP","","5/24/2017 7:28 AM","216","216","C/In"
"MinDA","FP","","5/24/2017 12:27 PM","216","216","C/Out"
"MinDA","FP","","5/24/2017 12:28 PM","216","216","C/In"
"MinDA","FP","","5/24/2017 5:00 PM","216","216","C/Out"
"MinDA","FP","","5/25/2017 7:45 AM","216","216","C/In"
"MinDA","FP","","5/25/2017 12:28 PM","216","216","C/Out"
"MinDA","FP","","5/25/2017 12:29 PM","216","216","C/In"
"MinDA","FP","","5/25/2017 5:00 PM","216","216","C/Out"
"MinDA","FP","","5/29/2017 7:57 AM","216","216","C/In"
"MinDA","FP","","5/29/2017 12:21 PM","216","216","C/Out"
"MinDA","FP","","5/29/2017 12:22 PM","216","216","C/In"
"MinDA","FP","","5/29/2017 5:03 PM","216","216","C/Out"
"MinDA","FP","","5/30/2017 8:04 AM","216","216","C/In"
"MinDA","FP","","5/30/2017 12:31 PM","216","216","C/Out"
"MinDA","FP","","5/30/2017 12:32 PM","216","216","C/In"
"MinDA","FP","","5/30/2017 5:00 PM","216","216","C/Out"
"MinDA","FP","","5/31/2017 7:31 AM","216","216","C/In"
"MinDA","FP","","5/31/2017 12:18 PM","216","216","C/Out"
"MinDA","FP","","5/31/2017 12:19 PM","216","216","C/In"
"MinDA","FP","","5/31/2017 5:04 PM","216","216","C/Out"
"MinDA","FP","","6/1/2017 7:21 AM","216","216","C/In"
"MinDA","FP","","6/1/2017 12:04 PM","216","216","C/Out"
"MinDA","FP","","6/1/2017 12:05 PM","216","216","C/In"
"MinDA","FP","","6/1/2017 5:02 PM","216","216","C/Out"
"MinDA","FP","","6/2/2017 7:50 AM","216","216","C/In"
"MinDA","FP","","6/2/2017 12:14 PM","216","216","C/Out"
"MinDA","FP","","6/2/2017 12:15 PM","216","216","C/In"
"MinDA","FP","","6/2/2017 5:00 PM","216","216","C/Out"
"MinDA","FP","","6/5/2017 8:17 AM","216","216","C/In"
"MinDA","FP","","6/5/2017 12:04 PM","216","216","C/Out"
"MinDA","FP","","6/5/2017 12:05 PM","216","216","C/In"
"MinDA","FP","","6/5/2017 5:00 PM","216","216","C/Out"
"MinDA","FP","","6/6/2017 6:56 AM","216","216","C/In"
"MinDA","FP","","6/6/2017 12:04 PM","216","216","C/Out"
"MinDA","FP","","6/6/2017 12:05 PM","216","216","C/In"
"MinDA","FP","","6/6/2017 5:00 PM","216","216","C/Out"
"MinDA","FP","","6/7/2017 7:06 AM","216","216","C/In"
"MinDA","FP","","6/7/2017 12:10 PM","216","216","C/Out"
"MinDA","FP","","6/7/2017 12:12 PM","216","216","C/Out"
"MinDA","FP","","6/7/2017 12:12 PM","216","216","C/In"
"MinDA","FP","","6/7/2017 5:00 PM","216","216","C/Out"
