"department","VerifyCode","CardNo","checktime","id_no","name","status"
"MinDA","FP","","12/19/2017 8:33 AM","203","203","C/In"
"MinDA","FP","","12/19/2017 5:00 PM","203","203","C/Out"
"MinDA","FP","","12/20/2017 12:38 PM","203","203","C/Out"
"MinDA","FP","","12/20/2017 12:39 PM","203","203","C/In"
"MinDA","FP","","12/19/2017 12:10 PM","204","204","C/Out"
"MinDA","FP","","12/19/2017 12:11 PM","204","204","C/In"
"MinDA","FP","","12/20/2017 12:38 PM","204","204","C/Out"
"MinDA","FP","","12/20/2017 12:41 PM","204","204","C/In"
"MinDA","FP","","12/19/2017 7:53 AM","206","206","C/In"
"MinDA","FP","","12/20/2017 12:23 PM","206","206","C/Out"
"MinDA","FP","","12/20/2017 12:24 PM","206","206","C/In"
"MinDA","FP","","12/19/2017 6:54 AM","216","216","C/In"
"MinDA","FP","","12/19/2017 6:54 AM","216","216","C/In"
"MinDA","FP","","12/20/2017 7:12 AM","216","216","C/In"
"MinDA","FP","","12/20/2017 12:38 PM","216","216","C/Out"
"MinDA","FP","","12/20/2017 12:38 PM","216","216","C/Out"
"MinDA","FP","","12/20/2017 12:39 PM","216","216","C/In"
"MinDA","FP","","12/19/2017 7:29 AM","236","236","C/In"
"MinDA","FP","","12/19/2017 5:01 PM","236","236","C/Out"
"MinDA","FP","","12/20/2017 12:40 PM","236","236","C/Out"
"MinDA","FP","","12/20/2017 12:41 PM","236","236","C/In"
