"department","VerifyCode","CardNo","checktime","id_no","name","status"
"OUR COMPANY","FP","","2/10/2017 5:05 AM","1","LUCERNA RYAN","C/Out"
"OUR COMPANY","FP","","2/10/2017 5:11 AM","1","LUCERNA RYAN","C/Out"
"OUR COMPANY","FP","","2/10/2017 5:11 AM","1","LUCERNA RYAN","C/Out"
"OUR COMPANY","FP","","2/10/2017 12:20 PM","1","LUCERNA RYAN","C/In"
"OUR COMPANY","FP","","2/10/2017 12:20 PM","1","LUCERNA RYAN","C/Out"
"OUR COMPANY","FP","","2/10/2017 12:20 PM","1","LUCERNA RYAN","C/In"
"OUR COMPANY","FP","","2/9/2017 10:47 AM","2","Althea Bianca Hong","C/Out"
"OUR COMPANY","FP","","2/9/2017 10:47 AM","2","Althea Bianca Hong","C/Out"
"OUR COMPANY","FP","","2/9/2017 10:47 AM","2","Althea Bianca Hong","C/Out"
"OUR COMPANY","FP","","2/9/2017 11:11 AM","2","Althea Bianca Hong","C/Out"
"OUR COMPANY","FP","","2/9/2017 11:12 AM","2","Althea Bianca Hong","C/In"
"OUR COMPANY","FP","","2/10/2017 4:53 AM","2","Althea Bianca Hong","C/Out"
"OUR COMPANY","FP","","2/10/2017 4:56 AM","2","Althea Bianca Hong","C/Out"
"OUR COMPANY","FP","","2/10/2017 4:56 AM","2","Althea Bianca Hong","C/Out"
"OUR COMPANY","FP","","2/10/2017 4:57 AM","2","Althea Bianca Hong","C/Out"
"OUR COMPANY","FP","","2/10/2017 9:14 AM","2","Althea Bianca Hong","C/In"
"OUR COMPANY","FP","","2/9/2017 7:51 AM","3","3","C/In"
"OUR COMPANY","FP","","2/10/2017 4:40 AM","3","3","C/In"
"OUR COMPANY","FP","","2/9/2017 8:31 AM","203","SALIMIN , JEVA","C/In"
"OUR COMPANY","FP","","2/9/2017 12:13 PM","203","SALIMIN , JEVA","C/Out"
"OUR COMPANY","FP","","2/9/2017 12:14 PM","203","SALIMIN , JEVA","C/In"
"OUR COMPANY","FP","","2/9/2017 7:55 PM","203","SALIMIN , JEVA","C/Out"
"OUR COMPANY","FP","","2/10/2017 8:30 AM","203","SALIMIN , JEVA","C/In"
"OUR COMPANY","FP","","2/10/2017 12:20 PM","203","SALIMIN , JEVA","C/Out"
"OUR COMPANY","FP","","2/10/2017 12:21 PM","203","SALIMIN , JEVA","C/In"
"OUR COMPANY","FP","","2/10/2017 7:14 PM","203","SALIMIN , JEVA","C/Out"
"OUR COMPANY","FP","","2/17/2017 8:13 AM","203","SALIMIN , JEVA","C/In"
"OUR COMPANY","FP","","2/17/2017 12:02 PM","203","SALIMIN , JEVA","C/Out"
"OUR COMPANY","FP","","2/17/2017 12:42 PM","203","SALIMIN , JEVA","C/In"
"OUR COMPANY","FP","","2/17/2017 8:40 PM","203","SALIMIN , JEVA","C/Out"
"OUR COMPANY","FP","","2/20/2017 12:48 PM","203","SALIMIN , JEVA","C/Out"
"OUR COMPANY","FP","","2/20/2017 12:49 PM","203","SALIMIN , JEVA","C/In"
"OUR COMPANY","FP","","2/20/2017 5:48 PM","203","SALIMIN , JEVA","C/Out"
"OUR COMPANY","FP","","2/9/2017 9:33 AM","204","TOLENTINO , JEAN PAUL","C/In"
"OUR COMPANY","FP","","2/9/2017 9:33 AM","204","TOLENTINO , JEAN PAUL","C/In"
"OUR COMPANY","FP","","2/9/2017 12:13 PM","204","TOLENTINO , JEAN PAUL","C/Out"
"OUR COMPANY","FP","","2/9/2017 12:14 PM","204","TOLENTINO , JEAN PAUL","C/In"
"OUR COMPANY","FP","","2/9/2017 6:08 PM","204","TOLENTINO , JEAN PAUL","C/Out"
"OUR COMPANY","FP","","2/10/2017 9:14 AM","204","TOLENTINO , JEAN PAUL","C/In"
"OUR COMPANY","FP","","2/10/2017 12:07 PM","204","TOLENTINO , JEAN PAUL","C/Out"
"OUR COMPANY","FP","","2/10/2017 12:08 PM","204","TOLENTINO , JEAN PAUL","C/In"
"OUR COMPANY","FP","","2/10/2017 5:20 PM","204","TOLENTINO , JEAN PAUL","C/Out"
"OUR COMPANY","FP","","2/17/2017 12:41 PM","204","TOLENTINO , JEAN PAUL","C/Out"
"OUR COMPANY","FP","","2/17/2017 12:48 PM","204","TOLENTINO , JEAN PAUL","C/In"
"OUR COMPANY","FP","","2/20/2017 12:05 PM","204","TOLENTINO , JEAN PAUL","C/Out"
"OUR COMPANY","FP","","2/20/2017 5:42 PM","204","TOLENTINO , JEAN PAUL","C/Out"
"OUR COMPANY","FP","","2/9/2017 8:41 AM","206","IRAJI , OMAR","C/In"
"OUR COMPANY","FP","","2/9/2017 12:13 PM","206","IRAJI , OMAR","C/Out"
"OUR COMPANY","FP","","2/9/2017 12:14 PM","206","IRAJI , OMAR","C/In"
"OUR COMPANY","FP","","2/9/2017 5:05 PM","206","IRAJI , OMAR","C/Out"
"OUR COMPANY","FP","","2/10/2017 7:44 AM","206","IRAJI , OMAR","C/In"
"OUR COMPANY","FP","","2/10/2017 12:55 PM","206","IRAJI , OMAR","C/Out"
"OUR COMPANY","FP","","2/10/2017 12:57 PM","206","IRAJI , OMAR","C/In"
"OUR COMPANY","FP","","2/10/2017 5:02 PM","206","IRAJI , OMAR","C/Out"
"OUR COMPANY","FP","","2/13/2017 7:47 AM","206","IRAJI , OMAR","C/In"
"OUR COMPANY","FP","","2/13/2017 5:02 PM","206","IRAJI , OMAR","C/Out"
"OUR COMPANY","FP","","2/9/2017 8:36 AM","216","VISITACION , ROGELIO","C/In"
"OUR COMPANY","FP","","2/9/2017 12:31 PM","216","VISITACION , ROGELIO","C/Out"
"OUR COMPANY","FP","","2/9/2017 12:32 PM","216","VISITACION , ROGELIO","C/In"
"OUR COMPANY","FP","","2/9/2017 5:00 PM","216","VISITACION , ROGELIO","C/Out"
"OUR COMPANY","FP","","2/10/2017 6:44 AM","216","VISITACION , ROGELIO","C/In"
"OUR COMPANY","FP","","2/10/2017 12:06 PM","216","VISITACION , ROGELIO","C/Out"
"OUR COMPANY","FP","","2/10/2017 12:07 PM","216","VISITACION , ROGELIO","C/In"
"OUR COMPANY","FP","","2/17/2017 7:58 AM","216","VISITACION , ROGELIO","C/In"
"OUR COMPANY","FP","","2/17/2017 12:26 PM","216","VISITACION , ROGELIO","C/Out"
"OUR COMPANY","FP","","2/17/2017 12:27 PM","216","VISITACION , ROGELIO","C/In"
"OUR COMPANY","FP","","2/17/2017 5:07 PM","216","VISITACION , ROGELIO","C/Out"
"OUR COMPANY","FP","","2/9/2017 8:43 AM","236","PABALINAS, ERICA J","C/In"
"OUR COMPANY","FP","","2/9/2017 12:13 PM","236","PABALINAS, ERICA J","C/Out"
"OUR COMPANY","FP","","2/9/2017 12:14 PM","236","PABALINAS, ERICA J","C/In"
"OUR COMPANY","FP","","2/9/2017 5:58 PM","236","PABALINAS, ERICA J","C/Out"
"OUR COMPANY","FP","","2/10/2017 12:31 PM","236","PABALINAS, ERICA J","C/In"
"OUR COMPANY","FP","","2/10/2017 12:51 PM","236","PABALINAS, ERICA J","C/In"
"OUR COMPANY","FP","","2/10/2017 5:50 PM","236","PABALINAS, ERICA J","C/Out"
"OUR COMPANY","FP","","2/17/2017 8:14 AM","236","PABALINAS, ERICA J","C/In"
"OUR COMPANY","FP","","2/17/2017 12:01 PM","236","PABALINAS, ERICA J","C/Out"
"OUR COMPANY","FP","","2/17/2017 12:02 PM","236","PABALINAS, ERICA J","C/In"
"OUR COMPANY","FP","","2/17/2017 8:40 PM","236","PABALINAS, ERICA J","C/Out"
