department,VerifyCode,CardNo,checktime,id_no,name,status
MinDA,Fingerpint,,3/26/2018 7:31:00 AM,79,REYNALDO,C/In
MinDA,Fingerpint,,3/26/2018 12:02:00 PM,79,REYNALDO,C/In
MinDA,Fingerpint,,3/26/2018 12:02:00 PM,79,REYNALDO,C/Out
MinDA,Fingerpint,,3/26/2018 12:15:00 PM,79,REYNALDO,C/In
MinDA,Fingerpint,,3/26/2018 5:06:00 PM,79,REYNALDO,C/Out
MinDA,Fingerpint,,3/26/2018 5:04:00 PM,174,BUHAT,C/Out
MinDA,Fingerpint,,3/23/2018 7:18:00 AM,291,291,C/In
MinDA,Fingerpint,,3/23/2018 12:01:00 PM,291,291,C/Out
MinDA,Fingerpint,,3/23/2018 12:22:00 PM,291,291,C/In
MinDA,Fingerpint,,3/23/2018 5:03:00 PM,291,291,C/Out
MinDA,Fingerpint,,3/26/2018 7:14:00 AM,291,291,C/In
MinDA,Fingerpint,,3/26/2018 12:01:00 PM,291,291,C/Out
MinDA,Fingerpint,,3/26/2018 12:15:00 PM,291,291,C/In
MinDA,Fingerpint,,3/26/2018 5:02:00 PM,291,291,C/Out
MinDA,Fingerpint,,3/27/2018 7:19:00 AM,291,291,C/In
MinDA,Fingerpint,,3/27/2018 12:01:00 PM,291,291,C/Out
MinDA,Fingerpint,,3/27/2018 12:22:00 PM,291,291,C/In
MinDA,Fingerpint,,3/27/2018 5:01:00 PM,291,291,C/Out
MinDA,Fingerpint,,3/28/2018 7:13:00 AM,291,291,C/In
MinDA,Fingerpint,,3/28/2018 12:21:00 PM,291,291,C/Out
MinDA,Fingerpint,,3/26/2018 12:20:00 PM,293,293,C/In
MinDA,Fingerpint,,3/26/2018 5:02:00 PM,293,293,C/Out
MinDA,Fingerpint,,3/23/2018 7:54:00 AM,340,340,C/In
MinDA,Fingerpint,,3/23/2018 12:15:00 PM,340,340,C/Out
MinDA,Fingerpint,,3/23/2018 12:44:00 PM,340,340,C/In
MinDA,Fingerpint,,3/23/2018 5:04:00 PM,340,340,C/Out
MinDA,Fingerpint,,3/26/2018 7:48:00 AM,340,340,C/In
MinDA,Fingerpint,,3/26/2018 12:02:00 PM,340,340,C/Out
MinDA,Fingerpint,,3/26/2018 12:16:00 PM,340,340,C/In
MinDA,Fingerpint,,3/26/2018 5:03:00 PM,340,340,C/Out
MinDA,Fingerpint,,3/27/2018 7:48:00 AM,340,340,C/In
MinDA,Fingerpint,,3/27/2018 12:08:00 PM,340,340,C/Out
MinDA,Fingerpint,,3/27/2018 12:23:00 PM,340,340,C/In
MinDA,Fingerpint,,3/27/2018 5:01:00 PM,340,340,C/Out
MinDA,Fingerpint,,3/28/2018 7:55:00 AM,340,340,C/In
MinDA,Fingerpint,,3/28/2018 12:07:00 PM,340,340,C/Out
