department,VerifyCode,CardNo,checktime,id_no,name,status
MinDA,Fingerpint,,2/8/2018 12:03 PM,79,REYNALDO,C/Out
MinDA,Fingerpint,,2/8/2018 12:17 PM,79,REYNALDO,C/In
MinDA,Fingerpint,,2/8/2018 5:04 PM,79,REYNALDO,C/Out
MinDA,Fingerpint,,2/9/2018 7:45 AM,79,REYNALDO,C/In
MinDA,Fingerpint,,2/9/2018 12:12 PM,79,REYNALDO,C/Out
MinDA,Fingerpint,,2/9/2018 12:24 PM,79,REYNALDO,C/In
MinDA,Fingerpint,,2/9/2018 5:02 PM,79,REYNALDO,C/Out
MinDA,Fingerpint,,2/12/2018 7:19 AM,79,REYNALDO,C/In
MinDA,Fingerpint,,2/12/2018 12:10 PM,79,REYNALDO,C/Out
MinDA,Fingerpint,,2/12/2018 12:17 PM,79,REYNALDO,C/In
MinDA,Fingerpint,,2/19/2018 7:27 AM,79,REYNALDO,C/In
MinDA,Fingerpint,,2/1/2018 5:04 PM,174,BUHAT,C/Out
MinDA,Fingerpint,,2/5/2018 8:02 AM,174,BUHAT,C/In
MinDA,Fingerpint,,2/5/2018 12:03 PM,174,BUHAT,C/Out
MinDA,Fingerpint,,2/5/2018 12:36 PM,174,BUHAT,C/In
MinDA,Fingerpint,,2/12/2018 8:43 AM,174,BUHAT,C/In
MinDA,Fingerpint,,2/12/2018 12:03 PM,174,BUHAT,C/Out
MinDA,Fingerpint,,2/12/2018 12:20 PM,174,BUHAT,C/In
MinDA,Fingerpint,,2/12/2018 5:06 PM,174,BUHAT,C/Out
MinDA,Fingerpint,,2/1/2018 7:32 AM,291,291,C/In
MinDA,Fingerpint,,2/1/2018 12:03 PM,291,291,C/Out
MinDA,Fingerpint,,2/1/2018 12:23 PM,291,291,C/In
MinDA,Fingerpint,,2/1/2018 5:04 PM,291,291,C/Out
MinDA,Fingerpint,,2/2/2018 7:14 AM,291,291,C/In
MinDA,Fingerpint,,2/2/2018 12:17 PM,291,291,C/Out
MinDA,Fingerpint,,2/2/2018 12:26 PM,291,291,C/In
MinDA,Fingerpint,,2/2/2018 5:01 PM,291,291,C/Out
MinDA,Fingerpint,,2/5/2018 7:19 AM,291,291,C/In
MinDA,Fingerpint,,2/5/2018 12:21 PM,291,291,C/Out
MinDA,Fingerpint,,2/5/2018 12:29 PM,291,291,C/In
MinDA,Fingerpint,,2/5/2018 5:03 PM,291,291,C/Out
MinDA,Fingerpint,,2/6/2018 7:26 AM,291,291,C/In
MinDA,Fingerpint,,2/6/2018 12:02 PM,291,291,C/Out
MinDA,Fingerpint,,2/9/2018 7:38 AM,291,291,C/In
MinDA,Fingerpint,,2/9/2018 12:02 PM,291,291,C/Out
MinDA,Fingerpint,,2/12/2018 7:37 AM,291,291,C/In
MinDA,Fingerpint,,2/12/2018 12:03 PM,291,291,C/Out
MinDA,Fingerpint,,2/12/2018 12:17 PM,291,291,C/In
MinDA,Fingerpint,,2/12/2018 5:03 PM,291,291,C/Out
MinDA,Fingerpint,,2/13/2018 7:22 AM,291,291,C/In
MinDA,Fingerpint,,2/13/2018 12:01 PM,291,291,C/Out
MinDA,Fingerpint,,2/13/2018 12:19 PM,291,291,C/In
MinDA,Fingerpint,,2/13/2018 5:03 PM,291,291,C/Out
MinDA,Fingerpint,,2/14/2018 7:23 AM,291,291,C/In
MinDA,Fingerpint,,2/14/2018 12:02 PM,291,291,C/Out
MinDA,Fingerpint,,2/14/2018 12:18 PM,291,291,C/In
MinDA,Fingerpint,,2/14/2018 5:03 PM,291,291,C/Out
MinDA,Fingerpint,,2/15/2018 7:25 AM,291,291,C/In
MinDA,Fingerpint,,2/15/2018 12:04 PM,291,291,C/Out
MinDA,Fingerpint,,2/15/2018 12:18 PM,291,291,C/In
MinDA,Fingerpint,,2/15/2018 5:01 PM,291,291,C/Out
MinDA,Fingerpint,,2/19/2018 7:26 AM,291,291,C/In
MinDA,Fingerpint,,2/19/2018 12:01 PM,291,291,C/Out
MinDA,Fingerpint,,2/19/2018 12:16 PM,291,291,C/In
MinDA,Fingerpint,,2/19/2018 5:01 PM,291,291,C/Out
MinDA,Fingerpint,,2/20/2018 7:27 AM,291,291,C/In
MinDA,Fingerpint,,2/20/2018 12:05 PM,291,291,C/Out
MinDA,Fingerpint,,2/20/2018 12:21 PM,291,291,C/In
MinDA,Fingerpint,,2/20/2018 5:01 PM,291,291,C/Out
MinDA,Fingerpint,,2/21/2018 7:22 AM,291,291,C/In
MinDA,Fingerpint,,2/21/2018 12:02 PM,291,291,C/Out
MinDA,Fingerpint,,2/21/2018 12:16 PM,291,291,C/In
MinDA,Fingerpint,,2/2/2018 12:48 PM,293,293,C/In
MinDA,Fingerpint,,2/2/2018 5:02 PM,293,293,C/Out
MinDA,Fingerpint,,2/5/2018 12:14 PM,293,293,C/In
MinDA,Fingerpint,,2/5/2018 5:03 PM,293,293,C/Out
MinDA,Fingerpint,,2/8/2018 10:33 AM,293,293,C/In
MinDA,Fingerpint,,2/8/2018 12:04 PM,293,293,C/Out
MinDA,Fingerpint,,2/8/2018 12:18 PM,293,293,C/In
MinDA,Fingerpint,,2/8/2018 5:20 PM,293,293,C/Out
MinDA,Fingerpint,,2/12/2018 9:51 AM,293,293,C/In
MinDA,Fingerpint,,2/12/2018 12:03 PM,293,293,C/Out
MinDA,Fingerpint,,2/12/2018 12:22 PM,293,293,C/In
MinDA,Fingerpint,,2/12/2018 5:03 PM,293,293,C/Out
MinDA,Fingerpint,,2/13/2018 5:04 PM,293,293,C/Out
MinDA,Fingerpint,,2/15/2018 12:30 PM,293,293,C/Out
MinDA,Fingerpint,,2/15/2018 5:03 PM,293,293,C/Out
MinDA,Fingerpint,,2/20/2018 12:17 PM,293,293,C/Out
MinDA,Fingerpint,,2/20/2018 12:37 PM,293,293,C/In
MinDA,Fingerpint,,2/20/2018 5:01 PM,293,293,C/Out
MinDA,Fingerpint,,2/20/2018 5:01 PM,293,293,C/Out
MinDA,Fingerpint,,2/1/2018 7:34 AM,340,340,C/In
MinDA,Fingerpint,,2/1/2018 12:03 PM,340,340,C/Out
MinDA,Fingerpint,,2/1/2018 12:22 PM,340,340,C/In
MinDA,Fingerpint,,2/1/2018 5:03 PM,340,340,C/In
MinDA,Fingerpint,,2/1/2018 5:03 PM,340,340,C/Out
MinDA,Fingerpint,,2/2/2018 7:48 AM,340,340,C/In
MinDA,Fingerpint,,2/2/2018 12:05 PM,340,340,C/Out
MinDA,Fingerpint,,2/2/2018 12:18 PM,340,340,C/In
MinDA,Fingerpint,,2/2/2018 5:01 PM,340,340,C/Out
MinDA,Fingerpint,,2/5/2018 7:25 AM,340,340,C/In
MinDA,Fingerpint,,2/5/2018 12:02 PM,340,340,C/Out
MinDA,Fingerpint,,2/5/2018 12:21 PM,340,340,C/In
MinDA,Fingerpint,,2/5/2018 5:02 PM,340,340,C/Out
MinDA,Fingerpint,,2/6/2018 7:15 AM,340,340,C/In
MinDA,Fingerpint,,2/6/2018 12:05 PM,340,340,C/Out
MinDA,Fingerpint,,2/6/2018 12:22 PM,340,340,C/In
MinDA,Fingerpint,,2/6/2018 12:22 PM,340,340,C/In
MinDA,Fingerpint,,2/6/2018 5:03 PM,340,340,C/Out
MinDA,Fingerpint,,2/7/2018 7:33 AM,340,340,C/In
MinDA,Fingerpint,,2/7/2018 12:03 PM,340,340,C/Out
MinDA,Fingerpint,,2/7/2018 12:20 PM,340,340,C/In
MinDA,Fingerpint,,2/7/2018 5:01 PM,340,340,C/Out
MinDA,Fingerpint,,2/8/2018 7:43 AM,340,340,C/In
MinDA,Fingerpint,,2/8/2018 12:03 PM,340,340,C/Out
MinDA,Fingerpint,,2/8/2018 12:17 PM,340,340,C/In
MinDA,Fingerpint,,2/8/2018 12:17 PM,340,340,C/In
MinDA,Fingerpint,,2/8/2018 5:02 PM,340,340,C/Out
MinDA,Fingerpint,,2/9/2018 7:46 AM,340,340,C/In
MinDA,Fingerpint,,2/9/2018 12:03 PM,340,340,C/Out
MinDA,Fingerpint,,2/9/2018 12:11 PM,340,340,C/In
MinDA,Fingerpint,,2/9/2018 5:03 PM,340,340,C/Out
MinDA,Fingerpint,,2/12/2018 7:27 AM,340,340,C/In
MinDA,Fingerpint,,2/12/2018 12:03 PM,340,340,C/Out
MinDA,Fingerpint,,2/12/2018 12:20 PM,340,340,C/In
MinDA,Fingerpint,,2/12/2018 5:02 PM,340,340,C/Out
MinDA,Fingerpint,,2/13/2018 7:27 AM,340,340,C/In
MinDA,Fingerpint,,2/13/2018 12:01 PM,340,340,C/Out
MinDA,Fingerpint,,2/13/2018 12:12 PM,340,340,C/In
MinDA,Fingerpint,,2/13/2018 5:02 PM,340,340,C/Out
MinDA,Fingerpint,,2/14/2018 7:40 AM,340,340,C/In
MinDA,Fingerpint,,2/14/2018 12:01 PM,340,340,C/Out
MinDA,Fingerpint,,2/14/2018 12:17 PM,340,340,C/In
MinDA,Fingerpint,,2/14/2018 5:01 PM,340,340,C/Out
MinDA,Fingerpint,,2/15/2018 7:25 AM,340,340,C/In
MinDA,Fingerpint,,2/15/2018 12:01 PM,340,340,C/Out
MinDA,Fingerpint,,2/15/2018 12:14 PM,340,340,C/In
MinDA,Fingerpint,,2/15/2018 5:01 PM,340,340,C/Out
MinDA,Fingerpint,,2/19/2018 7:39 AM,340,340,C/In
MinDA,Fingerpint,,2/19/2018 12:01 PM,340,340,C/Out
MinDA,Fingerpint,,2/19/2018 12:12 PM,340,340,C/In
MinDA,Fingerpint,,2/19/2018 5:02 PM,340,340,C/Out
MinDA,Fingerpint,,2/20/2018 7:32 AM,340,340,C/In
MinDA,Fingerpint,,2/20/2018 12:01 PM,340,340,C/Out
MinDA,Fingerpint,,2/20/2018 12:11 PM,340,340,C/In
MinDA,Fingerpint,,2/20/2018 5:01 PM,340,340,C/Out
MinDA,Fingerpint,,2/21/2018 7:40 AM,340,340,C/In
MinDA,Fingerpint,,2/21/2018 12:02 PM,340,340,C/Out
MinDA,Fingerpint,,2/21/2018 12:15 PM,340,340,C/In
