"department","VerifyCode","CardNo","checktime","id_no","name","status"
"MinDA","Fingerpint","","1/3/2018 7:21 AM","79","REYNALDO, GERARDO B","C/In"
"MinDA","Fingerpint","","1/3/2018 12:02 PM","79","REYNALDO, GERARDO B","C/Out"
"MinDA","Fingerpint","","1/3/2018 12:13 PM","79","REYNALDO, GERARDO B","C/In"
"MinDA","Fingerpint","","1/3/2018 5:01 PM","79","REYNALDO, GERARDO B","C/Out"
"MinDA","Fingerpint","","1/4/2018 7:33 AM","79","REYNALDO, GERARDO B","C/In"
"MinDA","Fingerpint","","1/4/2018 12:06 PM","79","REYNALDO, GERARDO B","C/Out"
"MinDA","Fingerpint","","1/4/2018 12:19 PM","79","REYNALDO, GERARDO B","OverTime In"
"MinDA","Fingerpint","","1/4/2018 5:10 PM","79","REYNALDO, GERARDO B","C/In"
"MinDA","Fingerpint","","1/5/2018 7:38 AM","79","REYNALDO, GERARDO B","C/In"
"MinDA","Fingerpint","","1/5/2018 12:01 PM","79","REYNALDO, GERARDO B","C/Out"
"MinDA","Fingerpint","","1/5/2018 12:19 PM","79","REYNALDO, GERARDO B","C/In"
"MinDA","Fingerpint","","1/5/2018 5:03 PM","79","REYNALDO, GERARDO B","C/In"
"MinDA","Fingerpint","","1/5/2018 5:03 PM","79","REYNALDO, GERARDO B","C/Out"
"MinDA","Fingerpint","","1/4/2018 8:08 AM","174","BUHAT, RENATO JR. A","C/In"
"MinDA","Fingerpint","","1/4/2018 12:03 PM","174","BUHAT, RENATO JR. A","C/Out"
"MinDA","Fingerpint","","1/4/2018 12:20 PM","174","BUHAT, RENATO JR. A","C/In"
"MinDA","Fingerpint","","1/4/2018 5:12 PM","174","BUHAT, RENATO JR. A","C/Out"
"MinDA","Fingerpint","","1/8/2018 7:08 AM","174","BUHAT, RENATO JR. A","C/In"
"MinDA","Fingerpint","","1/8/2018 12:24 PM","174","BUHAT, RENATO JR. A","C/Out"
"MinDA","Fingerpint","","1/8/2018 12:29 PM","174","BUHAT, RENATO JR. A","C/In"
"MinDA","Fingerpint","","1/9/2018 8:15 AM","174","BUHAT, RENATO JR. A","C/In"
"MinDA","Fingerpint","","1/9/2018 12:40 PM","174","BUHAT, RENATO JR. A","C/Out"
"MinDA","Fingerpint","","1/9/2018 12:48 PM","174","BUHAT, RENATO JR. A","C/In"
"MinDA","Fingerpint","","1/3/2018 7:06 AM","291","291","C/In"
"MinDA","Fingerpint","","1/3/2018 12:02 PM","291","291","C/Out"
"MinDA","Fingerpint","","1/3/2018 12:34 PM","291","291","C/In"
"MinDA","Fingerpint","","1/3/2018 5:02 PM","291","291","C/Out"
"MinDA","Fingerpint","","1/4/2018 7:25 AM","291","291","C/In"
"MinDA","Fingerpint","","1/4/2018 12:01 PM","291","291","C/Out"
"MinDA","Fingerpint","","1/4/2018 12:12 PM","291","291","C/In"
"MinDA","Fingerpint","","1/4/2018 5:05 PM","291","291","C/Out"
"MinDA","Fingerpint","","1/5/2018 7:27 AM","291","291","C/In"
"MinDA","Fingerpint","","1/5/2018 12:02 PM","291","291","C/Out"
"MinDA","Fingerpint","","1/5/2018 12:19 PM","291","291","C/In"
"MinDA","Fingerpint","","1/5/2018 5:03 PM","291","291","C/Out"
"MinDA","Fingerpint","","1/8/2018 7:32 AM","291","291","C/In"
"MinDA","Fingerpint","","1/8/2018 12:01 PM","291","291","C/Out"
"MinDA","Fingerpint","","1/8/2018 12:18 PM","291","291","C/In"
"MinDA","Fingerpint","","1/8/2018 5:03 PM","291","291","C/Out"
"MinDA","Fingerpint","","1/9/2018 7:16 AM","291","291","C/In"
"MinDA","Fingerpint","","1/9/2018 12:01 PM","291","291","C/Out"
"MinDA","Fingerpint","","1/9/2018 12:08 PM","291","291","C/In"
"MinDA","Fingerpint","","1/3/2018 11:08 AM","293","293","C/In"
"MinDA","Fingerpint","","1/3/2018 12:05 PM","293","293","C/Out"
"MinDA","Fingerpint","","1/3/2018 12:14 PM","293","293","C/In"
"MinDA","Fingerpint","","1/3/2018 6:12 PM","293","293","C/Out"
"MinDA","Fingerpint","","1/4/2018 10:03 AM","293","293","C/In"
"MinDA","Fingerpint","","1/4/2018 12:03 PM","293","293","C/Out"
"MinDA","Fingerpint","","1/4/2018 12:13 PM","293","293","C/In"
"MinDA","Fingerpint","","1/4/2018 5:03 PM","293","293","C/Out"
"MinDA","Fingerpint","","1/5/2018 12:10 PM","293","293","C/In"
"MinDA","Fingerpint","","1/5/2018 5:03 PM","293","293","C/Out"
"MinDA","Fingerpint","","1/8/2018 12:01 PM","293","293","C/Out"
"MinDA","Fingerpint","","1/8/2018 12:01 PM","293","293","C/Out"
"MinDA","Fingerpint","","1/8/2018 12:29 PM","293","293","C/In"
"MinDA","Fingerpint","","1/8/2018 5:04 PM","293","293","C/Out"
"MinDA","Fingerpint","","1/9/2018 10:50 AM","293","293","C/In"
"MinDA","Fingerpint","","1/9/2018 12:05 PM","293","293","C/Out"
"MinDA","Fingerpint","","1/9/2018 12:21 PM","293","293","C/In"
