department,VerifyCode,CardNo,checktime,id_no,name,status
MinDA,Fingerpint,,2/23/2018 7:51:00 AM,79,79,C/In
MinDA,Fingerpint,,2/23/2018 12:05:00 PM,79,79,C/Out
MinDA,Fingerpint,,2/23/2018 12:15:00 PM,79,79,C/Out
MinDA,Fingerpint,,2/23/2018 5:08:00 PM,79,79,C/Out
MinDA,Fingerpint,,3/1/2018 12:32:00 PM,79,79,C/Out
MinDA,Fingerpint,,3/1/2018 12:48:00 PM,79,79,C/In
MinDA,Fingerpint,,3/1/2018 5:01:00 PM,79,79,C/Out
MinDA,Fingerpint,,3/5/2018 7:02:00 AM,79,79,C/In
MinDA,Fingerpint,,3/5/2018 12:10:00 PM,79,79,C/Out
MinDA,Fingerpint,,3/5/2018 12:18:00 PM,79,79,C/In
MinDA,Fingerpint,,3/5/2018 5:15:00 PM,79,79,C/Out
MinDA,Fingerpint,,2/26/2018 8:20:00 AM,174,174,C/In
MinDA,Fingerpint,,2/26/2018 12:06:00 PM,174,174,C/Out
MinDA,Fingerpint,,2/26/2018 12:31:00 PM,174,174,C/In
MinDA,Fingerpint,,3/5/2018 8:27:00 AM,174,174,C/In
MinDA,Fingerpint,,3/5/2018 12:09:00 PM,174,174,C/Out
MinDA,Fingerpint,,3/5/2018 12:28:00 PM,174,174,C/In
MinDA,Fingerpint,,3/5/2018 5:06:00 PM,174,174,C/Out
MinDA,Fingerpint,,2/21/2018 7:22:00 AM,291,291,C/In
MinDA,Fingerpint,,2/21/2018 12:02:00 PM,291,291,C/Out
MinDA,Fingerpint,,2/21/2018 12:16:00 PM,291,291,C/In
MinDA,Fingerpint,,2/21/2018 5:26:00 PM,291,291,C/Out
MinDA,Fingerpint,,2/22/2018 7:12:00 AM,291,291,C/In
MinDA,Fingerpint,,2/22/2018 12:04:00 PM,291,291,C/Out
MinDA,Fingerpint,,2/22/2018 12:22:00 PM,291,291,C/In
MinDA,Fingerpint,,2/22/2018 5:03:00 PM,291,291,C/Out
MinDA,Fingerpint,,2/23/2018 7:28:00 AM,291,291,C/In
MinDA,Fingerpint,,2/23/2018 12:01:00 PM,291,291,C/Out
MinDA,Fingerpint,,2/23/2018 12:28:00 PM,291,291,C/In
MinDA,Fingerpint,,2/23/2018 5:08:00 PM,291,291,C/Out
MinDA,Fingerpint,,2/26/2018 7:24:00 AM,291,291,C/In
MinDA,Fingerpint,,2/26/2018 12:02:00 PM,291,291,C/Out
MinDA,Fingerpint,,2/26/2018 12:20:00 PM,291,291,C/In
MinDA,Fingerpint,,2/26/2018 5:03:00 PM,291,291,C/Out
MinDA,Fingerpint,,2/27/2018 7:19:00 AM,291,291,C/In
MinDA,Fingerpint,,2/27/2018 12:02:00 PM,291,291,C/Out
MinDA,Fingerpint,,2/27/2018 12:31:00 PM,291,291,C/In
MinDA,Fingerpint,,2/27/2018 5:04:00 PM,291,291,C/Out
MinDA,Fingerpint,,2/28/2018 7:25:00 AM,291,291,C/In
MinDA,Fingerpint,,2/28/2018 12:05:00 PM,291,291,C/Out
MinDA,Fingerpint,,2/28/2018 12:18:00 PM,291,291,C/In
MinDA,Fingerpint,,2/28/2018 5:07:00 PM,291,291,C/Out
MinDA,Fingerpint,,3/1/2018 7:20:00 AM,291,291,C/In
MinDA,Fingerpint,,3/1/2018 12:02:00 PM,291,291,C/Out
MinDA,Fingerpint,,3/1/2018 12:32:00 PM,291,291,C/In
MinDA,Fingerpint,,3/1/2018 5:01:00 PM,291,291,C/Out
MinDA,Fingerpint,,3/2/2018 7:16:00 AM,291,291,C/In
MinDA,Fingerpint,,3/2/2018 12:01:00 PM,291,291,C/Out
MinDA,Fingerpint,,3/2/2018 12:20:00 PM,291,291,C/In
MinDA,Fingerpint,,3/2/2018 5:01:00 PM,291,291,C/Out
MinDA,Fingerpint,,3/5/2018 7:12:00 AM,291,291,C/In
MinDA,Fingerpint,,3/5/2018 12:09:00 PM,291,291,C/Out
MinDA,Fingerpint,,3/5/2018 12:18:00 PM,291,291,C/In
MinDA,Fingerpint,,3/5/2018 5:05:00 PM,291,291,C/In
MinDA,Fingerpint,,2/27/2018 12:19:00 PM,293,293,C/In
MinDA,Fingerpint,,2/27/2018 5:03:00 PM,293,293,C/Out
MinDA,Fingerpint,,3/1/2018 12:32:00 PM,293,293,C/In
MinDA,Fingerpint,,3/1/2018 5:01:00 PM,293,293,C/Out
MinDA,Fingerpint,,3/5/2018 12:29:00 PM,293,293,C/In
MinDA,Fingerpint,,3/5/2018 5:15:00 PM,293,293,C/Out
MinDA,Fingerpint,,2/21/2018 7:40:00 AM,340,340,C/In
MinDA,Fingerpint,,2/21/2018 12:02:00 PM,340,340,C/Out
MinDA,Fingerpint,,2/21/2018 12:15:00 PM,340,340,C/In
MinDA,Fingerpint,,2/21/2018 7:14:00 PM,340,340,C/Out
MinDA,Fingerpint,,2/22/2018 7:28:00 AM,340,340,C/In
MinDA,Fingerpint,,2/22/2018 5:02:00 PM,340,340,C/Out
MinDA,Fingerpint,,2/23/2018 7:36:00 AM,340,340,C/In
MinDA,Fingerpint,,2/23/2018 12:01:00 PM,340,340,C/Out
MinDA,Fingerpint,,2/23/2018 12:10:00 PM,340,340,C/In
MinDA,Fingerpint,,2/23/2018 5:01:00 PM,340,340,C/Out
MinDA,Fingerpint,,2/26/2018 7:43:00 AM,340,340,C/In
MinDA,Fingerpint,,2/26/2018 12:02:00 PM,340,340,C/Out
MinDA,Fingerpint,,2/26/2018 12:19:00 PM,340,340,C/In
MinDA,Fingerpint,,2/26/2018 5:01:00 PM,340,340,C/Out
MinDA,Fingerpint,,2/27/2018 7:46:00 AM,340,340,C/In
MinDA,Fingerpint,,2/27/2018 12:01:00 PM,340,340,C/Out
MinDA,Fingerpint,,2/27/2018 12:10:00 PM,340,340,C/In
MinDA,Fingerpint,,2/27/2018 5:04:00 PM,340,340,C/Out
MinDA,Fingerpint,,2/28/2018 7:47:00 AM,340,340,C/In
MinDA,Fingerpint,,2/28/2018 12:02:00 PM,340,340,C/Out
MinDA,Fingerpint,,2/28/2018 12:35:00 PM,340,340,C/In
MinDA,Fingerpint,,2/28/2018 5:03:00 PM,340,340,C/Out
MinDA,Fingerpint,,3/1/2018 7:41:00 AM,340,340,C/In
MinDA,Fingerpint,,3/1/2018 12:02:00 PM,340,340,C/Out
MinDA,Fingerpint,,3/1/2018 12:16:00 PM,340,340,C/In
MinDA,Fingerpint,,3/1/2018 5:01:00 PM,340,340,C/Out
MinDA,Fingerpint,,3/2/2018 7:42:00 AM,340,340,C/In
MinDA,Fingerpint,,3/2/2018 12:01:00 PM,340,340,C/Out
MinDA,Fingerpint,,3/2/2018 12:23:00 PM,340,340,C/In
MinDA,Fingerpint,,3/2/2018 5:01:00 PM,340,340,C/Out
MinDA,Fingerpint,,3/5/2018 7:24:00 AM,340,340,C/In
MinDA,Fingerpint,,3/5/2018 12:04:00 PM,340,340,C/Out
MinDA,Fingerpint,,3/5/2018 12:17:00 PM,340,340,C/In
MinDA,Fingerpint,,3/5/2018 5:04:00 PM,340,340,C/Out
