"department","VerifyCode","CardNo","checktime","id_no","name","status"
"MinDA","Fingerpint","","9/4/2017 6:48 AM","291","291","C/In"
"MinDA","Fingerpint","","9/4/2017 12:04 PM","291","291","C/Out"
"MinDA","Fingerpint","","9/4/2017 12:16 PM","291","291","C/In"
"MinDA","Fingerpint","","9/4/2017 5:06 PM","291","291","C/Out"
"MinDA","Fingerpint","","9/5/2017 7:02 AM","291","291","C/In"
"MinDA","Fingerpint","","9/5/2017 12:08 PM","291","291","C/Out"
"MinDA","Fingerpint","","9/5/2017 12:31 PM","291","291","C/In"
"MinDA","Fingerpint","","9/5/2017 5:04 PM","291","291","C/Out"
"MinDA","Fingerpint","","9/6/2017 6:59 AM","291","291","C/In"
"MinDA","Fingerpint","","9/6/2017 12:02 PM","291","291","C/Out"
"MinDA","Fingerpint","","9/6/2017 12:12 PM","291","291","C/In"
"MinDA","Fingerpint","","9/6/2017 5:01 PM","291","291","C/Out"
"MinDA","Fingerpint","","9/7/2017 7:06 AM","291","291","C/In"
"MinDA","Fingerpint","","9/7/2017 12:01 PM","291","291","C/Out"
"MinDA","Fingerpint","","9/7/2017 12:22 PM","291","291","C/In"
"MinDA","Fingerpint","","9/7/2017 5:01 PM","291","291","C/Out"
"MinDA","Fingerpint","","9/4/2017 7:55 AM","292","292","C/In"
"MinDA","Fingerpint","","9/4/2017 12:23 PM","292","292","C/Out"
"MinDA","Fingerpint","","9/4/2017 12:23 PM","292","292","C/In"
"MinDA","Fingerpint","","9/4/2017 5:16 PM","292","292","C/Out"
"MinDA","Fingerpint","","9/5/2017 7:48 AM","292","292","C/In"
"MinDA","Fingerpint","","9/5/2017 12:21 PM","292","292","C/Out"
"MinDA","Fingerpint","","9/5/2017 12:21 PM","292","292","C/In"
"MinDA","Fingerpint","","9/6/2017 7:48 AM","292","292","C/In"
"MinDA","Fingerpint","","9/6/2017 12:20 PM","292","292","C/Out"
"MinDA","Fingerpint","","9/6/2017 12:20 PM","292","292","C/In"
"MinDA","Fingerpint","","9/6/2017 6:51 PM","292","292","C/Out"
"MinDA","Fingerpint","","9/7/2017 7:48 AM","292","292","C/In"
"MinDA","Fingerpint","","9/7/2017 12:31 PM","292","292","C/Out"
"MinDA","Fingerpint","","9/7/2017 12:31 PM","292","292","C/In"
"MinDA","Fingerpint","","9/7/2017 7:19 PM","292","292","C/Out"
