"department","VerifyCode","CardNo","checktime","id_no","name","status"
"MinDA","FP","","11/8/2017 7:42 AM","203","203","C/In"
"MinDA","FP","","11/8/2017 12:11 PM","203","203","C/Out"
"MinDA","FP","","11/8/2017 12:12 PM","203","203","C/In"
"MinDA","FP","","11/8/2017 5:04 PM","203","203","C/Out"
"MinDA","FP","","11/10/2017 8:25 AM","203","203","C/In"
"MinDA","FP","","11/10/2017 12:06 PM","203","203","C/Out"
"MinDA","FP","","11/10/2017 12:07 PM","203","203","C/In"
"MinDA","FP","","11/10/2017 5:04 PM","203","203","C/Out"
"MinDA","FP","","11/13/2017 8:13 AM","203","203","C/In"
"MinDA","FP","","11/13/2017 12:09 PM","203","203","C/Out"
"MinDA","FP","","11/13/2017 12:10 PM","203","203","C/Out"
"MinDA","FP","","11/13/2017 12:10 PM","203","203","C/In"
"MinDA","FP","","11/13/2017 5:04 PM","203","203","C/Out"
"MinDA","FP","","11/14/2017 8:28 AM","203","203","C/In"
"MinDA","FP","","11/14/2017 12:07 PM","203","203","C/Out"
"MinDA","FP","","11/14/2017 5:21 PM","203","203","C/Out"
"MinDA","FP","","11/15/2017 8:15 AM","203","203","C/In"
"MinDA","FP","","11/15/2017 1:02 PM","203","203","C/Out"
"MinDA","FP","","11/15/2017 1:03 PM","203","203","C/In"
"MinDA","FP","","11/16/2017 8:29 AM","203","203","C/In"
"MinDA","FP","","11/16/2017 5:07 PM","203","203","C/Out"
"MinDA","FP","","11/17/2017 8:15 AM","203","203","C/In"
"MinDA","FP","","11/17/2017 12:21 PM","203","203","C/Out"
"MinDA","FP","","11/17/2017 12:22 PM","203","203","C/In"
"MinDA","FP","","11/17/2017 5:00 PM","203","203","C/Out"
"MinDA","FP","","11/20/2017 7:49 AM","203","203","C/In"
"MinDA","FP","","11/20/2017 12:13 PM","203","203","C/Out"
"MinDA","FP","","11/20/2017 12:15 PM","203","203","C/In"
"MinDA","FP","","11/20/2017 5:04 PM","203","203","C/Out"
"MinDA","FP","","11/21/2017 7:24 AM","203","203","C/In"
"MinDA","FP","","11/21/2017 7:28 AM","203","203","C/In"
"MinDA","FP","","11/21/2017 12:18 PM","203","203","C/Out"
"MinDA","FP","","11/21/2017 12:19 PM","203","203","C/In"
"MinDA","FP","","11/21/2017 5:00 PM","203","203","C/Out"
"MinDA","FP","","11/22/2017 8:05 AM","203","203","C/In"
"MinDA","FP","","11/14/2017 9:09 AM","204","204","C/In"
"MinDA","FP","","11/14/2017 12:29 PM","204","204","C/Out"
"MinDA","FP","","11/14/2017 12:30 PM","204","204","C/In"
"MinDA","FP","","11/14/2017 6:06 PM","204","204","C/Out"
"MinDA","FP","","11/15/2017 12:15 PM","204","204","C/Out"
"MinDA","FP","","11/15/2017 12:16 PM","204","204","C/In"
"MinDA","FP","","11/15/2017 5:30 PM","204","204","C/Out"
"MinDA","FP","","11/8/2017 7:46 AM","206","206","C/In"
"MinDA","FP","","11/8/2017 12:11 PM","206","206","C/Out"
"MinDA","FP","","11/8/2017 12:12 PM","206","206","C/In"
"MinDA","FP","","11/8/2017 5:00 PM","206","206","C/Out"
"MinDA","FP","","11/9/2017 7:49 AM","206","206","C/In"
"MinDA","FP","","11/9/2017 12:17 PM","206","206","C/Out"
"MinDA","FP","","11/9/2017 12:18 PM","206","206","C/In"
"MinDA","FP","","11/9/2017 5:01 PM","206","206","C/Out"
"MinDA","FP","","11/10/2017 7:56 AM","206","206","C/In"
"MinDA","FP","","11/10/2017 12:52 PM","206","206","C/Out"
"MinDA","FP","","11/10/2017 12:53 PM","206","206","C/In"
"MinDA","FP","","11/10/2017 5:00 PM","206","206","C/Out"
"MinDA","FP","","11/13/2017 7:47 AM","206","206","C/In"
"MinDA","FP","","11/13/2017 12:21 PM","206","206","C/Out"
"MinDA","FP","","11/13/2017 12:22 PM","206","206","C/In"
"MinDA","FP","","11/13/2017 5:00 PM","206","206","C/Out"
"MinDA","FP","","11/14/2017 7:50 AM","206","206","C/In"
"MinDA","FP","","11/14/2017 12:17 PM","206","206","C/Out"
"MinDA","FP","","11/14/2017 12:19 PM","206","206","C/In"
"MinDA","FP","","11/14/2017 5:02 PM","206","206","C/Out"
"MinDA","FP","","11/15/2017 7:40 AM","206","206","C/In"
"MinDA","FP","","11/16/2017 7:53 AM","206","206","C/In"
"MinDA","FP","","11/16/2017 12:00 PM","206","206","C/Out"
"MinDA","FP","","11/16/2017 12:01 PM","206","206","C/In"
"MinDA","FP","","11/16/2017 5:00 PM","206","206","C/Out"
"MinDA","FP","","11/16/2017 5:00 PM","206","206","C/Out"
"MinDA","FP","","11/17/2017 7:51 AM","206","206","C/In"
"MinDA","FP","","11/17/2017 5:00 PM","206","206","C/Out"
"MinDA","FP","","11/20/2017 8:00 AM","206","206","C/In"
"MinDA","FP","","11/20/2017 12:00 PM","206","206","C/Out"
"MinDA","FP","","11/20/2017 12:01 PM","206","206","C/In"
"MinDA","FP","","11/20/2017 5:00 PM","206","206","C/Out"
"MinDA","FP","","11/21/2017 7:52 AM","206","206","C/In"
"MinDA","FP","","11/21/2017 12:03 PM","206","206","C/Out"
"MinDA","FP","","11/21/2017 12:04 PM","206","206","C/In"
"MinDA","FP","","11/21/2017 4:57 PM","206","206","C/Out"
"MinDA","FP","","11/22/2017 7:48 AM","206","206","C/In"
"MinDA","FP","","11/8/2017 7:25 AM","216","216","C/In"
"MinDA","FP","","11/8/2017 12:14 PM","216","216","C/Out"
"MinDA","FP","","11/8/2017 12:18 PM","216","216","C/In"
"MinDA","FP","","11/8/2017 5:00 PM","216","216","C/Out"
"MinDA","FP","","11/9/2017 7:09 AM","216","216","C/In"
"MinDA","FP","","11/9/2017 12:04 PM","216","216","C/Out"
"MinDA","FP","","11/9/2017 12:04 PM","216","216","C/Out"
"MinDA","FP","","11/9/2017 12:14 PM","216","216","C/In"
"MinDA","FP","","11/9/2017 5:00 PM","216","216","C/Out"
"MinDA","FP","","11/10/2017 7:32 AM","216","216","C/In"
"MinDA","FP","","11/10/2017 12:01 PM","216","216","C/Out"
"MinDA","FP","","11/10/2017 12:02 PM","216","216","C/In"
"MinDA","FP","","11/10/2017 5:00 PM","216","216","C/Out"
"MinDA","FP","","11/16/2017 6:37 AM","216","216","C/In"
"MinDA","FP","","11/16/2017 12:09 PM","216","216","C/Out"
"MinDA","FP","","11/16/2017 12:10 PM","216","216","C/In"
"MinDA","FP","","11/16/2017 5:00 PM","216","216","C/Out"
"MinDA","FP","","11/17/2017 7:25 AM","216","216","C/In"
"MinDA","FP","","11/17/2017 12:14 PM","216","216","C/Out"
"MinDA","FP","","11/17/2017 12:15 PM","216","216","C/In"
"MinDA","FP","","11/17/2017 5:00 PM","216","216","C/Out"
"MinDA","FP","","11/20/2017 7:25 AM","216","216","C/In"
"MinDA","FP","","11/21/2017 7:23 AM","216","216","C/In"
"MinDA","FP","","11/22/2017 6:58 AM","216","216","C/In"
"MinDA","FP","","11/8/2017 12:11 PM","236","236","C/Out"
"MinDA","FP","","11/8/2017 12:13 PM","236","236","C/In"
"MinDA","FP","","11/8/2017 5:00 PM","236","236","C/Out"
"MinDA","FP","","11/9/2017 12:14 PM","236","236","C/Out"
"MinDA","FP","","11/9/2017 12:15 PM","236","236","C/In"
"MinDA","FP","","11/9/2017 5:01 PM","236","236","C/Out"
"MinDA","FP","","11/10/2017 12:06 PM","236","236","C/Out"
"MinDA","FP","","11/10/2017 12:08 PM","236","236","C/In"
"MinDA","FP","","11/10/2017 5:03 PM","236","236","C/Out"
"MinDA","FP","","11/13/2017 7:56 AM","236","236","C/In"
"MinDA","FP","","11/13/2017 12:19 PM","236","236","C/Out"
"MinDA","FP","","11/13/2017 12:20 PM","236","236","C/In"
"MinDA","FP","","11/13/2017 5:01 PM","236","236","C/Out"
"MinDA","FP","","11/14/2017 7:41 AM","236","236","C/In"
"MinDA","FP","","11/14/2017 12:30 PM","236","236","C/Out"
"MinDA","FP","","11/14/2017 12:31 PM","236","236","C/In"
"MinDA","FP","","11/14/2017 5:07 PM","236","236","C/Out"
"MinDA","FP","","11/14/2017 5:21 PM","236","236","C/Out"
"MinDA","FP","","11/15/2017 7:54 AM","236","236","C/In"
"MinDA","FP","","11/15/2017 12:38 PM","236","236","C/Out"
"MinDA","FP","","11/15/2017 12:39 PM","236","236","C/In"
"MinDA","FP","","11/15/2017 5:19 PM","236","236","C/Out"
"MinDA","FP","","11/16/2017 7:54 AM","236","236","C/In"
"MinDA","FP","","11/16/2017 12:00 PM","236","236","C/Out"
"MinDA","FP","","11/16/2017 12:01 PM","236","236","C/In"
"MinDA","FP","","11/16/2017 5:00 PM","236","236","C/Out"
"MinDA","FP","","11/17/2017 12:07 PM","236","236","C/Out"
"MinDA","FP","","11/17/2017 12:08 PM","236","236","C/In"
"MinDA","FP","","11/17/2017 5:00 PM","236","236","C/Out"
"MinDA","FP","","11/20/2017 8:09 AM","236","236","C/In"
"MinDA","FP","","11/20/2017 5:03 PM","236","236","C/Out"
"MinDA","FP","","11/21/2017 12:01 PM","236","236","C/Out"
"MinDA","FP","","11/21/2017 12:02 PM","236","236","C/In"
"MinDA","FP","","11/21/2017 5:00 PM","236","236","C/Out"
"MinDA","FP","","11/22/2017 8:27 AM","236","236","C/In"
