"Ac-No","Name","sTime","Verify Mode","Machine","Exception"
"241","241","1/24/2017 3:53 PM","FP","2",""
"251","251","1/24/2017 3:58 PM","FP","2",""
"242","242","1/24/2017 3:58 PM","FP","2",""
"1101","1101","1/24/2017 4:05 PM","FP","2",""
"1101","1101","1/24/2017 4:06 PM","FP","2",""
"1101","1101","1/24/2017 4:06 PM","FP","2",""
"242","242","1/24/2017 4:07 PM","FP","2",""
"276","276","1/24/2017 4:33 PM","FP","2",""
"276","276","1/24/2017 4:33 PM","FP","2",""
"240","240","1/24/2017 4:43 PM","FP","2",""
"240","240","1/24/2017 5:03 PM","FP","2",""
"241","241","1/24/2017 5:04 PM","FP","2",""
"240","240","1/24/2017 5:04 PM","FP","2",""
"276","276","1/24/2017 5:05 PM","FP","2",""
"190","190","1/24/2017 5:06 PM","FP","2",""
"49","49","1/24/2017 5:09 PM","FP","2",""
"49","49","1/24/2017 5:09 PM","FP","2",""
"49","49","1/24/2017 5:09 PM","FP","2",""
"241","241","1/24/2017 5:10 PM","FP","2",""
"240","240","1/24/2017 5:11 PM","FP","2",""
"228","228","1/24/2017 5:12 PM","FP","2",""
"171","171","1/24/2017 5:14 PM","FP","2",""
"243","243","1/24/2017 5:15 PM","FP","2",""
"43","43","1/24/2017 5:15 PM","FP","2",""
"43","43","1/24/2017 5:15 PM","FP","2",""
"252","252","1/24/2017 5:16 PM","FP","2",""
"187","187","1/24/2017 5:21 PM","FP","2",""
"193","193","1/24/2017 5:25 PM","FP","2",""
"97","97","1/24/2017 5:28 PM","FP","2",""
"93","93","1/24/2017 5:28 PM","FP","2",""
"121","121","1/24/2017 5:30 PM","FP","2",""
"249","249","1/24/2017 5:30 PM","FP","2",""
"59","59","1/24/2017 5:38 PM","FP","2",""
"142","142","1/24/2017 5:40 PM","FP","2",""
"222","222","1/24/2017 5:40 PM","FP","2",""
"268","268","1/24/2017 5:42 PM","FP","2",""
"99","99","1/24/2017 5:43 PM","FP","2",""
"87","87","1/24/2017 5:43 PM","FP","2",""
"75","75","1/24/2017 5:44 PM","FP","2",""
"44","44","1/24/2017 5:55 PM","FP","2",""
"152","152","1/24/2017 6:01 PM","FP","2",""
"169","169","1/24/2017 6:02 PM","FP","2",""
"256","256","1/24/2017 6:03 PM","FP","2",""
"56","56","1/24/2017 6:03 PM","FP","2",""
"256","256","1/24/2017 6:03 PM","FP","2",""
"221","221","1/24/2017 6:05 PM","FP","2",""
"64","64","1/24/2017 6:06 PM","FP","2",""
"126","126","1/24/2017 6:07 PM","FP","2",""
"10","10","1/24/2017 6:07 PM","FP","2",""
"129","129","1/24/2017 6:15 PM","FP","2",""
"129","129","1/24/2017 6:15 PM","FP","2",""
"129","129","1/24/2017 6:15 PM","FP","2",""
"129","129","1/24/2017 6:15 PM","FP","2",""
"63","63","1/24/2017 6:18 PM","FP","2",""
"63","63","1/24/2017 6:18 PM","FP","2",""
"253","253","1/24/2017 6:20 PM","FP","2",""
"253","253","1/24/2017 6:20 PM","FP","2",""
"83","83","1/24/2017 6:23 PM","FP","2",""
"28","28","1/24/2017 6:24 PM","FP","2",""
"28","28","1/24/2017 6:24 PM","FP","2",""
"158","158","1/24/2017 6:24 PM","FP","2",""
"263","263","1/24/2017 6:24 PM","FP","2",""
"178","178","1/24/2017 6:25 PM","FP","2",""
"23","23","1/24/2017 6:25 PM","FP","2",""
"40","40","1/24/2017 6:25 PM","FP","2",""
"31","31","1/24/2017 6:26 PM","FP","2",""
"13","13","1/24/2017 6:28 PM","FP","2",""
"213","213","1/24/2017 6:29 PM","FP","2",""
"271","271","1/24/2017 6:31 PM","FP","2",""
"224","224","1/24/2017 6:33 PM","FP","2",""
"176","176","1/24/2017 6:33 PM","FP","2",""
"258","258","1/24/2017 6:37 PM","FP","2",""
"237","237","1/24/2017 6:39 PM","FP","2",""
"259","259","1/24/2017 6:41 PM","FP","2",""
"242","242","1/24/2017 6:41 PM","FP","2",""
"8","8","1/24/2017 6:43 PM","FP","2",""
"144","144","1/24/2017 6:46 PM","FP","2",""
"194","194","1/24/2017 6:48 PM","FP","2",""
"177","177","1/24/2017 6:49 PM","FP","2",""
"24","24","1/24/2017 6:49 PM","FP","2",""
"248","248","1/24/2017 6:51 PM","FP","2",""
"30","30","1/24/2017 6:51 PM","FP","2",""
"92","92","1/24/2017 7:02 PM","FP","2",""
"191","191","1/24/2017 7:15 PM","FP","2",""
"89","89","1/24/2017 7:31 PM","FP","2",""
"135","135","1/24/2017 8:04 PM","FP","2",""
"229","229","1/24/2017 8:04 PM","FP","2",""
"94","94","1/24/2017 8:16 PM","FP","2",""
"139","139","1/24/2017 8:17 PM","FP","2",""
"192","192","1/24/2017 8:17 PM","FP","2",""
"217","217","1/24/2017 8:43 PM","FP","2",""
"160","160","1/24/2017 8:50 PM","FP","2",""
"251","251","1/24/2017 9:01 PM","FP","2",""
"264","264","1/24/2017 9:03 PM","FP","2",""
"184","184","1/24/2017 9:08 PM","FP","2",""
"45","45","1/24/2017 9:25 PM","FP","2",""
"260","260","1/25/2017 6:35 AM","FP","2",""
"7","7","1/25/2017 6:43 AM","FP","2",""
"262","262","1/25/2017 6:44 AM","FP","2",""
"188","188","1/25/2017 6:46 AM","FP","2",""
"188","188","1/25/2017 6:46 AM","FP","2",""
"45","45","1/25/2017 7:01 AM","FP","2",""
"79","79","1/25/2017 7:01 AM","FP","2",""
"249","249","1/25/2017 7:15 AM","FP","2",""
"256","256","1/25/2017 7:15 AM","FP","2",""
"75","75","1/25/2017 7:26 AM","FP","2",""
"187","187","1/25/2017 7:27 AM","FP","2",""
"240","240","1/25/2017 7:34 AM","FP","2",""
"248","248","1/25/2017 7:41 AM","FP","2",""
"171","171","1/25/2017 7:41 AM","FP","2",""
"177","177","1/25/2017 7:43 AM","FP","2",""
"87","87","1/25/2017 7:44 AM","FP","2",""
"222","222","1/25/2017 7:44 AM","FP","2",""
"237","237","1/25/2017 7:45 AM","FP","2",""
"251","251","1/25/2017 7:45 AM","FP","2",""
"190","190","1/25/2017 7:45 AM","FP","2",""
"59","59","1/25/2017 7:46 AM","FP","2",""
"271","271","1/25/2017 7:47 AM","FP","2",""
"175","175","1/25/2017 7:48 AM","FP","2",""
"94","94","1/25/2017 7:53 AM","FP","2",""
"276","276","1/25/2017 7:54 AM","FP","2",""
"259","259","1/25/2017 7:54 AM","FP","2",""
"228","228","1/25/2017 7:54 AM","FP","2",""
"49","49","1/25/2017 7:55 AM","FP","2",""
"38","38","1/25/2017 7:58 AM","FP","2",""
"121","121","1/25/2017 7:59 AM","FP","2",""
"242","242","1/25/2017 8:00 AM","FP","2",""
"120","120","1/25/2017 8:01 AM","FP","2",""
"83","83","1/25/2017 8:03 AM","FP","2",""
"23","23","1/25/2017 8:03 AM","FP","2",""
"213","213","1/25/2017 8:03 AM","FP","2",""
"258","258","1/25/2017 8:04 AM","FP","2",""
"253","253","1/25/2017 8:05 AM","FP","2",""
"229","229","1/25/2017 8:05 AM","FP","2",""
"229","229","1/25/2017 8:05 AM","FP","2",""
"135","135","1/25/2017 8:06 AM","FP","2",""
"152","152","1/25/2017 8:06 AM","FP","2",""
"176","176","1/25/2017 8:09 AM","FP","2",""
"139","139","1/25/2017 8:11 AM","FP","2",""
"28","28","1/25/2017 8:11 AM","FP","2",""
"178","178","1/25/2017 8:18 AM","FP","2",""
"64","64","1/25/2017 8:21 AM","FP","2",""
"186","186","1/25/2017 8:25 AM","FP","2",""
"19","19","1/25/2017 8:26 AM","FP","2",""
"44","44","1/25/2017 8:27 AM","FP","2",""
"49","49","1/25/2017 8:27 AM","FP","2",""
"192","192","1/25/2017 8:29 AM","FP","2",""
"40","40","1/25/2017 8:33 AM","FP","2",""
"158","158","1/25/2017 8:33 AM","FP","2",""
"92","92","1/25/2017 8:35 AM","FP","2",""
"144","144","1/25/2017 8:37 AM","FP","2",""
"221","221","1/25/2017 8:38 AM","FP","2",""
"99","99","1/25/2017 8:38 AM","FP","2",""
"27","27","1/25/2017 8:43 AM","FP","2",""
"8","8","1/25/2017 8:52 AM","FP","2",""
"30","30","1/25/2017 8:53 AM","FP","2",""
"263","263","1/25/2017 8:55 AM","FP","2",""
"34","34","1/25/2017 8:57 AM","FP","2",""
"31","31","1/25/2017 9:01 AM","FP","2",""
"89","89","1/25/2017 9:02 AM","FP","2",""
"268","268","1/25/2017 9:02 AM","FP","2",""
"15","15","1/25/2017 9:03 AM","FP","2",""
"13","13","1/25/2017 9:05 AM","FP","2",""
"56","56","1/25/2017 9:16 AM","FP","2",""
"191","191","1/25/2017 9:19 AM","FP","2",""
"10","10","1/25/2017 9:22 AM","FP","2",""
"24","24","1/25/2017 9:31 AM","FP","2",""
"43","43","1/25/2017 10:04 AM","FP","2",""
"192","192","1/25/2017 12:01 PM","FP","2",""
"192","192","1/25/2017 12:01 PM","FP","2",""
"192","192","1/25/2017 12:01 PM","FP","2",""
"152","152","1/25/2017 12:02 PM","FP","2",""
"152","152","1/25/2017 12:02 PM","FP","2",""
"92","92","1/25/2017 12:02 PM","FP","2",""
"256","256","1/25/2017 12:03 PM","FP","2",""
"256","256","1/25/2017 12:03 PM","FP","2",""
"94","94","1/25/2017 12:04 PM","FP","2",""
"44","44","1/25/2017 12:04 PM","FP","2",""
"94","94","1/25/2017 12:04 PM","FP","2",""
"44","44","1/25/2017 12:04 PM","FP","2",""
"259","259","1/25/2017 12:05 PM","FP","2",""
"259","259","1/25/2017 12:05 PM","FP","2",""
"259","259","1/25/2017 12:05 PM","FP","2",""
"213","213","1/25/2017 12:06 PM","FP","2",""
"213","213","1/25/2017 12:06 PM","FP","2",""
"248","248","1/25/2017 12:07 PM","FP","2",""
"248","248","1/25/2017 12:07 PM","FP","2",""
"221","221","1/25/2017 12:07 PM","FP","2",""
"248","248","1/25/2017 12:07 PM","FP","2",""
"221","221","1/25/2017 12:07 PM","FP","2",""
"7","7","1/25/2017 12:08 PM","FP","2",""
"7","7","1/25/2017 12:08 PM","FP","2",""
"27","27","1/25/2017 12:08 PM","FP","2",""
"27","27","1/25/2017 12:08 PM","FP","2",""
"178","178","1/25/2017 12:08 PM","FP","2",""
"178","178","1/25/2017 12:08 PM","FP","2",""
"56","56","1/25/2017 12:09 PM","FP","2",""
"56","56","1/25/2017 12:09 PM","FP","2",""
"64","64","1/25/2017 12:09 PM","FP","2",""
"64","64","1/25/2017 12:09 PM","FP","2",""
"228","228","1/25/2017 12:09 PM","FP","2",""
"228","228","1/25/2017 12:09 PM","FP","2",""
"121","121","1/25/2017 12:10 PM","FP","2",""
"121","121","1/25/2017 12:10 PM","FP","2",""
"171","171","1/25/2017 12:10 PM","FP","2",""
"38","38","1/25/2017 12:10 PM","FP","2",""
"171","171","1/25/2017 12:10 PM","FP","2",""
"38","38","1/25/2017 12:10 PM","FP","2",""
"8","8","1/25/2017 12:11 PM","FP","2",""
"8","8","1/25/2017 12:11 PM","FP","2",""
"268","268","1/25/2017 12:12 PM","FP","2",""
"120","120","1/25/2017 12:12 PM","FP","2",""
"120","120","1/25/2017 12:12 PM","FP","2",""
"251","251","1/25/2017 12:13 PM","FP","2",""
"251","251","1/25/2017 12:13 PM","FP","2",""
"237","237","1/25/2017 12:13 PM","FP","2",""
"237","237","1/25/2017 12:13 PM","FP","2",""
"34","34","1/25/2017 12:15 PM","FP","2",""
"34","34","1/25/2017 12:15 PM","FP","2",""
"49","49","1/25/2017 12:18 PM","FP","2",""
"92","92","1/25/2017 12:18 PM","FP","2",""
"135","135","1/25/2017 12:21 PM","FP","2",""
"135","135","1/25/2017 12:21 PM","FP","2",""
"135","135","1/25/2017 12:21 PM","FP","2",""
"13","13","1/25/2017 12:21 PM","FP","2",""
"13","13","1/25/2017 12:22 PM","FP","2",""
"28","28","1/25/2017 12:22 PM","FP","2",""
"253","253","1/25/2017 12:22 PM","FP","2",""
"23","23","1/25/2017 12:22 PM","FP","2",""
"28","28","1/25/2017 12:23 PM","FP","2",""
"253","253","1/25/2017 12:23 PM","FP","2",""
"23","23","1/25/2017 12:23 PM","FP","2",""
"24","24","1/25/2017 12:23 PM","FP","2",""
"24","24","1/25/2017 12:23 PM","FP","2",""
"264","264","1/25/2017 12:26 PM","FP","2",""
"271","271","1/25/2017 12:27 PM","FP","2",""
"271","271","1/25/2017 12:27 PM","FP","2",""
"139","139","1/25/2017 12:27 PM","FP","2",""
"139","139","1/25/2017 12:27 PM","FP","2",""
"83","83","1/25/2017 12:28 PM","FP","2",""
"83","83","1/25/2017 12:28 PM","FP","2",""
"158","158","1/25/2017 12:29 PM","FP","2",""
"158","158","1/25/2017 12:29 PM","FP","2",""
"63","63","1/25/2017 12:34 PM","FP","2",""
"63","63","1/25/2017 12:34 PM","FP","2",""
"177","177","1/25/2017 12:36 PM","FP","2",""
"177","177","1/25/2017 12:36 PM","FP","2",""
"19","19","1/25/2017 12:37 PM","FP","2",""
"19","19","1/25/2017 12:37 PM","FP","2",""
"186","186","1/25/2017 12:38 PM","FP","2",""
"186","186","1/25/2017 12:38 PM","FP","2",""
"89","89","1/25/2017 12:39 PM","FP","2",""
"89","89","1/25/2017 12:39 PM","FP","2",""
"16","16","1/25/2017 12:39 PM","FP","2",""
"255","255","1/25/2017 12:39 PM","FP","2",""
"16","16","1/25/2017 12:39 PM","FP","2",""
"255","255","1/25/2017 12:39 PM","FP","2",""
"31","31","1/25/2017 12:40 PM","FP","2",""
"31","31","1/25/2017 12:40 PM","FP","2",""
"175","175","1/25/2017 12:45 PM","FP","2",""
"175","175","1/25/2017 12:45 PM","FP","2",""
"79","79","1/25/2017 12:49 PM","FP","2",""
"79","79","1/25/2017 12:50 PM","FP","2",""
"176","176","1/25/2017 12:50 PM","FP","2",""
"176","176","1/25/2017 12:50 PM","FP","2",""
"40","40","1/25/2017 12:50 PM","FP","2",""
"40","40","1/25/2017 12:50 PM","FP","2",""
"191","191","1/25/2017 12:51 PM","FP","2",""
"191","191","1/25/2017 12:52 PM","FP","2",""
"190","190","1/25/2017 12:52 PM","FP","2",""
"190","190","1/25/2017 12:53 PM","FP","2",""
"240","240","1/25/2017 12:53 PM","FP","2",""
"240","240","1/25/2017 12:54 PM","FP","2",""
"10","10","1/25/2017 12:54 PM","FP","2",""
"15","15","1/25/2017 12:54 PM","FP","2",""
"10","10","1/25/2017 12:54 PM","FP","2",""
"15","15","1/25/2017 12:54 PM","FP","2",""
"242","242","1/25/2017 12:54 PM","FP","2",""
"242","242","1/25/2017 12:54 PM","FP","2",""
"146","146","1/25/2017 12:55 PM","FP","2",""
"99","99","1/25/2017 12:55 PM","FP","2",""
"184","184","1/25/2017 12:59 PM","FP","2",""
"277","277","1/25/2017 1:58 PM","FP","2",""
"277","277","1/25/2017 1:59 PM","FP","2",""
"260","260","1/25/2017 4:04 PM","FP","2",""
"45","45","1/25/2017 4:37 PM","FP","2",""
"38","38","1/25/2017 5:01 PM","FP","2",""
"190","190","1/25/2017 5:07 PM","FP","2",""
"187","187","1/25/2017 5:13 PM","FP","2",""
"75","75","1/25/2017 5:15 PM","FP","2",""
"228","228","1/25/2017 5:16 PM","FP","2",""
"171","171","1/25/2017 5:16 PM","FP","2",""
"178","178","1/25/2017 5:25 PM","FP","2",""
"64","64","1/25/2017 5:32 PM","FP","2",""
"16","16","1/25/2017 5:35 PM","FP","2",""
"49","49","1/25/2017 5:36 PM","FP","2",""
"129","129","1/25/2017 5:53 PM","FP","2",""
"120","120","1/25/2017 5:59 PM","FP","2",""
"268","268","1/25/2017 6:02 PM","FP","2",""
"13","13","1/25/2017 6:03 PM","FP","2",""
"56","56","1/25/2017 6:04 PM","FP","2",""
"240","240","1/25/2017 6:20 PM","FP","2",""
"83","83","1/25/2017 6:23 PM","FP","2",""
"176","176","1/25/2017 6:25 PM","FP","2",""
"158","158","1/25/2017 6:26 PM","FP","2",""
"10","10","1/25/2017 6:26 PM","FP","2",""
"27","27","1/25/2017 6:26 PM","FP","2",""
"92","92","1/25/2017 6:30 PM","FP","2",""
"28","28","1/25/2017 6:31 PM","FP","2",""
"186","186","1/25/2017 6:31 PM","FP","2",""
"19","19","1/25/2017 6:31 PM","FP","2",""
"8","8","1/25/2017 6:41 PM","FP","2",""
"194","194","1/25/2017 6:42 PM","FP","2",""
"243","243","1/25/2017 6:44 PM","FP","2",""
"87","87","1/25/2017 6:44 PM","FP","2",""
"242","242","1/25/2017 6:50 PM","FP","2",""
"160","160","1/25/2017 6:52 PM","FP","2",""
"169","169","1/25/2017 6:52 PM","FP","2",""
"79","79","1/25/2017 6:52 PM","FP","2",""
"24","24","1/25/2017 6:53 PM","FP","2",""
"15","15","1/25/2017 6:59 PM","FP","2",""
"229","229","1/25/2017 7:02 PM","FP","2",""
"249","249","1/25/2017 7:02 PM","FP","2",""
"43","43","1/25/2017 7:16 PM","FP","2",""
"44","44","1/25/2017 7:20 PM","FP","2",""
"177","177","1/25/2017 7:20 PM","FP","2",""
"135","135","1/25/2017 7:20 PM","FP","2",""
"23","23","1/25/2017 7:31 PM","FP","2",""
"253","253","1/25/2017 7:31 PM","FP","2",""
"89","89","1/25/2017 7:32 PM","FP","2",""
"255","255","1/25/2017 7:34 PM","FP","2",""
"146","146","1/25/2017 7:39 PM","FP","2",""
"221","221","1/25/2017 7:40 PM","FP","2",""
"276","276","1/25/2017 7:40 PM","FP","2",""
"191","191","1/25/2017 7:42 PM","FP","2",""
"175","175","1/25/2017 7:43 PM","FP","2",""
"152","152","1/25/2017 8:47 PM","FP","2",""
"213","213","1/25/2017 8:48 PM","FP","2",""
"251","251","1/25/2017 8:48 PM","FP","2",""
"222","222","1/25/2017 8:50 PM","FP","2",""
"248","248","1/25/2017 8:51 PM","FP","2",""
"237","237","1/25/2017 8:51 PM","FP","2",""
"259","259","1/25/2017 8:53 PM","FP","2",""
"57","57","1/25/2017 9:00 PM","FP","2",""
"57","57","1/25/2017 9:00 PM","FP","2",""
"264","264","1/25/2017 9:02 PM","FP","2",""
"34","34","1/25/2017 9:48 PM","FP","2",""
"30","30","1/25/2017 10:02 PM","FP","2",""
"40","40","1/25/2017 10:07 PM","FP","2",""
"31","31","1/25/2017 10:12 PM","FP","2",""
"144","144","1/25/2017 10:13 PM","FP","2",""
"139","139","1/25/2017 10:16 PM","FP","2",""
"192","192","1/25/2017 10:16 PM","FP","2",""
"94","94","1/25/2017 10:16 PM","FP","2",""
"59","59","1/25/2017 10:25 PM","FP","2",""
"263","263","1/25/2017 10:39 PM","FP","2",""
"271","271","1/25/2017 11:00 PM","FP","2",""
"277","277","1/25/2017 11:00 PM","FP","2",""
"184","184","1/25/2017 11:24 PM","FP","2",""
"260","260","1/26/2017 6:24 AM","FP","2",""
"262","262","1/26/2017 6:32 AM","FP","2",""
"188","188","1/26/2017 6:53 AM","FP","2",""
"45","45","1/26/2017 6:56 AM","FP","2",""
"75","75","1/26/2017 7:14 AM","FP","2",""
"7","7","1/26/2017 7:14 AM","FP","2",""
"57","57","1/26/2017 7:15 AM","FP","2",""
"249","249","1/26/2017 7:20 AM","FP","2",""
"256","256","1/26/2017 7:20 AM","FP","2",""
"33","33","1/26/2017 7:23 AM","FP","2",""
"121","121","1/26/2017 7:33 AM","FP","2",""
"87","87","1/26/2017 7:40 AM","FP","2",""
"240","240","1/26/2017 7:42 AM","FP","2",""
"38","38","1/26/2017 7:43 AM","FP","2",""
"276","276","1/26/2017 7:45 AM","FP","2",""
"171","171","1/26/2017 7:46 AM","FP","2",""
"228","228","1/26/2017 7:49 AM","FP","2",""
"190","190","1/26/2017 7:50 AM","FP","2",""
"222","222","1/26/2017 7:51 AM","FP","2",""
"59","59","1/26/2017 7:51 AM","FP","2",""
"139","139","1/26/2017 7:52 AM","FP","2",""
"224","224","1/26/2017 7:52 AM","FP","2",""
"19","19","1/26/2017 7:52 AM","FP","2",""
"94","94","1/26/2017 7:54 AM","FP","2",""
"120","120","1/26/2017 7:54 AM","FP","2",""
"177","177","1/26/2017 7:55 AM","FP","2",""
"259","259","1/26/2017 7:55 AM","FP","2",""
"259","259","1/26/2017 7:55 AM","FP","2",""
"251","251","1/26/2017 7:55 AM","FP","2",""
"271","271","1/26/2017 7:57 AM","FP","2",""
"258","258","1/26/2017 7:57 AM","FP","2",""
"277","277","1/26/2017 7:57 AM","FP","2",""
"187","187","1/26/2017 7:58 AM","FP","2",""
"242","242","1/26/2017 8:00 AM","FP","2",""
"255","255","1/26/2017 8:00 AM","FP","2",""
"253","253","1/26/2017 8:02 AM","FP","2",""
"232","232","1/26/2017 8:04 AM","FP","2",""
"243","243","1/26/2017 8:05 AM","FP","2",""
"23","23","1/26/2017 8:06 AM","FP","2",""
"176","176","1/26/2017 8:06 AM","FP","2",""
"64","64","1/26/2017 8:09 AM","FP","2",""
"175","175","1/26/2017 8:09 AM","FP","2",""
"248","248","1/26/2017 8:09 AM","FP","2",""
"152","152","1/26/2017 8:09 AM","FP","2",""
"43","43","1/26/2017 8:12 AM","FP","2",""
"158","158","1/26/2017 8:13 AM","FP","2",""
"193","193","1/26/2017 8:14 AM","FP","2",""
"28","28","1/26/2017 8:14 AM","FP","2",""
"221","221","1/26/2017 8:14 AM","FP","2",""
"83","83","1/26/2017 8:15 AM","FP","2",""
"229","229","1/26/2017 8:15 AM","FP","2",""
"169","169","1/26/2017 8:15 AM","FP","2",""
"44","44","1/26/2017 8:16 AM","FP","2",""
"178","178","1/26/2017 8:22 AM","FP","2",""
"92","92","1/26/2017 8:35 AM","FP","2",""
"192","192","1/26/2017 8:37 AM","FP","2",""
"126","126","1/26/2017 8:38 AM","FP","2",""
"27","27","1/26/2017 8:40 AM","FP","2",""
"79","79","1/26/2017 8:44 AM","FP","2",""
"40","40","1/26/2017 8:51 AM","FP","2",""
"160","160","1/26/2017 8:55 AM","FP","2",""
"144","144","1/26/2017 8:56 AM","FP","2",""
"15","15","1/26/2017 8:56 AM","FP","2",""
"8","8","1/26/2017 9:01 AM","FP","2",""
"49","49","1/26/2017 9:02 AM","FP","2",""
"135","135","1/26/2017 9:05 AM","FP","2",""
"30","30","1/26/2017 9:07 AM","FP","2",""
"10","10","1/26/2017 9:13 AM","FP","2",""
"13","13","1/26/2017 9:17 AM","FP","2",""
"191","191","1/26/2017 9:27 AM","FP","2",""
"263","263","1/26/2017 9:39 AM","FP","2",""
"34","34","1/26/2017 10:08 AM","FP","2",""
"24","24","1/26/2017 10:31 AM","FP","2",""
"31","31","1/26/2017 10:44 AM","FP","2",""
"75","75","1/26/2017 12:01 PM","FP","2",""
"75","75","1/26/2017 12:01 PM","FP","2",""
"86","86","1/26/2017 12:01 PM","FP","2",""
"188","188","1/26/2017 12:01 PM","FP","2",""
"187","187","1/26/2017 12:01 PM","FP","2",""
"86","86","1/26/2017 12:02 PM","FP","2",""
"188","188","1/26/2017 12:02 PM","FP","2",""
"187","187","1/26/2017 12:02 PM","FP","2",""
"90","90","1/26/2017 12:02 PM","FP","2",""
"33","33","1/26/2017 12:02 PM","FP","2",""
"90","90","1/26/2017 12:02 PM","FP","2",""
"33","33","1/26/2017 12:03 PM","FP","2",""
"79","79","1/26/2017 12:14 PM","FP","2",""
"79","79","1/26/2017 12:14 PM","FP","2",""
"7","7","1/26/2017 12:14 PM","FP","2",""
"13","13","1/26/2017 12:14 PM","FP","2",""
"191","191","1/26/2017 12:15 PM","FP","2",""
"178","178","1/26/2017 12:15 PM","FP","2",""
"178","178","1/26/2017 12:16 PM","FP","2",""
"13","13","1/26/2017 12:16 PM","FP","2",""
"191","191","1/26/2017 12:16 PM","FP","2",""
"7","7","1/26/2017 12:16 PM","FP","2",""
"15","15","1/26/2017 12:20 PM","FP","2",""
"15","15","1/26/2017 12:20 PM","FP","2",""
"23","23","1/26/2017 12:23 PM","FP","2",""
"28","28","1/26/2017 12:23 PM","FP","2",""
"23","23","1/26/2017 12:23 PM","FP","2",""
"28","28","1/26/2017 12:23 PM","FP","2",""
"277","277","1/26/2017 12:23 PM","FP","2",""
"277","277","1/26/2017 12:23 PM","FP","2",""
"277","277","1/26/2017 12:24 PM","FP","2",""
"92","92","1/26/2017 12:25 PM","FP","2",""
"92","92","1/26/2017 12:25 PM","FP","2",""
"43","43","1/26/2017 12:25 PM","FP","2",""
"8","8","1/26/2017 12:25 PM","FP","2",""
"43","43","1/26/2017 12:25 PM","FP","2",""
"8","8","1/26/2017 12:25 PM","FP","2",""
"57","57","1/26/2017 12:26 PM","FP","2",""
"31","31","1/26/2017 12:26 PM","FP","2",""
"57","57","1/26/2017 12:26 PM","FP","2",""
"31","31","1/26/2017 12:26 PM","FP","2",""
"152","152","1/26/2017 12:27 PM","FP","2",""
"152","152","1/26/2017 12:27 PM","FP","2",""
"83","83","1/26/2017 12:28 PM","FP","2",""
"83","83","1/26/2017 12:28 PM","FP","2",""
"158","158","1/26/2017 12:33 PM","FP","2",""
"158","158","1/26/2017 12:33 PM","FP","2",""
"120","120","1/26/2017 12:36 PM","FP","2",""
"120","120","1/26/2017 12:36 PM","FP","2",""
"40","40","1/26/2017 12:37 PM","FP","2",""
"40","40","1/26/2017 12:37 PM","FP","2",""
"258","258","1/26/2017 12:39 PM","FP","2",""
"271","271","1/26/2017 12:39 PM","FP","2",""
"270","270","1/26/2017 12:39 PM","FP","2",""
"258","258","1/26/2017 12:39 PM","FP","2",""
"271","271","1/26/2017 12:39 PM","FP","2",""
"270","270","1/26/2017 12:39 PM","FP","2",""
"240","240","1/26/2017 12:41 PM","FP","2",""
"240","240","1/26/2017 12:41 PM","FP","2",""
"249","249","1/26/2017 12:41 PM","FP","2",""
"249","249","1/26/2017 12:41 PM","FP","2",""
"169","169","1/26/2017 12:42 PM","FP","2",""
"169","169","1/26/2017 12:42 PM","FP","2",""
"264","264","1/26/2017 12:42 PM","FP","2",""
"177","177","1/26/2017 12:44 PM","FP","2",""
"177","177","1/26/2017 12:44 PM","FP","2",""
"256","256","1/26/2017 12:44 PM","FP","2",""
"256","256","1/26/2017 12:44 PM","FP","2",""
"193","193","1/26/2017 12:45 PM","FP","2",""
"193","193","1/26/2017 12:45 PM","FP","2",""
"27","27","1/26/2017 12:47 PM","FP","2",""
"27","27","1/26/2017 12:48 PM","FP","2",""
"192","192","1/26/2017 12:48 PM","FP","2",""
"192","192","1/26/2017 12:48 PM","FP","2",""
"229","229","1/26/2017 12:48 PM","FP","2",""
"229","229","1/26/2017 12:48 PM","FP","2",""
"87","87","1/26/2017 12:49 PM","FP","2",""
"87","87","1/26/2017 12:49 PM","FP","2",""
"139","139","1/26/2017 12:49 PM","FP","2",""
"139","139","1/26/2017 12:49 PM","FP","2",""
"64","64","1/26/2017 12:50 PM","FP","2",""
"64","64","1/26/2017 12:50 PM","FP","2",""
"243","243","1/26/2017 12:51 PM","FP","2",""
"243","243","1/26/2017 12:51 PM","FP","2",""
"19","19","1/26/2017 12:51 PM","FP","2",""
"19","19","1/26/2017 12:51 PM","FP","2",""
"24","24","1/26/2017 12:51 PM","FP","2",""
"24","24","1/26/2017 12:51 PM","FP","2",""
"171","171","1/26/2017 12:51 PM","FP","2",""
"171","171","1/26/2017 12:52 PM","FP","2",""
"63","63","1/26/2017 12:53 PM","FP","2",""
"63","63","1/26/2017 12:53 PM","FP","2",""
"160","160","1/26/2017 12:54 PM","FP","2",""
"160","160","1/26/2017 12:54 PM","FP","2",""
"44","44","1/26/2017 12:54 PM","FP","2",""
"242","242","1/26/2017 12:54 PM","FP","2",""
"44","44","1/26/2017 12:55 PM","FP","2",""
"242","242","1/26/2017 12:55 PM","FP","2",""
"251","251","1/26/2017 12:55 PM","FP","2",""
"251","251","1/26/2017 12:55 PM","FP","2",""
"194","194","1/26/2017 12:56 PM","FP","2",""
"194","194","1/26/2017 12:56 PM","FP","2",""
"49","49","1/26/2017 12:57 PM","FP","2",""
"49","49","1/26/2017 12:57 PM","FP","2",""
"224","224","1/26/2017 12:57 PM","FP","2",""
"222","222","1/26/2017 12:57 PM","FP","2",""
"224","224","1/26/2017 12:57 PM","FP","2",""
"222","222","1/26/2017 12:57 PM","FP","2",""
"38","38","1/26/2017 1:00 PM","FP","2",""
"38","38","1/26/2017 1:00 PM","FP","2",""
"184","184","1/26/2017 1:05 PM","FP","2",""
"260","260","1/26/2017 4:06 PM","FP","2",""
"262","262","1/26/2017 4:06 PM","FP","2",""
"86","86","1/26/2017 5:00 PM","FP","2",""
"187","187","1/26/2017 5:00 PM","FP","2",""
"38","38","1/26/2017 5:00 PM","FP","2",""
"7","7","1/26/2017 5:03 PM","FP","2",""
"7","7","1/26/2017 5:03 PM","FP","2",""
"178","178","1/26/2017 5:08 PM","FP","2",""
"175","175","1/26/2017 5:14 PM","FP","2",""
"171","171","1/26/2017 5:28 PM","FP","2",""
"240","240","1/26/2017 5:38 PM","FP","2",""
"75","75","1/26/2017 5:44 PM","FP","2",""
"221","221","1/26/2017 5:50 PM","FP","2",""
"248","248","1/26/2017 5:50 PM","FP","2",""
"176","176","1/26/2017 5:54 PM","FP","2",""
"243","243","1/26/2017 6:00 PM","FP","2",""
"19","19","1/26/2017 6:01 PM","FP","2",""
"87","87","1/26/2017 6:01 PM","FP","2",""
"121","121","1/26/2017 6:01 PM","FP","2",""
"249","249","1/26/2017 6:01 PM","FP","2",""
"158","158","1/26/2017 6:02 PM","FP","2",""
"28","28","1/26/2017 6:02 PM","FP","2",""
"83","83","1/26/2017 6:02 PM","FP","2",""
"228","228","1/26/2017 6:04 PM","FP","2",""
"97","97","1/26/2017 6:04 PM","FP","2",""
"49","49","1/26/2017 6:04 PM","FP","2",""
"224","224","1/26/2017 6:04 PM","FP","2",""
"254","254","1/26/2017 6:04 PM","FP","2",""
"57","57","1/26/2017 6:05 PM","FP","2",""
"79","79","1/26/2017 6:09 PM","FP","2",""
"256","256","1/26/2017 6:12 PM","FP","2",""
"15","15","1/26/2017 6:14 PM","FP","2",""
"177","177","1/26/2017 6:14 PM","FP","2",""
"10","10","1/26/2017 6:14 PM","FP","2",""
"43","43","1/26/2017 6:14 PM","FP","2",""
"24","24","1/26/2017 6:18 PM","FP","2",""
"94","94","1/26/2017 6:18 PM","FP","2",""
"229","229","1/26/2017 6:20 PM","FP","2",""
"64","64","1/26/2017 6:20 PM","FP","2",""
"169","169","1/26/2017 6:20 PM","FP","2",""
"160","160","1/26/2017 6:20 PM","FP","2",""
"193","193","1/26/2017 6:22 PM","FP","2",""
"251","251","1/26/2017 6:24 PM","FP","2",""
"27","27","1/26/2017 6:24 PM","FP","2",""
"152","152","1/26/2017 6:25 PM","FP","2",""
"144","144","1/26/2017 6:26 PM","FP","2",""
"191","191","1/26/2017 6:26 PM","FP","2",""
"126","126","1/26/2017 6:31 PM","FP","2",""
"194","194","1/26/2017 6:31 PM","FP","2",""
"222","222","1/26/2017 6:31 PM","FP","2",""
"30","30","1/26/2017 6:35 PM","FP","2",""
"258","258","1/26/2017 6:40 PM","FP","2",""
"277","277","1/26/2017 6:40 PM","FP","2",""
"270","270","1/26/2017 6:40 PM","FP","2",""
"271","271","1/26/2017 6:40 PM","FP","2",""
"44","44","1/26/2017 6:47 PM","FP","2",""
"92","92","1/26/2017 6:51 PM","FP","2",""
"192","192","1/26/2017 6:51 PM","FP","2",""
"31","31","1/26/2017 6:52 PM","FP","2",""
"186","186","1/26/2017 6:53 PM","FP","2",""
"40","40","1/26/2017 6:57 PM","FP","2",""
"259","259","1/26/2017 7:11 PM","FP","2",""
"13","13","1/26/2017 7:45 PM","FP","2",""
"242","242","1/26/2017 7:46 PM","FP","2",""
"188","188","1/26/2017 7:46 PM","FP","2",""
"120","120","1/26/2017 8:14 PM","FP","2",""
"23","23","1/26/2017 8:15 PM","FP","2",""
"253","253","1/26/2017 8:15 PM","FP","2",""
"217","217","1/26/2017 8:15 PM","FP","2",""
"59","59","1/26/2017 8:27 PM","FP","2",""
"8","8","1/26/2017 8:30 PM","FP","2",""
"263","263","1/26/2017 8:49 PM","FP","2",""
"264","264","1/26/2017 9:00 PM","FP","2",""
"276","276","1/26/2017 9:03 PM","FP","2",""
"213","213","1/26/2017 9:03 PM","FP","2",""
"45","45","1/26/2017 9:14 PM","FP","2",""
"135","135","1/26/2017 10:10 PM","FP","2",""
"184","184","1/26/2017 10:20 PM","FP","2",""
"269","269","1/26/2017 10:30 PM","FP","2",""
"256","256","1/27/2017 3:03 AM","FP","2",""
"86","86","1/27/2017 6:37 AM","FP","2",""
"262","262","1/27/2017 6:38 AM","FP","2",""
"260","260","1/27/2017 6:41 AM","FP","2",""
"188","188","1/27/2017 6:57 AM","FP","2",""
"75","75","1/27/2017 7:07 AM","FP","2",""
"45","45","1/27/2017 7:08 AM","FP","2",""
"252","252","1/27/2017 7:37 AM","FP","2",""
"222","222","1/27/2017 7:37 AM","FP","2",""
"240","240","1/27/2017 7:37 AM","FP","2",""
"87","87","1/27/2017 7:39 AM","FP","2",""
"271","271","1/27/2017 7:41 AM","FP","2",""
"277","277","1/27/2017 7:41 AM","FP","2",""
"135","135","1/27/2017 7:41 AM","FP","2",""
"171","171","1/27/2017 7:43 AM","FP","2",""
"120","120","1/27/2017 7:45 AM","FP","2",""
"258","258","1/27/2017 7:45 AM","FP","2",""
"121","121","1/27/2017 7:46 AM","FP","2",""
"249","249","1/27/2017 7:46 AM","FP","2",""
"190","190","1/27/2017 7:47 AM","FP","2",""
"276","276","1/27/2017 7:48 AM","FP","2",""
"177","177","1/27/2017 7:48 AM","FP","2",""
"59","59","1/27/2017 7:49 AM","FP","2",""
"270","270","1/27/2017 7:49 AM","FP","2",""
"142","142","1/27/2017 7:49 AM","FP","2",""
"187","187","1/27/2017 7:51 AM","FP","2",""
"259","259","1/27/2017 7:53 AM","FP","2",""
"255","255","1/27/2017 7:53 AM","FP","2",""
"242","242","1/27/2017 7:57 AM","FP","2",""
"175","175","1/27/2017 7:58 AM","FP","2",""
"228","228","1/27/2017 7:59 AM","FP","2",""
"186","186","1/27/2017 8:00 AM","FP","2",""
"38","38","1/27/2017 8:01 AM","FP","2",""
"94","94","1/27/2017 8:03 AM","FP","2",""
"19","19","1/27/2017 8:03 AM","FP","2",""
"213","213","1/27/2017 8:03 AM","FP","2",""
"7","7","1/27/2017 8:05 AM","FP","2",""
"176","176","1/27/2017 8:06 AM","FP","2",""
"49","49","1/27/2017 8:07 AM","FP","2",""
"92","92","1/27/2017 8:07 AM","FP","2",""
"23","23","1/27/2017 8:08 AM","FP","2",""
"178","178","1/27/2017 8:09 AM","FP","2",""
"64","64","1/27/2017 8:10 AM","FP","2",""
"248","248","1/27/2017 8:11 AM","FP","2",""
"152","152","1/27/2017 8:11 AM","FP","2",""
"224","224","1/27/2017 8:11 AM","FP","2",""
"243","243","1/27/2017 8:11 AM","FP","2",""
"251","251","1/27/2017 8:16 AM","FP","2",""
"83","83","1/27/2017 8:18 AM","FP","2",""
"253","253","1/27/2017 8:18 AM","FP","2",""
"28","28","1/27/2017 8:21 AM","FP","2",""
"139","139","1/27/2017 8:23 AM","FP","2",""
"193","193","1/27/2017 8:23 AM","FP","2",""
"44","44","1/27/2017 8:23 AM","FP","2",""
"158","158","1/27/2017 8:29 AM","FP","2",""
"43","43","1/27/2017 8:29 AM","FP","2",""
"79","79","1/27/2017 8:32 AM","FP","2",""
"192","192","1/27/2017 8:42 AM","FP","2",""
"27","27","1/27/2017 8:42 AM","FP","2",""
"217","217","1/27/2017 8:43 AM","FP","2",""
"30","30","1/27/2017 8:46 AM","FP","2",""
"268","268","1/27/2017 8:51 AM","FP","2",""
"34","34","1/27/2017 8:52 AM","FP","2",""
"8","8","1/27/2017 8:54 AM","FP","2",""
"13","13","1/27/2017 8:54 AM","FP","2",""
"160","160","1/27/2017 8:56 AM","FP","2",""
"56","56","1/27/2017 8:56 AM","FP","2",""
"169","169","1/27/2017 8:56 AM","FP","2",""
"93","93","1/27/2017 8:57 AM","FP","2",""
"40","40","1/27/2017 8:57 AM","FP","2",""
"194","194","1/27/2017 8:58 AM","FP","2",""
"144","144","1/27/2017 9:06 AM","FP","2",""
"10","10","1/27/2017 9:16 AM","FP","2",""
"263","263","1/27/2017 9:19 AM","FP","2",""
"179","179","1/27/2017 9:19 AM","FP","2",""
"57","57","1/27/2017 9:26 AM","FP","2",""
"31","31","1/27/2017 9:34 AM","FP","2",""
"221","221","1/27/2017 9:50 AM","FP","2",""
"15","15","1/27/2017 10:12 AM","FP","2",""
"24","24","1/27/2017 10:55 AM","FP","2",""
"86","86","1/27/2017 12:00 PM","FP","2",""
"86","86","1/27/2017 12:00 PM","FP","2",""
"45","45","1/27/2017 12:00 PM","FP","2",""
"45","45","1/27/2017 12:01 PM","FP","2",""
"15","15","1/27/2017 12:05 PM","FP","2",""
"15","15","1/27/2017 12:05 PM","FP","2",""
"34","34","1/27/2017 12:05 PM","FP","2",""
"34","34","1/27/2017 12:06 PM","FP","2",""
"56","56","1/27/2017 12:07 PM","FP","2",""
"56","56","1/27/2017 12:07 PM","FP","2",""
"186","186","1/27/2017 12:09 PM","FP","2",""
"253","253","1/27/2017 12:10 PM","FP","2",""
"186","186","1/27/2017 12:10 PM","FP","2",""
"253","253","1/27/2017 12:10 PM","FP","2",""
"187","187","1/27/2017 12:10 PM","FP","2",""
"187","187","1/27/2017 12:10 PM","FP","2",""
"187","187","1/27/2017 12:10 PM","FP","2",""
"252","252","1/27/2017 12:11 PM","FP","2",""
"252","252","1/27/2017 12:11 PM","FP","2",""
"49","49","1/27/2017 12:13 PM","FP","2",""
"49","49","1/27/2017 12:13 PM","FP","2",""
"152","152","1/27/2017 12:13 PM","FP","2",""
"152","152","1/27/2017 12:14 PM","FP","2",""
"31","31","1/27/2017 12:15 PM","FP","2",""
"31","31","1/27/2017 12:15 PM","FP","2",""
"8","8","1/27/2017 12:15 PM","FP","2",""
"8","8","1/27/2017 12:16 PM","FP","2",""
"240","240","1/27/2017 12:21 PM","FP","2",""
"240","240","1/27/2017 12:21 PM","FP","2",""
"23","23","1/27/2017 12:22 PM","FP","2",""
"23","23","1/27/2017 12:22 PM","FP","2",""
"190","190","1/27/2017 12:24 PM","FP","2",""
"190","190","1/27/2017 12:24 PM","FP","2",""
"217","217","1/27/2017 12:25 PM","FP","2",""
"217","217","1/27/2017 12:25 PM","FP","2",""
"139","139","1/27/2017 12:25 PM","FP","2",""
"139","139","1/27/2017 12:25 PM","FP","2",""
"178","178","1/27/2017 12:26 PM","FP","2",""
"178","178","1/27/2017 12:27 PM","FP","2",""
"158","158","1/27/2017 12:27 PM","FP","2",""
"158","158","1/27/2017 12:27 PM","FP","2",""
"249","249","1/27/2017 12:28 PM","FP","2",""
"249","249","1/27/2017 12:28 PM","FP","2",""
"83","83","1/27/2017 12:29 PM","FP","2",""
"83","83","1/27/2017 12:29 PM","FP","2",""
"59","59","1/27/2017 12:29 PM","FP","2",""
"59","59","1/27/2017 12:29 PM","FP","2",""
"7","7","1/27/2017 12:29 PM","FP","2",""
"79","79","1/27/2017 12:29 PM","FP","2",""
"7","7","1/27/2017 12:30 PM","FP","2",""
"251","251","1/27/2017 12:30 PM","FP","2",""
"251","251","1/27/2017 12:30 PM","FP","2",""
"79","79","1/27/2017 12:30 PM","FP","2",""
"213","213","1/27/2017 12:30 PM","FP","2",""
"213","213","1/27/2017 12:30 PM","FP","2",""
"169","169","1/27/2017 12:33 PM","FP","2",""
"57","57","1/27/2017 12:33 PM","FP","2",""
"169","169","1/27/2017 12:34 PM","FP","2",""
"57","57","1/27/2017 12:34 PM","FP","2",""
"121","121","1/27/2017 12:34 PM","FP","2",""
"121","121","1/27/2017 12:34 PM","FP","2",""
"171","171","1/27/2017 12:34 PM","FP","2",""
"13","13","1/27/2017 12:34 PM","FP","2",""
"13","13","1/27/2017 12:35 PM","FP","2",""
"171","171","1/27/2017 12:35 PM","FP","2",""
"264","264","1/27/2017 12:36 PM","FP","2",""
"19","19","1/27/2017 12:37 PM","FP","2",""
"19","19","1/27/2017 12:37 PM","FP","2",""
"192","192","1/27/2017 12:38 PM","FP","2",""
"120","120","1/27/2017 12:38 PM","FP","2",""
"192","192","1/27/2017 12:38 PM","FP","2",""
"120","120","1/27/2017 12:39 PM","FP","2",""
"175","175","1/27/2017 12:39 PM","FP","2",""
"175","175","1/27/2017 12:39 PM","FP","2",""
"177","177","1/27/2017 12:44 PM","FP","2",""
"248","248","1/27/2017 12:44 PM","FP","2",""
"277","277","1/27/2017 12:44 PM","FP","2",""
"258","258","1/27/2017 12:44 PM","FP","2",""
"263","263","1/27/2017 12:44 PM","FP","2",""
"271","271","1/27/2017 12:44 PM","FP","2",""
"271","271","1/27/2017 12:44 PM","FP","2",""
"258","258","1/27/2017 12:44 PM","FP","2",""
"177","177","1/27/2017 12:45 PM","FP","2",""
"263","263","1/27/2017 12:45 PM","FP","2",""
"277","277","1/27/2017 12:45 PM","FP","2",""
"248","248","1/27/2017 12:45 PM","FP","2",""
"94","94","1/27/2017 12:45 PM","FP","2",""
"243","243","1/27/2017 12:45 PM","FP","2",""
"243","243","1/27/2017 12:45 PM","FP","2",""
"194","194","1/27/2017 12:45 PM","FP","2",""
"194","194","1/27/2017 12:45 PM","FP","2",""
"38","38","1/27/2017 12:46 PM","FP","2",""
"38","38","1/27/2017 12:46 PM","FP","2",""
"30","30","1/27/2017 12:46 PM","FP","2",""
"30","30","1/27/2017 12:47 PM","FP","2",""
"179","179","1/27/2017 12:50 PM","FP","2",""
"176","176","1/27/2017 12:50 PM","FP","2",""
"179","179","1/27/2017 12:50 PM","FP","2",""
"176","176","1/27/2017 12:50 PM","FP","2",""
"87","87","1/27/2017 12:50 PM","FP","2",""
"87","87","1/27/2017 12:50 PM","FP","2",""
"27","27","1/27/2017 12:50 PM","FP","2",""
"27","27","1/27/2017 12:51 PM","FP","2",""
"92","92","1/27/2017 12:51 PM","FP","2",""
"92","92","1/27/2017 12:51 PM","FP","2",""
"242","242","1/27/2017 12:53 PM","FP","2",""
"242","242","1/27/2017 12:53 PM","FP","2",""
"221","221","1/27/2017 12:54 PM","FP","2",""
"160","160","1/27/2017 12:54 PM","FP","2",""
"276","276","1/27/2017 12:54 PM","FP","2",""
"160","160","1/27/2017 12:55 PM","FP","2",""
"221","221","1/27/2017 12:55 PM","FP","2",""
"276","276","1/27/2017 12:55 PM","FP","2",""
"255","255","1/27/2017 12:55 PM","FP","2",""
"24","24","1/27/2017 12:56 PM","FP","2",""
"24","24","1/27/2017 12:56 PM","FP","2",""
"184","184","1/27/2017 12:59 PM","FP","2",""
"260","260","1/27/2017 4:03 PM","FP","2",""
"262","262","1/27/2017 4:05 PM","FP","2",""
"57","57","1/27/2017 4:30 PM","FP","2",""
"252","252","1/27/2017 5:00 PM","FP","2",""
"187","187","1/27/2017 5:00 PM","FP","2",""
"33","33","1/27/2017 5:01 PM","FP","2",""
"59","59","1/27/2017 5:01 PM","FP","2",""
"121","121","1/27/2017 5:04 PM","FP","2",""
"171","171","1/27/2017 5:13 PM","FP","2",""
"240","240","1/27/2017 5:14 PM","FP","2",""
"86","86","1/27/2017 5:14 PM","FP","2",""
"248","248","1/27/2017 5:15 PM","FP","2",""
"75","75","1/27/2017 5:18 PM","FP","2",""
"249","249","1/27/2017 5:22 PM","FP","2",""
"139","139","1/27/2017 5:24 PM","FP","2",""
"243","243","1/27/2017 5:28 PM","FP","2",""
"83","83","1/27/2017 5:32 PM","FP","2",""
"178","178","1/27/2017 5:34 PM","FP","2",""
"142","142","1/27/2017 5:35 PM","FP","2",""
"120","120","1/27/2017 5:41 PM","FP","2",""
"228","228","1/27/2017 5:51 PM","FP","2",""
"87","87","1/27/2017 5:52 PM","FP","2",""
"217","217","1/27/2017 6:00 PM","FP","2",""
"222","222","1/27/2017 6:06 PM","FP","2",""
"34","34","1/27/2017 6:07 PM","FP","2",""
"44","44","1/27/2017 6:07 PM","FP","2",""
"64","64","1/27/2017 6:09 PM","FP","2",""
"176","176","1/27/2017 6:11 PM","FP","2",""
"31","31","1/27/2017 6:12 PM","FP","2",""
"251","251","1/27/2017 6:17 PM","FP","2",""
"169","169","1/27/2017 6:18 PM","FP","2",""
"158","158","1/27/2017 6:20 PM","FP","2",""
"23","23","1/27/2017 6:21 PM","FP","2",""
"28","28","1/27/2017 6:21 PM","FP","2",""
"186","186","1/27/2017 6:21 PM","FP","2",""
"193","193","1/27/2017 6:21 PM","FP","2",""
"152","152","1/27/2017 6:22 PM","FP","2",""
"253","253","1/27/2017 6:22 PM","FP","2",""
"19","19","1/27/2017 6:22 PM","FP","2",""
"221","221","1/27/2017 6:25 PM","FP","2",""
"56","56","1/27/2017 6:25 PM","FP","2",""
"213","213","1/27/2017 6:25 PM","FP","2",""
"242","242","1/27/2017 6:25 PM","FP","2",""
"276","276","1/27/2017 6:25 PM","FP","2",""
"179","179","1/27/2017 6:26 PM","FP","2",""
"141","141","1/27/2017 6:26 PM","FP","2",""
"141","141","1/27/2017 6:27 PM","FP","2",""
"268","268","1/27/2017 6:27 PM","FP","2",""
"27","27","1/27/2017 6:28 PM","FP","2",""
"259","259","1/27/2017 6:30 PM","FP","2",""
"271","271","1/27/2017 6:34 PM","FP","2",""
"92","92","1/27/2017 6:36 PM","FP","2",""
"93","93","1/27/2017 6:42 PM","FP","2",""
"15","15","1/27/2017 6:43 PM","FP","2",""
"63","63","1/27/2017 6:45 PM","FP","2",""
"49","49","1/27/2017 6:45 PM","FP","2",""
"190","190","1/27/2017 6:45 PM","FP","2",""
"10","10","1/27/2017 6:46 PM","FP","2",""
"30","30","1/27/2017 6:49 PM","FP","2",""
"175","175","1/27/2017 6:49 PM","FP","2",""
"177","177","1/27/2017 6:49 PM","FP","2",""
"79","79","1/27/2017 6:54 PM","FP","2",""
"24","24","1/27/2017 6:56 PM","FP","2",""
"40","40","1/27/2017 7:01 PM","FP","2",""
"258","258","1/27/2017 7:03 PM","FP","2",""
"277","277","1/27/2017 7:03 PM","FP","2",""
"271","271","1/27/2017 7:03 PM","FP","2",""
"270","270","1/27/2017 7:03 PM","FP","2",""
"13","13","1/27/2017 7:04 PM","FP","2",""
"144","144","1/27/2017 7:11 PM","FP","2",""
"7","7","1/27/2017 7:15 PM","FP","2",""
"194","194","1/27/2017 7:37 PM","FP","2",""
"194","194","1/27/2017 7:37 PM","FP","2",""
"160","160","1/27/2017 7:54 PM","FP","2",""
"8","8","1/27/2017 7:54 PM","FP","2",""
"43","43","1/27/2017 7:54 PM","FP","2",""
"94","94","1/27/2017 7:58 PM","FP","2",""
"256","256","1/27/2017 8:35 PM","FP","2",""
"264","264","1/27/2017 9:02 PM","FP","2",""
"184","184","1/27/2017 9:02 PM","FP","2",""
"188","188","1/27/2017 9:04 PM","FP","2",""
"45","45","1/27/2017 10:50 PM","FP","2",""
"45","45","1/28/2017 6:17 AM","FP","2",""
"135","135","1/28/2017 6:50 AM","FP","2",""
"135","135","1/28/2017 6:51 AM","FP","2",""
"263","263","1/28/2017 6:51 AM","FP","2",""
"86","86","1/28/2017 7:26 AM","FP","2",""
"184","184","1/28/2017 8:15 AM","FP","2",""
"83","83","1/28/2017 9:35 AM","FP","2",""
"86","86","1/28/2017 12:07 PM","FP","2",""
"23","23","1/28/2017 12:15 PM","FP","2",""
"253","253","1/28/2017 12:18 PM","FP","2",""
"83","83","1/28/2017 12:35 PM","FP","2",""
"83","83","1/28/2017 12:36 PM","FP","2",""
"186","186","1/28/2017 12:56 PM","FP","2",""
"271","271","1/28/2017 12:57 PM","FP","2",""
"184","184","1/28/2017 1:45 PM","FP","2",""
"28","28","1/28/2017 1:52 PM","FP","2",""
"83","83","1/28/2017 2:55 PM","FP","2",""
"23","23","1/28/2017 2:56 PM","FP","2",""
"28","28","1/28/2017 2:56 PM","FP","2",""
"45","45","1/28/2017 6:11 PM","FP","2",""
"186","186","1/28/2017 7:49 PM","FP","2",""
"271","271","1/28/2017 9:48 PM","FP","2",""
"269","269","1/28/2017 11:22 PM","FP","2",""
"253","253","1/29/2017 1:10 AM","FP","2",""
"269","269","1/29/2017 6:01 AM","FP","2",""
"86","86","1/29/2017 12:43 PM","FP","2",""
"188","188","1/29/2017 12:46 PM","FP","2",""
"188","188","1/29/2017 12:46 PM","FP","2",""
"33","33","1/29/2017 1:58 PM","FP","2",""
"33","33","1/29/2017 8:31 PM","FP","2",""
"260","260","1/30/2017 6:31 AM","FP","2",""
"262","262","1/30/2017 6:38 AM","FP","2",""
"188","188","1/30/2017 6:46 AM","FP","2",""
"45","45","1/30/2017 7:03 AM","FP","2",""
"75","75","1/30/2017 7:03 AM","FP","2",""
"33","33","1/30/2017 7:06 AM","FP","2",""
"7","7","1/30/2017 7:18 AM","FP","2",""
"163","163","1/30/2017 7:19 AM","FP","2",""
"243","243","1/30/2017 7:22 AM","FP","2",""
"251","251","1/30/2017 7:27 AM","FP","2",""
"187","187","1/30/2017 7:30 AM","FP","2",""
"19","19","1/30/2017 7:31 AM","FP","2",""
"270","270","1/30/2017 7:31 AM","FP","2",""
"49","49","1/30/2017 7:32 AM","FP","2",""
"87","87","1/30/2017 7:34 AM","FP","2",""
"222","222","1/30/2017 7:37 AM","FP","2",""
"252","252","1/30/2017 7:38 AM","FP","2",""
"152","152","1/30/2017 7:40 AM","FP","2",""
"255","255","1/30/2017 7:42 AM","FP","2",""
"240","240","1/30/2017 7:43 AM","FP","2",""
"83","83","1/30/2017 7:44 AM","FP","2",""
"59","59","1/30/2017 7:44 AM","FP","2",""
"64","64","1/30/2017 7:44 AM","FP","2",""
"258","258","1/30/2017 7:45 AM","FP","2",""
"277","277","1/30/2017 7:45 AM","FP","2",""
"190","190","1/30/2017 7:46 AM","FP","2",""
"248","248","1/30/2017 7:47 AM","FP","2",""
"228","228","1/30/2017 7:47 AM","FP","2",""
"94","94","1/30/2017 7:48 AM","FP","2",""
"40","40","1/30/2017 7:49 AM","FP","2",""
"44","44","1/30/2017 7:49 AM","FP","2",""
"126","126","1/30/2017 7:50 AM","FP","2",""
"186","186","1/30/2017 7:52 AM","FP","2",""
"276","276","1/30/2017 7:53 AM","FP","2",""
"171","171","1/30/2017 7:53 AM","FP","2",""
"221","221","1/30/2017 7:53 AM","FP","2",""
"177","177","1/30/2017 7:55 AM","FP","2",""
"38","38","1/30/2017 7:56 AM","FP","2",""
"194","194","1/30/2017 7:58 AM","FP","2",""
"23","23","1/30/2017 7:58 AM","FP","2",""
"27","27","1/30/2017 7:59 AM","FP","2",""
"120","120","1/30/2017 7:59 AM","FP","2",""
"259","259","1/30/2017 7:59 AM","FP","2",""
"28","28","1/30/2017 8:02 AM","FP","2",""
"144","144","1/30/2017 8:03 AM","FP","2",""
"242","242","1/30/2017 8:04 AM","FP","2",""
"135","135","1/30/2017 8:05 AM","FP","2",""
"139","139","1/30/2017 8:05 AM","FP","2",""
"271","271","1/30/2017 8:05 AM","FP","2",""
"192","192","1/30/2017 8:06 AM","FP","2",""
"142","142","1/30/2017 8:07 AM","FP","2",""
"193","193","1/30/2017 8:07 AM","FP","2",""
"92","92","1/30/2017 8:08 AM","FP","2",""
"8","8","1/30/2017 8:10 AM","FP","2",""
"24","24","1/30/2017 8:14 AM","FP","2",""
"178","178","1/30/2017 8:15 AM","FP","2",""
"229","229","1/30/2017 8:18 AM","FP","2",""
"158","158","1/30/2017 8:18 AM","FP","2",""
"253","253","1/30/2017 8:21 AM","FP","2",""
"48","48","1/30/2017 8:25 AM","FP","2",""
"48","48","1/30/2017 8:25 AM","FP","2",""
"48","48","1/30/2017 8:25 AM","FP","2",""
"213","213","1/30/2017 8:25 AM","FP","2",""
"176","176","1/30/2017 8:30 AM","FP","2",""
"43","43","1/30/2017 8:35 AM","FP","2",""
"13","13","1/30/2017 9:08 AM","FP","2",""
"129","129","1/30/2017 9:23 AM","FP","2",""
"191","191","1/30/2017 9:25 AM","FP","2",""
"268","268","1/30/2017 9:32 AM","FP","2",""
"89","89","1/30/2017 9:36 AM","FP","2",""
"31","31","1/30/2017 9:40 AM","FP","2",""
"169","169","1/30/2017 11:50 AM","FP","2",""
"232","232","1/30/2017 12:00 PM","FP","2",""
"255","255","1/30/2017 12:00 PM","FP","2",""
"142","142","1/30/2017 12:00 PM","FP","2",""
"7","7","1/30/2017 12:01 PM","FP","2",""
"232","232","1/30/2017 12:01 PM","FP","2",""
"255","255","1/30/2017 12:01 PM","FP","2",""
"44","44","1/30/2017 12:01 PM","FP","2",""
"44","44","1/30/2017 12:01 PM","FP","2",""
"120","120","1/30/2017 12:01 PM","FP","2",""
"222","222","1/30/2017 12:02 PM","FP","2",""
"187","187","1/30/2017 12:02 PM","FP","2",""
"222","222","1/30/2017 12:02 PM","FP","2",""
"120","120","1/30/2017 12:02 PM","FP","2",""
"187","187","1/30/2017 12:02 PM","FP","2",""
"7","7","1/30/2017 12:02 PM","FP","2",""
"240","240","1/30/2017 12:03 PM","FP","2",""
"240","240","1/30/2017 12:04 PM","FP","2",""
"64","64","1/30/2017 12:04 PM","FP","2",""
"64","64","1/30/2017 12:04 PM","FP","2",""
"177","177","1/30/2017 12:04 PM","FP","2",""
"252","252","1/30/2017 12:04 PM","FP","2",""
"177","177","1/30/2017 12:04 PM","FP","2",""
"252","252","1/30/2017 12:04 PM","FP","2",""
"176","176","1/30/2017 12:05 PM","FP","2",""
"251","251","1/30/2017 12:06 PM","FP","2",""
"242","242","1/30/2017 12:06 PM","FP","2",""
"213","213","1/30/2017 12:06 PM","FP","2",""
"213","213","1/30/2017 12:06 PM","FP","2",""
"251","251","1/30/2017 12:06 PM","FP","2",""
"242","242","1/30/2017 12:06 PM","FP","2",""
"276","276","1/30/2017 12:06 PM","FP","2",""
"276","276","1/30/2017 12:06 PM","FP","2",""
"176","176","1/30/2017 12:06 PM","FP","2",""
"152","152","1/30/2017 12:07 PM","FP","2",""
"152","152","1/30/2017 12:07 PM","FP","2",""
"259","259","1/30/2017 12:07 PM","FP","2",""
"259","259","1/30/2017 12:07 PM","FP","2",""
"49","49","1/30/2017 12:08 PM","FP","2",""
"49","49","1/30/2017 12:08 PM","FP","2",""
"178","178","1/30/2017 12:08 PM","FP","2",""
"75","75","1/30/2017 12:08 PM","FP","2",""
"178","178","1/30/2017 12:09 PM","FP","2",""
"75","75","1/30/2017 12:09 PM","FP","2",""
"59","59","1/30/2017 12:09 PM","FP","2",""
"59","59","1/30/2017 12:09 PM","FP","2",""
"38","38","1/30/2017 12:10 PM","FP","2",""
"38","38","1/30/2017 12:10 PM","FP","2",""
"193","193","1/30/2017 12:10 PM","FP","2",""
"193","193","1/30/2017 12:10 PM","FP","2",""
"192","192","1/30/2017 12:11 PM","FP","2",""
"192","192","1/30/2017 12:12 PM","FP","2",""
"87","87","1/30/2017 12:12 PM","FP","2",""
"87","87","1/30/2017 12:12 PM","FP","2",""
"248","248","1/30/2017 12:13 PM","FP","2",""
"221","221","1/30/2017 12:13 PM","FP","2",""
"248","248","1/30/2017 12:13 PM","FP","2",""
"221","221","1/30/2017 12:13 PM","FP","2",""
"268","268","1/30/2017 12:16 PM","FP","2",""
"92","92","1/30/2017 12:16 PM","FP","2",""
"92","92","1/30/2017 12:16 PM","FP","2",""
"268","268","1/30/2017 12:16 PM","FP","2",""
"94","94","1/30/2017 12:16 PM","FP","2",""
"94","94","1/30/2017 12:17 PM","FP","2",""
"169","169","1/30/2017 12:18 PM","FP","2",""
"186","186","1/30/2017 12:18 PM","FP","2",""
"186","186","1/30/2017 12:18 PM","FP","2",""
"169","169","1/30/2017 12:18 PM","FP","2",""
"83","83","1/30/2017 12:18 PM","FP","2",""
"83","83","1/30/2017 12:18 PM","FP","2",""
"135","135","1/30/2017 12:20 PM","FP","2",""
"135","135","1/30/2017 12:20 PM","FP","2",""
"40","40","1/30/2017 12:20 PM","FP","2",""
"40","40","1/30/2017 12:21 PM","FP","2",""
"28","28","1/30/2017 12:21 PM","FP","2",""
"23","23","1/30/2017 12:21 PM","FP","2",""
"253","253","1/30/2017 12:21 PM","FP","2",""
"28","28","1/30/2017 12:21 PM","FP","2",""
"23","23","1/30/2017 12:21 PM","FP","2",""
"228","228","1/30/2017 12:22 PM","FP","2",""
"228","228","1/30/2017 12:22 PM","FP","2",""
"27","27","1/30/2017 12:23 PM","FP","2",""
"27","27","1/30/2017 12:23 PM","FP","2",""
"31","31","1/30/2017 12:24 PM","FP","2",""
"31","31","1/30/2017 12:24 PM","FP","2",""
"224","224","1/30/2017 12:24 PM","FP","2",""
"179","179","1/30/2017 12:24 PM","FP","2",""
"13","13","1/30/2017 12:25 PM","FP","2",""
"13","13","1/30/2017 12:25 PM","FP","2",""
"8","8","1/30/2017 12:26 PM","FP","2",""
"175","175","1/30/2017 12:26 PM","FP","2",""
"175","175","1/30/2017 12:26 PM","FP","2",""
"8","8","1/30/2017 12:26 PM","FP","2",""
"126","126","1/30/2017 12:27 PM","FP","2",""
"126","126","1/30/2017 12:27 PM","FP","2",""
"190","190","1/30/2017 12:28 PM","FP","2",""
"190","190","1/30/2017 12:28 PM","FP","2",""
"229","229","1/30/2017 12:28 PM","FP","2",""
"229","229","1/30/2017 12:28 PM","FP","2",""
"89","89","1/30/2017 12:30 PM","FP","2",""
"89","89","1/30/2017 12:30 PM","FP","2",""
"89","89","1/30/2017 12:30 PM","FP","2",""
"24","24","1/30/2017 12:31 PM","FP","2",""
"24","24","1/30/2017 12:31 PM","FP","2",""
"194","194","1/30/2017 12:31 PM","FP","2",""
"194","194","1/30/2017 12:31 PM","FP","2",""
"271","271","1/30/2017 12:35 PM","FP","2",""
"258","258","1/30/2017 12:35 PM","FP","2",""
"277","277","1/30/2017 12:35 PM","FP","2",""
"270","270","1/30/2017 12:35 PM","FP","2",""
"258","258","1/30/2017 12:36 PM","FP","2",""
"271","271","1/30/2017 12:36 PM","FP","2",""
"277","277","1/30/2017 12:36 PM","FP","2",""
"270","270","1/30/2017 12:36 PM","FP","2",""
"270","270","1/30/2017 12:36 PM","FP","2",""
"188","188","1/30/2017 12:36 PM","FP","2",""
"188","188","1/30/2017 12:36 PM","FP","2",""
"56","56","1/30/2017 12:40 PM","FP","2",""
"264","264","1/30/2017 12:44 PM","FP","2",""
"158","158","1/30/2017 12:45 PM","FP","2",""
"158","158","1/30/2017 12:45 PM","FP","2",""
"253","253","1/30/2017 12:45 PM","FP","2",""
"15","15","1/30/2017 12:48 PM","FP","2",""
"163","163","1/30/2017 12:50 PM","FP","2",""
"163","163","1/30/2017 12:51 PM","FP","2",""
"191","191","1/30/2017 12:52 PM","FP","2",""
"191","191","1/30/2017 12:52 PM","FP","2",""
"171","171","1/30/2017 12:53 PM","FP","2",""
"139","139","1/30/2017 12:53 PM","FP","2",""
"171","171","1/30/2017 12:53 PM","FP","2",""
"139","139","1/30/2017 12:53 PM","FP","2",""
"19","19","1/30/2017 12:57 PM","FP","2",""
"19","19","1/30/2017 12:57 PM","FP","2",""
"184","184","1/30/2017 12:59 PM","FP","2",""
"30","30","1/30/2017 3:01 PM","FP","2",""
"30","30","1/30/2017 3:01 PM","FP","2",""
"260","260","1/30/2017 4:06 PM","FP","2",""
"262","262","1/30/2017 4:07 PM","FP","2",""
"163","163","1/30/2017 4:07 PM","FP","2",""
"232","232","1/30/2017 4:22 PM","FP","2",""
"171","171","1/30/2017 5:00 PM","FP","2",""
"276","276","1/30/2017 5:02 PM","FP","2",""
"193","193","1/30/2017 5:02 PM","FP","2",""
"56","56","1/30/2017 5:04 PM","FP","2",""
"38","38","1/30/2017 5:05 PM","FP","2",""
"240","240","1/30/2017 5:07 PM","FP","2",""
"187","187","1/30/2017 5:07 PM","FP","2",""
"120","120","1/30/2017 5:12 PM","FP","2",""
"49","49","1/30/2017 5:15 PM","FP","2",""
"228","228","1/30/2017 5:15 PM","FP","2",""
"139","139","1/30/2017 5:25 PM","FP","2",""
"176","176","1/30/2017 5:25 PM","FP","2",""
"221","221","1/30/2017 5:26 PM","FP","2",""
"252","252","1/30/2017 5:28 PM","FP","2",""
"31","31","1/30/2017 5:30 PM","FP","2",""
"75","75","1/30/2017 5:34 PM","FP","2",""
"142","142","1/30/2017 5:38 PM","FP","2",""
"178","178","1/30/2017 5:38 PM","FP","2",""
"192","192","1/30/2017 5:40 PM","FP","2",""
"177","177","1/30/2017 5:42 PM","FP","2",""
"87","87","1/30/2017 5:45 PM","FP","2",""
"158","158","1/30/2017 5:46 PM","FP","2",""
"83","83","1/30/2017 5:46 PM","FP","2",""
"28","28","1/30/2017 5:47 PM","FP","2",""
"248","248","1/30/2017 5:51 PM","FP","2",""
"222","222","1/30/2017 5:54 PM","FP","2",""
"243","243","1/30/2017 5:59 PM","FP","2",""
"126","126","1/30/2017 5:59 PM","FP","2",""
"15","15","1/30/2017 6:01 PM","FP","2",""
"94","94","1/30/2017 6:03 PM","FP","2",""
"259","259","1/30/2017 6:07 PM","FP","2",""
"169","169","1/30/2017 6:13 PM","FP","2",""
"242","242","1/30/2017 6:15 PM","FP","2",""
"251","251","1/30/2017 6:15 PM","FP","2",""
"213","213","1/30/2017 6:16 PM","FP","2",""
"24","24","1/30/2017 6:16 PM","FP","2",""
"64","64","1/30/2017 6:17 PM","FP","2",""
"44","44","1/30/2017 6:18 PM","FP","2",""
"152","152","1/30/2017 6:20 PM","FP","2",""
"186","186","1/30/2017 6:20 PM","FP","2",""
"268","268","1/30/2017 6:26 PM","FP","2",""
"10","10","1/30/2017 6:26 PM","FP","2",""
"89","89","1/30/2017 6:31 PM","FP","2",""
"179","179","1/30/2017 6:31 PM","FP","2",""
"48","48","1/30/2017 6:32 PM","FP","2",""
"59","59","1/30/2017 6:40 PM","FP","2",""
"229","229","1/30/2017 6:40 PM","FP","2",""
"92","92","1/30/2017 6:42 PM","FP","2",""
"194","194","1/30/2017 6:43 PM","FP","2",""
"19","19","1/30/2017 6:52 PM","FP","2",""
"8","8","1/30/2017 6:53 PM","FP","2",""
"43","43","1/30/2017 6:53 PM","FP","2",""
"258","258","1/30/2017 6:53 PM","FP","2",""
"277","277","1/30/2017 6:53 PM","FP","2",""
"271","271","1/30/2017 6:53 PM","FP","2",""
"270","270","1/30/2017 6:53 PM","FP","2",""
"40","40","1/30/2017 6:57 PM","FP","2",""
"224","224","1/30/2017 7:01 PM","FP","2",""
"30","30","1/30/2017 7:07 PM","FP","2",""
"13","13","1/30/2017 7:10 PM","FP","2",""
"7","7","1/30/2017 7:13 PM","FP","2",""
"144","144","1/30/2017 7:23 PM","FP","2",""
"23","23","1/30/2017 7:23 PM","FP","2",""
"27","27","1/30/2017 7:23 PM","FP","2",""
"135","135","1/30/2017 7:26 PM","FP","2",""
"191","191","1/30/2017 7:30 PM","FP","2",""
"33","33","1/30/2017 7:46 PM","FP","2",""
"264","264","1/30/2017 9:25 PM","FP","2",""
"184","184","1/30/2017 9:25 PM","FP","2",""
"45","45","1/30/2017 9:32 PM","FP","2",""
"266","266","1/30/2017 10:31 PM","FP","2",""
"266","266","1/30/2017 10:31 PM","FP","2",""
"266","266","1/30/2017 10:31 PM","FP","2",""
"266","266","1/30/2017 10:31 PM","FP","2",""
"266","266","1/30/2017 10:31 PM","FP","2",""
"266","266","1/30/2017 10:32 PM","FP","2",""
"260","260","1/31/2017 6:37 AM","FP","2",""
"262","262","1/31/2017 6:46 AM","FP","2",""
"45","45","1/31/2017 7:00 AM","FP","2",""
"188","188","1/31/2017 7:00 AM","FP","2",""
"75","75","1/31/2017 7:06 AM","FP","2",""
"163","163","1/31/2017 7:07 AM","FP","2",""
"249","249","1/31/2017 7:26 AM","FP","2",""
"79","79","1/31/2017 7:28 AM","FP","2",""
"256","256","1/31/2017 7:31 AM","FP","2",""
"7","7","1/31/2017 7:32 AM","FP","2",""
"33","33","1/31/2017 7:32 AM","FP","2",""
"252","252","1/31/2017 7:32 AM","FP","2",""
"258","258","1/31/2017 7:34 AM","FP","2",""
"277","277","1/31/2017 7:34 AM","FP","2",""
"251","251","1/31/2017 7:35 AM","FP","2",""
"240","240","1/31/2017 7:38 AM","FP","2",""
"237","237","1/31/2017 7:39 AM","FP","2",""
"187","187","1/31/2017 7:45 AM","FP","2",""
"94","94","1/31/2017 7:46 AM","FP","2",""
"87","87","1/31/2017 7:47 AM","FP","2",""
"120","120","1/31/2017 7:48 AM","FP","2",""
"49","49","1/31/2017 7:48 AM","FP","2",""
"59","59","1/31/2017 7:49 AM","FP","2",""
"271","271","1/31/2017 7:51 AM","FP","2",""
"38","38","1/31/2017 7:51 AM","FP","2",""
"83","83","1/31/2017 7:53 AM","FP","2",""
"276","276","1/31/2017 7:53 AM","FP","2",""
"121","121","1/31/2017 7:54 AM","FP","2",""
"194","194","1/31/2017 7:56 AM","FP","2",""
"171","171","1/31/2017 7:57 AM","FP","2",""
"243","243","1/31/2017 7:58 AM","FP","2",""
"229","229","1/31/2017 7:58 AM","FP","2",""
"242","242","1/31/2017 8:00 AM","FP","2",""
"222","222","1/31/2017 8:00 AM","FP","2",""
"152","152","1/31/2017 8:00 AM","FP","2",""
"270","270","1/31/2017 8:01 AM","FP","2",""
"135","135","1/31/2017 8:02 AM","FP","2",""
"228","228","1/31/2017 8:03 AM","FP","2",""
"248","248","1/31/2017 8:04 AM","FP","2",""
"221","221","1/31/2017 8:04 AM","FP","2",""
"232","232","1/31/2017 8:07 AM","FP","2",""
"255","255","1/31/2017 8:09 AM","FP","2",""
"192","192","1/31/2017 8:09 AM","FP","2",""
"64","64","1/31/2017 8:10 AM","FP","2",""
"142","142","1/31/2017 8:11 AM","FP","2",""
"253","253","1/31/2017 8:12 AM","FP","2",""
"193","193","1/31/2017 8:13 AM","FP","2",""
"99","99","1/31/2017 8:13 AM","FP","2",""
"44","44","1/31/2017 8:17 AM","FP","2",""
"27","27","1/31/2017 8:19 AM","FP","2",""
"19","19","1/31/2017 8:20 AM","FP","2",""
"10","10","1/31/2017 8:21 AM","FP","2",""
"48","48","1/31/2017 8:26 AM","FP","2",""
"15","15","1/31/2017 8:28 AM","FP","2",""
"158","158","1/31/2017 8:30 AM","FP","2",""
"28","28","1/31/2017 8:33 AM","FP","2",""
"40","40","1/31/2017 8:34 AM","FP","2",""
"186","186","1/31/2017 8:39 AM","FP","2",""
"92","92","1/31/2017 8:41 AM","FP","2",""
"34","34","1/31/2017 8:49 AM","FP","2",""
"169","169","1/31/2017 8:50 AM","FP","2",""
"8","8","1/31/2017 8:53 AM","FP","2",""
"13","13","1/31/2017 8:57 AM","FP","2",""
"24","24","1/31/2017 9:06 AM","FP","2",""
"57","57","1/31/2017 9:08 AM","FP","2",""
"31","31","1/31/2017 9:13 AM","FP","2",""
"144","144","1/31/2017 9:44 AM","FP","2",""
"126","126","1/31/2017 9:48 AM","FP","2",""
"191","191","1/31/2017 9:54 AM","FP","2",""
"16","16","1/31/2017 10:12 AM","FP","2",""
"213","213","1/31/2017 10:49 AM","FP","2",""
"248","248","1/31/2017 12:00 PM","FP","2",""
"221","221","1/31/2017 12:00 PM","FP","2",""
"276","276","1/31/2017 12:00 PM","FP","2",""
"276","276","1/31/2017 12:00 PM","FP","2",""
"248","248","1/31/2017 12:00 PM","FP","2",""
"221","221","1/31/2017 12:00 PM","FP","2",""
"240","240","1/31/2017 12:00 PM","FP","2",""
"240","240","1/31/2017 12:02 PM","FP","2",""
"252","252","1/31/2017 12:02 PM","FP","2",""
"252","252","1/31/2017 12:02 PM","FP","2",""
"256","256","1/31/2017 12:02 PM","FP","2",""
"256","256","1/31/2017 12:02 PM","FP","2",""
"193","193","1/31/2017 12:03 PM","FP","2",""
"193","193","1/31/2017 12:03 PM","FP","2",""
"31","31","1/31/2017 12:03 PM","FP","2",""
"31","31","1/31/2017 12:03 PM","FP","2",""
"19","19","1/31/2017 12:03 PM","FP","2",""
"19","19","1/31/2017 12:04 PM","FP","2",""
"146","146","1/31/2017 12:04 PM","FP","2",""
"99","99","1/31/2017 12:04 PM","FP","2",""
"57","57","1/31/2017 12:04 PM","FP","2",""
"57","57","1/31/2017 12:05 PM","FP","2",""
"59","59","1/31/2017 12:05 PM","FP","2",""
"187","187","1/31/2017 12:05 PM","FP","2",""
"59","59","1/31/2017 12:05 PM","FP","2",""
"187","187","1/31/2017 12:05 PM","FP","2",""
"158","158","1/31/2017 12:06 PM","FP","2",""
"158","158","1/31/2017 12:06 PM","FP","2",""
"75","75","1/31/2017 12:07 PM","FP","2",""
"75","75","1/31/2017 12:07 PM","FP","2",""
"243","243","1/31/2017 12:07 PM","FP","2",""
"40","40","1/31/2017 12:08 PM","FP","2",""
"243","243","1/31/2017 12:08 PM","FP","2",""
"40","40","1/31/2017 12:08 PM","FP","2",""
"191","191","1/31/2017 12:09 PM","FP","2",""
"191","191","1/31/2017 12:09 PM","FP","2",""
"192","192","1/31/2017 12:09 PM","FP","2",""
"192","192","1/31/2017 12:10 PM","FP","2",""
"92","92","1/31/2017 12:10 PM","FP","2",""
"121","121","1/31/2017 12:10 PM","FP","2",""
"237","237","1/31/2017 12:10 PM","FP","2",""
"237","237","1/31/2017 12:10 PM","FP","2",""
"121","121","1/31/2017 12:10 PM","FP","2",""
"188","188","1/31/2017 12:10 PM","FP","2",""
"188","188","1/31/2017 12:10 PM","FP","2",""
"213","213","1/31/2017 12:11 PM","FP","2",""
"213","213","1/31/2017 12:11 PM","FP","2",""
"242","242","1/31/2017 12:11 PM","FP","2",""
"94","94","1/31/2017 12:12 PM","FP","2",""
"228","228","1/31/2017 12:12 PM","FP","2",""
"94","94","1/31/2017 12:12 PM","FP","2",""
"228","228","1/31/2017 12:12 PM","FP","2",""
"251","251","1/31/2017 12:12 PM","FP","2",""
"251","251","1/31/2017 12:12 PM","FP","2",""
"28","28","1/31/2017 12:14 PM","FP","2",""
"83","83","1/31/2017 12:14 PM","FP","2",""
"253","253","1/31/2017 12:14 PM","FP","2",""
"28","28","1/31/2017 12:14 PM","FP","2",""
"83","83","1/31/2017 12:14 PM","FP","2",""
"253","253","1/31/2017 12:14 PM","FP","2",""
"10","10","1/31/2017 12:15 PM","FP","2",""
"15","15","1/31/2017 12:15 PM","FP","2",""
"10","10","1/31/2017 12:15 PM","FP","2",""
"15","15","1/31/2017 12:15 PM","FP","2",""
"126","126","1/31/2017 12:15 PM","FP","2",""
"126","126","1/31/2017 12:15 PM","FP","2",""
"87","87","1/31/2017 12:16 PM","FP","2",""
"87","87","1/31/2017 12:16 PM","FP","2",""
"64","64","1/31/2017 12:16 PM","FP","2",""
"64","64","1/31/2017 12:16 PM","FP","2",""
"171","171","1/31/2017 12:17 PM","FP","2",""
"171","171","1/31/2017 12:17 PM","FP","2",""
"152","152","1/31/2017 12:18 PM","FP","2",""
"152","152","1/31/2017 12:18 PM","FP","2",""
"249","249","1/31/2017 12:18 PM","FP","2",""
"249","249","1/31/2017 12:18 PM","FP","2",""
"79","79","1/31/2017 12:21 PM","FP","2",""
"79","79","1/31/2017 12:21 PM","FP","2",""
"79","79","1/31/2017 12:21 PM","FP","2",""
"79","79","1/31/2017 12:21 PM","FP","2",""
"44","44","1/31/2017 12:22 PM","FP","2",""
"44","44","1/31/2017 12:22 PM","FP","2",""
"38","38","1/31/2017 12:24 PM","FP","2",""
"38","38","1/31/2017 12:24 PM","FP","2",""
"120","120","1/31/2017 12:25 PM","FP","2",""
"92","92","1/31/2017 12:25 PM","FP","2",""
"120","120","1/31/2017 12:26 PM","FP","2",""
"259","259","1/31/2017 12:27 PM","FP","2",""
"49","49","1/31/2017 12:29 PM","FP","2",""
"49","49","1/31/2017 12:29 PM","FP","2",""
"8","8","1/31/2017 12:29 PM","FP","2",""
"8","8","1/31/2017 12:30 PM","FP","2",""
"194","194","1/31/2017 12:30 PM","FP","2",""
"194","194","1/31/2017 12:30 PM","FP","2",""
"27","27","1/31/2017 12:30 PM","FP","2",""
"27","27","1/31/2017 12:30 PM","FP","2",""
"7","7","1/31/2017 12:31 PM","FP","2",""
"7","7","1/31/2017 12:31 PM","FP","2",""
"93","93","1/31/2017 12:32 PM","FP","2",""
"93","93","1/31/2017 12:32 PM","FP","2",""
"89","89","1/31/2017 12:33 PM","FP","2",""
"89","89","1/31/2017 12:33 PM","FP","2",""
"13","13","1/31/2017 12:35 PM","FP","2",""
"13","13","1/31/2017 12:35 PM","FP","2",""
"135","135","1/31/2017 12:36 PM","FP","2",""
"135","135","1/31/2017 12:36 PM","FP","2",""
"16","16","1/31/2017 12:36 PM","FP","2",""
"255","255","1/31/2017 12:36 PM","FP","2",""
"16","16","1/31/2017 12:37 PM","FP","2",""
"255","255","1/31/2017 12:37 PM","FP","2",""
"179","179","1/31/2017 12:39 PM","FP","2",""
"179","179","1/31/2017 12:39 PM","FP","2",""
"242","242","1/31/2017 12:40 PM","FP","2",""
"264","264","1/31/2017 12:42 PM","FP","2",""
"163","163","1/31/2017 12:44 PM","FP","2",""
"163","163","1/31/2017 12:44 PM","FP","2",""
"222","222","1/31/2017 12:48 PM","FP","2",""
"222","222","1/31/2017 12:48 PM","FP","2",""
"229","229","1/31/2017 12:50 PM","FP","2",""
"229","229","1/31/2017 12:50 PM","FP","2",""
"270","270","1/31/2017 12:57 PM","FP","2",""
"277","277","1/31/2017 12:57 PM","FP","2",""
"271","271","1/31/2017 12:57 PM","FP","2",""
"271","271","1/31/2017 12:57 PM","FP","2",""
"270","270","1/31/2017 12:57 PM","FP","2",""
"277","277","1/31/2017 12:57 PM","FP","2",""
"176","176","1/31/2017 12:58 PM","FP","2",""
"176","176","1/31/2017 12:58 PM","FP","2",""
"34","34","1/31/2017 1:00 PM","FP","2",""
"34","34","1/31/2017 1:00 PM","FP","2",""
"184","184","1/31/2017 1:11 PM","FP","2",""
"260","260","1/31/2017 4:03 PM","FP","2",""
"262","262","1/31/2017 4:10 PM","FP","2",""
"163","163","1/31/2017 4:11 PM","FP","2",""
"171","171","1/31/2017 5:00 PM","FP","2",""
"240","240","1/31/2017 5:05 PM","FP","2",""
"237","237","1/31/2017 5:05 PM","FP","2",""
"121","121","1/31/2017 5:06 PM","FP","2",""
"187","187","1/31/2017 5:07 PM","FP","2",""
"7","7","1/31/2017 5:07 PM","FP","2",""
"49","49","1/31/2017 5:13 PM","FP","2",""
"222","222","1/31/2017 5:13 PM","FP","2",""
"243","243","1/31/2017 5:14 PM","FP","2",""
"75","75","1/31/2017 5:16 PM","FP","2",""
"64","64","1/31/2017 5:16 PM","FP","2",""
"193","193","1/31/2017 5:19 PM","FP","2",""
"59","59","1/31/2017 5:19 PM","FP","2",""
"249","249","1/31/2017 5:22 PM","FP","2",""
"87","87","1/31/2017 5:32 PM","FP","2",""
"276","276","1/31/2017 5:32 PM","FP","2",""
"228","228","1/31/2017 5:33 PM","FP","2",""
"221","221","1/31/2017 5:34 PM","FP","2",""
"28","28","1/31/2017 5:36 PM","FP","2",""
"158","158","1/31/2017 5:36 PM","FP","2",""
"120","120","1/31/2017 5:37 PM","FP","2",""
"142","142","1/31/2017 5:39 PM","FP","2",""
"251","251","1/31/2017 5:40 PM","FP","2",""
"242","242","1/31/2017 5:40 PM","FP","2",""
"213","213","1/31/2017 5:40 PM","FP","2",""
"252","252","1/31/2017 5:40 PM","FP","2",""
"146","146","1/31/2017 5:41 PM","FP","2",""
"271","271","1/31/2017 5:43 PM","FP","2",""
"255","255","1/31/2017 5:44 PM","FP","2",""
"248","248","1/31/2017 5:44 PM","FP","2",""
"179","179","1/31/2017 5:45 PM","FP","2",""
"253","253","1/31/2017 5:46 PM","FP","2",""
"126","126","1/31/2017 5:48 PM","FP","2",""
"194","194","1/31/2017 5:50 PM","FP","2",""
"176","176","1/31/2017 5:52 PM","FP","2",""
"89","89","1/31/2017 5:58 PM","FP","2",""
"44","44","1/31/2017 5:58 PM","FP","2",""
"16","16","1/31/2017 6:00 PM","FP","2",""
"19","19","1/31/2017 6:03 PM","FP","2",""
"31","31","1/31/2017 6:06 PM","FP","2",""
"169","169","1/31/2017 6:12 PM","FP","2",""
"15","15","1/31/2017 6:17 PM","FP","2",""
"83","83","1/31/2017 6:26 PM","FP","2",""
"40","40","1/31/2017 6:28 PM","FP","2",""
"256","256","1/31/2017 6:34 PM","FP","2",""
"186","186","1/31/2017 6:35 PM","FP","2",""
"229","229","1/31/2017 6:36 PM","FP","2",""
"259","259","1/31/2017 6:38 PM","FP","2",""
"129","129","1/31/2017 6:39 PM","FP","2",""
"191","191","1/31/2017 6:40 PM","FP","2",""
"48","48","1/31/2017 6:43 PM","FP","2",""
"30","30","1/31/2017 7:05 PM","FP","2",""
"92","92","1/31/2017 7:11 PM","FP","2",""
"135","135","1/31/2017 7:12 PM","FP","2",""
"79","79","1/31/2017 7:13 PM","FP","2",""
"27","27","1/31/2017 7:16 PM","FP","2",""
"152","152","1/31/2017 7:16 PM","FP","2",""
"277","277","1/31/2017 7:19 PM","FP","2",""
"258","258","1/31/2017 7:19 PM","FP","2",""
"270","270","1/31/2017 7:19 PM","FP","2",""
"57","57","1/31/2017 7:27 PM","FP","2",""
"24","24","1/31/2017 7:29 PM","FP","2",""
"192","192","1/31/2017 7:38 PM","FP","2",""
"94","94","1/31/2017 7:39 PM","FP","2",""
"13","13","1/31/2017 7:57 PM","FP","2",""
"144","144","1/31/2017 8:12 PM","FP","2",""
"10","10","1/31/2017 8:17 PM","FP","2",""
"93","93","1/31/2017 8:21 PM","FP","2",""
"8","8","1/31/2017 8:22 PM","FP","2",""
"266","266","1/31/2017 9:00 PM","FP","2",""
"264","264","1/31/2017 9:01 PM","FP","2",""
"266","266","1/31/2017 9:01 PM","FP","2",""
"266","266","1/31/2017 9:01 PM","FP","2",""
"266","266","1/31/2017 9:07 PM","FP","2",""
"266","266","1/31/2017 9:07 PM","FP","2",""
"266","266","1/31/2017 9:07 PM","FP","2",""
"266","266","1/31/2017 9:08 PM","FP","2",""
"34","34","1/31/2017 9:08 PM","FP","2",""
"45","45","1/31/2017 9:39 PM","FP","2",""
"184","184","1/31/2017 9:56 PM","FP","2",""
"269","269","1/31/2017 10:43 PM","FP","2",""
"266","266","1/31/2017 10:43 PM","FP","2",""
"33","33","1/31/2017 10:56 PM","FP","2",""
"269","269","2/1/2017 6:25 AM","FP","2",""
"260","260","2/1/2017 6:38 AM","FP","2",""
"45","45","2/1/2017 6:46 AM","FP","2",""
"262","262","2/1/2017 6:48 AM","FP","2",""
"188","188","2/1/2017 6:55 AM","FP","2",""
"75","75","2/1/2017 7:04 AM","FP","2",""
"33","33","2/1/2017 7:15 AM","FP","2",""
"57","57","2/1/2017 7:16 AM","FP","2",""
"252","252","2/1/2017 7:18 AM","FP","2",""
"163","163","2/1/2017 7:20 AM","FP","2",""
"7","7","2/1/2017 7:27 AM","FP","2",""
"187","187","2/1/2017 7:29 AM","FP","2",""
"258","258","2/1/2017 7:31 AM","FP","2",""
"277","277","2/1/2017 7:32 AM","FP","2",""
"249","249","2/1/2017 7:34 AM","FP","2",""
"256","256","2/1/2017 7:34 AM","FP","2",""
"251","251","2/1/2017 7:37 AM","FP","2",""
"38","38","2/1/2017 7:41 AM","FP","2",""
"229","229","2/1/2017 7:42 AM","FP","2",""
"271","271","2/1/2017 7:44 AM","FP","2",""
"177","177","2/1/2017 7:45 AM","FP","2",""
"276","276","2/1/2017 7:45 AM","FP","2",""
"59","59","2/1/2017 7:46 AM","FP","2",""
"168","168","2/1/2017 7:46 AM","FP","2",""
"228","228","2/1/2017 7:48 AM","FP","2",""
"49","49","2/1/2017 7:50 AM","FP","2",""
"120","120","2/1/2017 7:51 AM","FP","2",""
"243","243","2/1/2017 7:51 AM","FP","2",""
"255","255","2/1/2017 7:52 AM","FP","2",""
"121","121","2/1/2017 7:52 AM","FP","2",""
"171","171","2/1/2017 7:57 AM","FP","2",""
"270","270","2/1/2017 7:58 AM","FP","2",""
"94","94","2/1/2017 7:58 AM","FP","2",""
"178","178","2/1/2017 7:58 AM","FP","2",""
"259","259","2/1/2017 7:59 AM","FP","2",""
"87","87","2/1/2017 8:00 AM","FP","2",""
"253","253","2/1/2017 8:02 AM","FP","2",""
"19","19","2/1/2017 8:07 AM","FP","2",""
"221","221","2/1/2017 8:07 AM","FP","2",""
"192","192","2/1/2017 8:07 AM","FP","2",""
"242","242","2/1/2017 8:07 AM","FP","2",""
"44","44","2/1/2017 8:08 AM","FP","2",""
"64","64","2/1/2017 8:08 AM","FP","2",""
"83","83","2/1/2017 8:10 AM","FP","2",""
"15","15","2/1/2017 8:11 AM","FP","2",""
"193","193","2/1/2017 8:12 AM","FP","2",""
"232","232","2/1/2017 8:14 AM","FP","2",""
"176","176","2/1/2017 8:17 AM","FP","2",""
"28","28","2/1/2017 8:19 AM","FP","2",""
"79","79","2/1/2017 8:19 AM","FP","2",""
"135","135","2/1/2017 8:23 AM","FP","2",""
"248","248","2/1/2017 8:27 AM","FP","2",""
"186","186","2/1/2017 8:31 AM","FP","2",""
"92","92","2/1/2017 8:32 AM","FP","2",""
"152","152","2/1/2017 8:34 AM","FP","2",""
"139","139","2/1/2017 8:36 AM","FP","2",""
"10","10","2/1/2017 8:37 AM","FP","2",""
"158","158","2/1/2017 8:37 AM","FP","2",""
"27","27","2/1/2017 8:37 AM","FP","2",""
"126","126","2/1/2017 8:40 AM","FP","2",""
"142","142","2/1/2017 8:43 AM","FP","2",""
"56","56","2/1/2017 8:47 AM","FP","2",""
"34","34","2/1/2017 8:50 AM","FP","2",""
"30","30","2/1/2017 8:53 AM","FP","2",""
"40","40","2/1/2017 8:54 AM","FP","2",""
"8","8","2/1/2017 8:55 AM","FP","2",""
"16","16","2/1/2017 9:15 AM","FP","2",""
"191","191","2/1/2017 9:33 AM","FP","2",""
"237","237","2/1/2017 9:36 AM","FP","2",""
"31","31","2/1/2017 9:43 AM","FP","2",""
"43","43","2/1/2017 9:59 AM","FP","2",""
"24","24","2/1/2017 10:08 AM","FP","2",""
