"department","VerifyCode","CardNo","checktime","id_no","name","status"
"MinDA","Fingerpint","","9/22/2017 7:15 AM","79","REYNALDO, GERARDO B","C/In"
"MinDA","Fingerpint","","9/25/2017 7:09 AM","79","REYNALDO, GERARDO B","C/In"
"MinDA","Fingerpint","","9/8/2017 8:15 AM","174","BUHAT, RENATO JR. A","C/In"
"MinDA","Fingerpint","","9/8/2017 12:03 PM","174","BUHAT, RENATO JR. A","C/Out"
"MinDA","Fingerpint","","9/8/2017 12:03 PM","174","BUHAT, RENATO JR. A","C/In"
"MinDA","Fingerpint","","9/25/2017 9:08 AM","174","BUHAT, RENATO JR. A","C/In"
"MinDA","Fingerpint","","9/8/2017 7:22 AM","291","291","C/In"
"MinDA","Fingerpint","","9/8/2017 12:01 PM","291","291","C/Out"
"MinDA","Fingerpint","","9/8/2017 12:16 PM","291","291","C/In"
"MinDA","Fingerpint","","9/8/2017 5:01 PM","291","291","C/Out"
"MinDA","Fingerpint","","9/11/2017 7:07 AM","291","291","C/In"
"MinDA","Fingerpint","","9/11/2017 12:06 PM","291","291","C/Out"
"MinDA","Fingerpint","","9/11/2017 12:15 PM","291","291","C/In"
"MinDA","Fingerpint","","9/11/2017 5:05 PM","291","291","C/Out"
"MinDA","Fingerpint","","9/12/2017 7:11 AM","291","291","C/In"
"MinDA","Fingerpint","","9/12/2017 12:07 PM","291","291","C/Out"
"MinDA","Fingerpint","","9/12/2017 12:10 PM","291","291","C/In"
"MinDA","Fingerpint","","9/12/2017 5:12 PM","291","291","C/Out"
"MinDA","Fingerpint","","9/14/2017 12:14 PM","291","291","C/Out"
"MinDA","Fingerpint","","9/14/2017 12:15 PM","291","291","C/In"
"MinDA","Fingerpint","","9/14/2017 5:09 PM","291","291","C/Out"
"MinDA","Fingerpint","","9/15/2017 7:20 AM","291","291","C/In"
"MinDA","Fingerpint","","9/15/2017 12:02 PM","291","291","C/Out"
"MinDA","Fingerpint","","9/15/2017 12:17 PM","291","291","C/In"
"MinDA","Fingerpint","","9/15/2017 5:01 PM","291","291","C/Out"
"MinDA","Fingerpint","","9/18/2017 7:08 AM","291","291","C/In"
"MinDA","Fingerpint","","9/18/2017 12:54 PM","291","291","C/Out"
"MinDA","Fingerpint","","9/18/2017 12:54 PM","291","291","C/In"
"MinDA","Fingerpint","","9/18/2017 5:01 PM","291","291","C/Out"
"MinDA","Fingerpint","","9/19/2017 7:20 AM","291","291","C/In"
"MinDA","Fingerpint","","9/19/2017 12:04 PM","291","291","C/Out"
"MinDA","Fingerpint","","9/19/2017 12:20 PM","291","291","C/In"
"MinDA","Fingerpint","","9/19/2017 5:06 PM","291","291","C/Out"
"MinDA","Fingerpint","","9/20/2017 7:24 AM","291","291","C/In"
"MinDA","Fingerpint","","9/20/2017 12:03 PM","291","291","C/Out"
"MinDA","Fingerpint","","9/20/2017 12:10 PM","291","291","C/In"
"MinDA","Fingerpint","","9/20/2017 5:02 PM","291","291","C/Out"
"MinDA","Fingerpint","","9/22/2017 7:24 AM","291","291","C/In"
"MinDA","Fingerpint","","9/22/2017 12:01 PM","291","291","C/Out"
"MinDA","Fingerpint","","9/22/2017 12:13 PM","291","291","C/In"
"MinDA","Fingerpint","","9/22/2017 5:01 PM","291","291","C/Out"
"MinDA","Fingerpint","","9/25/2017 7:06 AM","291","291","C/In"
"MinDA","Fingerpint","","9/8/2017 8:04 AM","292","292","C/In"
"MinDA","Fingerpint","","9/8/2017 12:13 PM","292","292","C/Out"
"MinDA","Fingerpint","","9/8/2017 12:13 PM","292","292","C/In"
"MinDA","Fingerpint","","9/8/2017 7:19 PM","292","292","C/Out"
"MinDA","Fingerpint","","9/11/2017 7:49 AM","292","292","C/In"
"MinDA","Fingerpint","","9/11/2017 12:11 PM","292","292","C/Out"
"MinDA","Fingerpint","","9/11/2017 12:11 PM","292","292","C/In"
"MinDA","Fingerpint","","9/11/2017 7:56 PM","292","292","C/Out"
"MinDA","Fingerpint","","9/12/2017 7:39 AM","292","292","C/In"
"MinDA","Fingerpint","","9/12/2017 12:23 PM","292","292","C/Out"
"MinDA","Fingerpint","","9/12/2017 12:23 PM","292","292","C/In"
"MinDA","Fingerpint","","9/12/2017 6:34 PM","292","292","C/Out"
"MinDA","Fingerpint","","9/13/2017 7:44 AM","292","292","C/In"
"MinDA","Fingerpint","","9/13/2017 7:00 PM","292","292","C/Out"
"MinDA","Fingerpint","","9/14/2017 7:48 AM","292","292","C/In"
"MinDA","Fingerpint","","9/14/2017 12:39 PM","292","292","C/Out"
"MinDA","Fingerpint","","9/14/2017 12:39 PM","292","292","C/In"
"MinDA","Fingerpint","","9/14/2017 6:21 PM","292","292","C/Out"
"MinDA","Fingerpint","","9/15/2017 7:47 AM","292","292","C/In"
"MinDA","Fingerpint","","9/15/2017 12:03 PM","292","292","C/Out"
"MinDA","Fingerpint","","9/15/2017 12:03 PM","292","292","C/In"
"MinDA","Fingerpint","","9/15/2017 6:34 PM","292","292","C/Out"
"MinDA","Fingerpint","","9/18/2017 7:46 AM","292","292","C/In"
"MinDA","Fingerpint","","9/18/2017 12:54 PM","292","292","C/Out"
"MinDA","Fingerpint","","9/18/2017 12:54 PM","292","292","C/In"
"MinDA","Fingerpint","","9/18/2017 6:01 PM","292","292","C/Out"
"MinDA","Fingerpint","","9/19/2017 7:49 AM","292","292","C/In"
"MinDA","Fingerpint","","9/19/2017 12:31 PM","292","292","C/Out"
"MinDA","Fingerpint","","9/19/2017 12:31 PM","292","292","C/In"
"MinDA","Fingerpint","","9/19/2017 6:11 PM","292","292","C/Out"
"MinDA","Fingerpint","","9/20/2017 7:47 AM","292","292","C/In"
"MinDA","Fingerpint","","9/25/2017 7:54 AM","292","292","C/In"
