"department","VerifyCode","CardNo","checktime","id_no","name","status"
"MinDA","Fingerpint","","9/22/2017 7:15 AM","79","REYNALDO, GERARDO B","C/In"
"MinDA","Fingerpint","","9/25/2017 7:09 AM","79","REYNALDO, GERARDO B","C/In"
"MinDA","Fingerpint","","9/25/2017 12:22 PM","79","REYNALDO, GERARDO B","C/Out"
"MinDA","Fingerpint","","9/25/2017 12:22 PM","79","REYNALDO, GERARDO B","C/In"
"MinDA","Fingerpint","","9/8/2017 8:15 AM","174","BUHAT, RENATO JR. A","C/In"
"MinDA","Fingerpint","","9/8/2017 12:03 PM","174","BUHAT, RENATO JR. A","C/Out"
"MinDA","Fingerpint","","9/8/2017 12:03 PM","174","BUHAT, RENATO JR. A","C/In"
"MinDA","Fingerpint","","9/25/2017 9:08 AM","174","BUHAT, RENATO JR. A","C/In"
"MinDA","Fingerpint","","9/25/2017 12:02 PM","174","BUHAT, RENATO JR. A","C/Out"
"MinDA","Fingerpint","","9/25/2017 12:55 PM","174","BUHAT, RENATO JR. A","C/In"
"MinDA","Fingerpint","","10/6/2017 12:01 PM","174","BUHAT, RENATO JR. A","C/Out"
"MinDA","Fingerpint","","10/6/2017 12:02 PM","174","BUHAT, RENATO JR. A","C/In"
"MinDA","Fingerpint","","9/4/2017 6:48 AM","291","291","C/In"
"MinDA","Fingerpint","","9/4/2017 12:04 PM","291","291","C/Out"
"MinDA","Fingerpint","","9/4/2017 12:16 PM","291","291","C/In"
"MinDA","Fingerpint","","9/4/2017 5:06 PM","291","291","C/Out"
"MinDA","Fingerpint","","9/5/2017 7:02 AM","291","291","C/In"
"MinDA","Fingerpint","","9/5/2017 12:08 PM","291","291","C/Out"
"MinDA","Fingerpint","","9/5/2017 12:31 PM","291","291","C/In"
"MinDA","Fingerpint","","9/5/2017 5:04 PM","291","291","C/Out"
"MinDA","Fingerpint","","9/6/2017 6:59 AM","291","291","C/In"
"MinDA","Fingerpint","","9/6/2017 12:02 PM","291","291","C/Out"
"MinDA","Fingerpint","","9/6/2017 12:12 PM","291","291","C/In"
"MinDA","Fingerpint","","9/6/2017 5:01 PM","291","291","C/Out"
"MinDA","Fingerpint","","9/7/2017 7:06 AM","291","291","C/In"
"MinDA","Fingerpint","","9/7/2017 12:01 PM","291","291","C/Out"
"MinDA","Fingerpint","","9/7/2017 12:22 PM","291","291","C/In"
"MinDA","Fingerpint","","9/7/2017 5:01 PM","291","291","C/Out"
"MinDA","Fingerpint","","9/8/2017 7:22 AM","291","291","C/In"
"MinDA","Fingerpint","","9/8/2017 12:01 PM","291","291","C/Out"
"MinDA","Fingerpint","","9/8/2017 12:16 PM","291","291","C/In"
"MinDA","Fingerpint","","9/8/2017 5:01 PM","291","291","C/Out"
"MinDA","Fingerpint","","9/11/2017 7:07 AM","291","291","C/In"
"MinDA","Fingerpint","","9/11/2017 12:06 PM","291","291","C/Out"
"MinDA","Fingerpint","","9/11/2017 12:15 PM","291","291","C/In"
"MinDA","Fingerpint","","9/11/2017 5:05 PM","291","291","C/Out"
"MinDA","Fingerpint","","9/12/2017 7:11 AM","291","291","C/In"
"MinDA","Fingerpint","","9/12/2017 12:07 PM","291","291","C/Out"
"MinDA","Fingerpint","","9/12/2017 12:10 PM","291","291","C/In"
"MinDA","Fingerpint","","9/12/2017 5:12 PM","291","291","C/Out"
"MinDA","Fingerpint","","9/14/2017 12:14 PM","291","291","C/Out"
"MinDA","Fingerpint","","9/14/2017 12:15 PM","291","291","C/In"
"MinDA","Fingerpint","","9/14/2017 5:09 PM","291","291","C/Out"
"MinDA","Fingerpint","","9/15/2017 7:20 AM","291","291","C/In"
"MinDA","Fingerpint","","9/15/2017 12:02 PM","291","291","C/Out"
"MinDA","Fingerpint","","9/15/2017 12:17 PM","291","291","C/In"
"MinDA","Fingerpint","","9/15/2017 5:01 PM","291","291","C/Out"
"MinDA","Fingerpint","","9/18/2017 7:08 AM","291","291","C/In"
"MinDA","Fingerpint","","9/18/2017 12:54 PM","291","291","C/Out"
"MinDA","Fingerpint","","9/18/2017 12:54 PM","291","291","C/In"
"MinDA","Fingerpint","","9/18/2017 5:01 PM","291","291","C/Out"
"MinDA","Fingerpint","","9/19/2017 7:20 AM","291","291","C/In"
"MinDA","Fingerpint","","9/19/2017 12:04 PM","291","291","C/Out"
"MinDA","Fingerpint","","9/19/2017 12:20 PM","291","291","C/In"
"MinDA","Fingerpint","","9/19/2017 5:06 PM","291","291","C/Out"
"MinDA","Fingerpint","","9/20/2017 7:24 AM","291","291","C/In"
"MinDA","Fingerpint","","9/20/2017 12:03 PM","291","291","C/Out"
"MinDA","Fingerpint","","9/20/2017 12:10 PM","291","291","C/In"
"MinDA","Fingerpint","","9/20/2017 5:02 PM","291","291","C/Out"
"MinDA","Fingerpint","","9/22/2017 7:24 AM","291","291","C/In"
"MinDA","Fingerpint","","9/22/2017 12:01 PM","291","291","C/Out"
"MinDA","Fingerpint","","9/22/2017 12:13 PM","291","291","C/In"
"MinDA","Fingerpint","","9/22/2017 5:01 PM","291","291","C/Out"
"MinDA","Fingerpint","","9/25/2017 7:06 AM","291","291","C/In"
"MinDA","Fingerpint","","9/25/2017 12:01 PM","291","291","C/Out"
"MinDA","Fingerpint","","9/25/2017 12:24 PM","291","291","C/In"
"MinDA","Fingerpint","","9/25/2017 5:02 PM","291","291","C/Out"
"MinDA","Fingerpint","","9/26/2017 7:17 AM","291","291","C/In"
"MinDA","Fingerpint","","9/26/2017 12:04 PM","291","291","C/Out"
"MinDA","Fingerpint","","9/26/2017 12:22 PM","291","291","C/In"
"MinDA","Fingerpint","","9/26/2017 5:02 PM","291","291","C/Out"
"MinDA","Fingerpint","","9/27/2017 7:15 AM","291","291","C/In"
"MinDA","Fingerpint","","9/27/2017 12:03 PM","291","291","C/Out"
"MinDA","Fingerpint","","9/27/2017 12:18 PM","291","291","C/In"
"MinDA","Fingerpint","","9/27/2017 5:01 PM","291","291","C/Out"
"MinDA","Fingerpint","","9/28/2017 7:24 AM","291","291","C/In"
"MinDA","Fingerpint","","9/28/2017 12:04 PM","291","291","C/Out"
"MinDA","Fingerpint","","9/28/2017 12:17 PM","291","291","C/In"
"MinDA","Fingerpint","","9/28/2017 5:01 PM","291","291","C/Out"
"MinDA","Fingerpint","","9/29/2017 7:21 AM","291","291","C/In"
"MinDA","Fingerpint","","9/29/2017 12:01 PM","291","291","C/Out"
"MinDA","Fingerpint","","9/29/2017 12:14 PM","291","291","C/In"
"MinDA","Fingerpint","","9/29/2017 5:01 PM","291","291","C/Out"
"MinDA","Fingerpint","","10/2/2017 7:14 AM","291","291","C/In"
"MinDA","Fingerpint","","10/2/2017 12:02 PM","291","291","C/Out"
"MinDA","Fingerpint","","10/2/2017 12:18 PM","291","291","C/In"
"MinDA","Fingerpint","","10/2/2017 5:01 PM","291","291","C/Out"
"MinDA","Fingerpint","","10/3/2017 7:14 AM","291","291","C/In"
"MinDA","Fingerpint","","10/3/2017 12:02 PM","291","291","C/Out"
"MinDA","Fingerpint","","10/3/2017 12:16 PM","291","291","C/In"
"MinDA","Fingerpint","","10/3/2017 5:01 PM","291","291","C/Out"
"MinDA","Fingerpint","","10/4/2017 7:15 AM","291","291","C/In"
"MinDA","Fingerpint","","10/4/2017 12:02 PM","291","291","C/Out"
"MinDA","Fingerpint","","10/4/2017 12:27 PM","291","291","C/In"
"MinDA","Fingerpint","","10/4/2017 5:07 PM","291","291","C/Out"
"MinDA","Fingerpint","","10/5/2017 7:34 AM","291","291","C/In"
"MinDA","Fingerpint","","10/5/2017 12:01 PM","291","291","C/Out"
"MinDA","Fingerpint","","10/5/2017 12:13 PM","291","291","C/In"
"MinDA","Fingerpint","","10/5/2017 5:01 PM","291","291","C/Out"
"MinDA","Fingerpint","","10/6/2017 7:32 AM","291","291","C/In"
"MinDA","Fingerpint","","10/6/2017 12:01 PM","291","291","C/Out"
"MinDA","Fingerpint","","10/6/2017 12:01 PM","291","291","C/In"
"MinDA","Fingerpint","","10/6/2017 5:01 PM","291","291","C/Out"
"MinDA","Fingerpint","","9/4/2017 7:55 AM","292","292","C/In"
"MinDA","Fingerpint","","9/4/2017 12:23 PM","292","292","C/Out"
"MinDA","Fingerpint","","9/4/2017 12:23 PM","292","292","C/In"
"MinDA","Fingerpint","","9/4/2017 5:16 PM","292","292","C/Out"
"MinDA","Fingerpint","","9/5/2017 7:48 AM","292","292","C/In"
"MinDA","Fingerpint","","9/5/2017 12:21 PM","292","292","C/Out"
"MinDA","Fingerpint","","9/5/2017 12:21 PM","292","292","C/In"
"MinDA","Fingerpint","","9/6/2017 7:48 AM","292","292","C/In"
"MinDA","Fingerpint","","9/6/2017 12:20 PM","292","292","C/Out"
"MinDA","Fingerpint","","9/6/2017 12:20 PM","292","292","C/In"
"MinDA","Fingerpint","","9/6/2017 6:51 PM","292","292","C/Out"
"MinDA","Fingerpint","","9/7/2017 7:48 AM","292","292","C/In"
"MinDA","Fingerpint","","9/7/2017 12:31 PM","292","292","C/Out"
"MinDA","Fingerpint","","9/7/2017 12:31 PM","292","292","C/In"
"MinDA","Fingerpint","","9/7/2017 7:19 PM","292","292","C/Out"
"MinDA","Fingerpint","","9/8/2017 8:04 AM","292","292","C/In"
"MinDA","Fingerpint","","9/8/2017 12:13 PM","292","292","C/Out"
"MinDA","Fingerpint","","9/8/2017 12:13 PM","292","292","C/In"
"MinDA","Fingerpint","","9/8/2017 7:19 PM","292","292","C/Out"
"MinDA","Fingerpint","","9/11/2017 7:49 AM","292","292","C/In"
"MinDA","Fingerpint","","9/11/2017 12:11 PM","292","292","C/Out"
"MinDA","Fingerpint","","9/11/2017 12:11 PM","292","292","C/In"
"MinDA","Fingerpint","","9/11/2017 7:56 PM","292","292","C/Out"
"MinDA","Fingerpint","","9/12/2017 7:39 AM","292","292","C/In"
"MinDA","Fingerpint","","9/12/2017 12:23 PM","292","292","C/Out"
"MinDA","Fingerpint","","9/12/2017 12:23 PM","292","292","C/In"
"MinDA","Fingerpint","","9/12/2017 6:34 PM","292","292","C/Out"
"MinDA","Fingerpint","","9/13/2017 7:44 AM","292","292","C/In"
"MinDA","Fingerpint","","9/13/2017 7:00 PM","292","292","C/Out"
"MinDA","Fingerpint","","9/14/2017 7:48 AM","292","292","C/In"
"MinDA","Fingerpint","","9/14/2017 12:39 PM","292","292","C/Out"
"MinDA","Fingerpint","","9/14/2017 12:39 PM","292","292","C/In"
"MinDA","Fingerpint","","9/14/2017 6:21 PM","292","292","C/Out"
"MinDA","Fingerpint","","9/15/2017 7:47 AM","292","292","C/In"
"MinDA","Fingerpint","","9/15/2017 12:03 PM","292","292","C/Out"
"MinDA","Fingerpint","","9/15/2017 12:03 PM","292","292","C/In"
"MinDA","Fingerpint","","9/15/2017 6:34 PM","292","292","C/Out"
"MinDA","Fingerpint","","9/18/2017 7:46 AM","292","292","C/In"
"MinDA","Fingerpint","","9/18/2017 12:54 PM","292","292","C/Out"
"MinDA","Fingerpint","","9/18/2017 12:54 PM","292","292","C/In"
"MinDA","Fingerpint","","9/18/2017 6:01 PM","292","292","C/Out"
"MinDA","Fingerpint","","9/19/2017 7:49 AM","292","292","C/In"
"MinDA","Fingerpint","","9/19/2017 12:31 PM","292","292","C/Out"
"MinDA","Fingerpint","","9/19/2017 12:31 PM","292","292","C/In"
"MinDA","Fingerpint","","9/19/2017 6:11 PM","292","292","C/Out"
"MinDA","Fingerpint","","9/20/2017 7:47 AM","292","292","C/In"
"MinDA","Fingerpint","","9/25/2017 7:54 AM","292","292","C/In"
"MinDA","Fingerpint","","9/25/2017 12:03 PM","292","292","C/Out"
"MinDA","Fingerpint","","9/25/2017 12:03 PM","292","292","C/In"
"MinDA","Fingerpint","","9/25/2017 7:30 PM","292","292","C/Out"
"MinDA","Fingerpint","","9/26/2017 7:53 AM","292","292","C/In"
"MinDA","Fingerpint","","9/26/2017 12:49 PM","292","292","C/Out"
"MinDA","Fingerpint","","9/26/2017 12:49 PM","292","292","C/In"
"MinDA","Fingerpint","","9/26/2017 6:26 PM","292","292","OverTime In"
"MinDA","Fingerpint","","9/26/2017 6:26 PM","292","292","C/Out"
"MinDA","Fingerpint","","9/27/2017 7:50 AM","292","292","C/In"
"MinDA","Fingerpint","","9/27/2017 12:39 PM","292","292","C/Out"
"MinDA","Fingerpint","","9/27/2017 12:40 PM","292","292","C/In"
"MinDA","Fingerpint","","9/27/2017 5:17 PM","292","292","C/Out"
"MinDA","Fingerpint","","9/28/2017 7:37 AM","292","292","C/In"
"MinDA","Fingerpint","","9/28/2017 12:26 PM","292","292","C/Out"
"MinDA","Fingerpint","","9/28/2017 12:26 PM","292","292","C/In"
"MinDA","Fingerpint","","9/28/2017 5:48 PM","292","292","C/Out"
"MinDA","Fingerpint","","9/29/2017 7:52 AM","292","292","C/In"
"MinDA","Fingerpint","","9/29/2017 12:29 PM","292","292","C/Out"
"MinDA","Fingerpint","","9/29/2017 12:29 PM","292","292","C/In"
"MinDA","Fingerpint","","9/29/2017 5:18 PM","292","292","C/Out"
"MinDA","Fingerpint","","10/2/2017 7:52 AM","292","292","C/In"
"MinDA","Fingerpint","","10/2/2017 12:09 PM","292","292","C/Out"
"MinDA","Fingerpint","","10/2/2017 12:09 PM","292","292","C/In"
"MinDA","Fingerpint","","10/2/2017 5:30 PM","292","292","C/Out"
"MinDA","Fingerpint","","10/3/2017 7:47 AM","292","292","C/In"
"MinDA","Fingerpint","","10/3/2017 12:17 PM","292","292","C/Out"
"MinDA","Fingerpint","","10/3/2017 12:17 PM","292","292","C/In"
"MinDA","Fingerpint","","10/3/2017 6:19 PM","292","292","C/Out"
"MinDA","Fingerpint","","10/4/2017 7:50 AM","292","292","C/In"
"MinDA","Fingerpint","","10/4/2017 12:06 PM","292","292","C/Out"
"MinDA","Fingerpint","","10/4/2017 12:06 PM","292","292","C/In"
"MinDA","Fingerpint","","10/4/2017 6:43 PM","292","292","C/Out"
"MinDA","Fingerpint","","10/5/2017 7:33 AM","292","292","C/In"
"MinDA","Fingerpint","","10/5/2017 12:11 PM","292","292","C/Out"
"MinDA","Fingerpint","","10/5/2017 12:11 PM","292","292","C/In"
"MinDA","Fingerpint","","10/5/2017 6:05 PM","292","292","C/Out"
"MinDA","Fingerpint","","10/6/2017 7:30 AM","292","292","C/In"
"MinDA","Fingerpint","","10/6/2017 12:00 PM","292","292","C/Out"
"MinDA","Fingerpint","","10/6/2017 12:01 PM","292","292","C/In"
"MinDA","Fingerpint","","10/6/2017 5:47 PM","292","292","C/Out"
"MinDA","Fingerpint","","10/4/2017 12:05 PM","293","293","C/Out"
"MinDA","Fingerpint","","10/4/2017 12:05 PM","293","293","C/In"
"MinDA","Fingerpint","","10/4/2017 5:20 PM","293","293","C/In"
"MinDA","Fingerpint","","10/4/2017 5:20 PM","293","293","C/Out"
"MinDA","Fingerpint","","10/5/2017 12:10 PM","293","293","C/Out"
"MinDA","Fingerpint","","10/5/2017 12:10 PM","293","293","C/In"
