department,VerifyCode,CardNo,checktime,id_no,name,status
MinDA,FP,,2/22/2018 8:58:00 AM,204,204,C/In
MinDA,FP,,2/22/2018 12:25:00 PM,204,204,C/Out
MinDA,FP,,2/22/2018 12:48:00 PM,204,204,C/In
MinDA,FP,,2/22/2018 6:34:00 PM,204,204,C/Out
MinDA,FP,,2/27/2018 1:08:00 PM,204,204,C/In
MinDA,FP,,2/27/2018 6:25:00 PM,204,204,C/Out
MinDA,FP,,2/28/2018 12:35:00 PM,204,204,C/Out
MinDA,FP,,2/28/2018 12:53:00 PM,204,204,C/In
MinDA,FP,,2/28/2018 6:13:00 PM,204,204,C/Out
MinDA,FP,,3/1/2018 12:06:00 PM,204,204,C/Out
MinDA,FP,,3/1/2018 12:39:00 PM,204,204,C/In
MinDA,FP,,3/1/2018 7:11:00 PM,204,204,C/Out
MinDA,FP,,3/2/2018 12:04:00 PM,204,204,C/Out
MinDA,FP,,3/2/2018 12:30:00 PM,204,204,C/In
MinDA,FP,,3/2/2018 6:20:00 PM,204,204,C/Out
MinDA,FP,,3/5/2018 12:28:00 PM,204,204,C/Out
MinDA,FP,,3/5/2018 12:38:00 PM,204,204,C/In
MinDA,FP,,3/5/2018 6:20:00 PM,204,204,C/Out
MinDA,FP,,2/21/2018 7:04:00 AM,216,216,C/In
MinDA,FP,,2/21/2018 12:14:00 PM,216,216,C/Out
MinDA,FP,,2/21/2018 12:31:00 PM,216,216,C/In
MinDA,FP,,2/22/2018 6:54:00 AM,216,216,C/In
MinDA,FP,,2/22/2018 12:15:00 PM,216,216,C/Out
MinDA,FP,,2/22/2018 12:35:00 PM,216,216,C/Out
MinDA,FP,,2/22/2018 12:35:00 PM,216,216,C/In
MinDA,FP,,2/27/2018 8:39:00 AM,216,216,C/In
MinDA,FP,,2/27/2018 12:14:00 PM,216,216,C/Out
MinDA,FP,,2/27/2018 12:24:00 PM,216,216,C/In
MinDA,FP,,2/27/2018 12:24:00 PM,216,216,C/In
MinDA,FP,,2/27/2018 5:30:00 PM,216,216,C/Out
MinDA,FP,,2/28/2018 7:32:00 AM,216,216,C/In
MinDA,FP,,3/1/2018 7:02:00 AM,216,216,C/In
MinDA,FP,,3/1/2018 12:05:00 PM,216,216,C/Out
MinDA,FP,,3/1/2018 12:10:00 PM,216,216,C/In
MinDA,FP,,3/1/2018 5:00:00 PM,216,216,C/Out
MinDA,FP,,3/2/2018 7:25:00 AM,216,216,C/In
MinDA,FP,,3/5/2018 6:41:00 AM,216,216,C/In
MinDA,FP,,3/5/2018 12:17:00 PM,216,216,C/Out
MinDA,FP,,3/5/2018 12:28:00 PM,216,216,C/In
MinDA,FP,,3/5/2018 5:00:00 PM,216,216,C/Out
