"department","VerifyCode","CardNo","checktime","id_no","name","status"
"MinDA","FP","","1/23/2018 12:27 PM","204","204","C/Out"
"MinDA","FP","","1/23/2018 12:28 PM","204","204","C/In"
"MinDA","FP","","1/23/2018 6:03 PM","204","204","C/Out"
"MinDA","FP","","1/24/2018 9:17 AM","204","204","C/In"
"MinDA","FP","","1/24/2018 12:10 PM","204","204","C/Out"
"MinDA","FP","","1/24/2018 12:11 PM","204","204","C/In"
"MinDA","FP","","1/24/2018 6:00 PM","204","204","C/Out"
"MinDA","FP","","1/25/2018 9:01 AM","204","204","C/In"
"MinDA","FP","","1/25/2018 12:23 PM","204","204","C/Out"
"MinDA","FP","","1/25/2018 12:24 PM","204","204","C/In"
"MinDA","FP","","1/25/2018 6:00 PM","204","204","C/Out"
"MinDA","FP","","1/26/2018 9:13 AM","204","204","C/In"
"MinDA","FP","","1/26/2018 12:18 PM","204","204","C/Out"
"MinDA","FP","","1/26/2018 12:19 PM","204","204","C/In"
"MinDA","FP","","1/26/2018 6:03 PM","204","204","C/Out"
"MinDA","FP","","1/29/2018 12:21 PM","204","204","C/Out"
"MinDA","FP","","1/29/2018 12:22 PM","204","204","C/In"
"MinDA","FP","","1/29/2018 6:27 PM","204","204","C/Out"
"MinDA","FP","","1/30/2018 12:06 PM","204","204","C/Out"
"MinDA","FP","","1/30/2018 12:07 PM","204","204","C/In"
"MinDA","FP","","1/30/2018 6:00 PM","204","204","C/Out"
"MinDA","FP","","1/31/2018 9:17 AM","204","204","C/In"
"MinDA","FP","","1/31/2018 12:32 PM","204","204","C/Out"
"MinDA","FP","","1/31/2018 12:33 PM","204","204","C/In"
"MinDA","FP","","1/31/2018 6:07 PM","204","204","C/Out"
"MinDA","FP","","2/1/2018 9:28 AM","204","204","C/In"
"MinDA","FP","","2/1/2018 12:47 PM","204","204","C/Out"
"MinDA","FP","","2/1/2018 12:48 PM","204","204","C/In"
"MinDA","FP","","2/1/2018 6:18 PM","204","204","C/Out"
"MinDA","FP","","2/5/2018 9:05 AM","204","204","C/In"
"MinDA","FP","","2/5/2018 12:20 PM","204","204","C/Out"
"MinDA","FP","","2/5/2018 12:21 PM","204","204","C/In"
"MinDA","FP","","2/5/2018 6:02 PM","204","204","C/Out"
"MinDA","FP","","2/7/2018 12:04 PM","204","204","C/Out"
"MinDA","FP","","2/7/2018 12:05 PM","204","204","C/In"
"MinDA","FP","","1/23/2018 6:39 AM","216","216","C/In"
"MinDA","FP","","1/23/2018 12:04 PM","216","216","C/Out"
"MinDA","FP","","1/23/2018 12:05 PM","216","216","C/In"
"MinDA","FP","","1/23/2018 5:01 PM","216","216","C/Out"
"MinDA","FP","","1/24/2018 7:09 AM","216","216","C/In"
"MinDA","FP","","1/24/2018 12:38 PM","216","216","C/Out"
"MinDA","FP","","1/24/2018 12:39 PM","216","216","C/In"
"MinDA","FP","","1/24/2018 5:00 PM","216","216","C/Out"
"MinDA","FP","","1/25/2018 7:20 AM","216","216","C/In"
"MinDA","FP","","1/25/2018 12:08 PM","216","216","C/Out"
"MinDA","FP","","1/25/2018 12:09 PM","216","216","C/In"
"MinDA","FP","","1/25/2018 5:00 PM","216","216","C/Out"
"MinDA","FP","","1/26/2018 7:37 AM","216","216","C/In"
"MinDA","FP","","1/26/2018 12:19 PM","216","216","C/Out"
"MinDA","FP","","1/26/2018 12:20 PM","216","216","C/In"
"MinDA","FP","","2/2/2018 8:27 AM","216","216","C/In"
"MinDA","FP","","2/2/2018 12:05 PM","216","216","C/Out"
"MinDA","FP","","2/2/2018 12:06 PM","216","216","C/In"
"MinDA","FP","","2/2/2018 5:30 PM","216","216","C/Out"
"MinDA","FP","","2/6/2018 7:16 AM","216","216","C/In"
"MinDA","FP","","2/6/2018 12:15 PM","216","216","C/Out"
"MinDA","FP","","2/6/2018 12:16 PM","216","216","C/In"
"MinDA","FP","","2/6/2018 5:00 PM","216","216","C/Out"
"MinDA","FP","","2/7/2018 8:38 AM","216","216","C/In"
"MinDA","FP","","2/7/2018 12:05 PM","216","216","C/Out"
"MinDA","FP","","2/7/2018 12:06 PM","216","216","C/In"
