"department","VerifyCode","CardNo","checktime","id_no","name","status"
"MinDA","Fingerpint","","12/19/2017 7:26 AM","291","291","C/In"
"MinDA","Fingerpint","","12/19/2017 12:02 PM","291","291","C/Out"
"MinDA","Fingerpint","","12/19/2017 12:03 PM","291","291","C/In"
"MinDA","Fingerpint","","12/19/2017 5:01 PM","291","291","C/Out"
"MinDA","Fingerpint","","12/20/2017 7:28 AM","291","291","C/In"
"MinDA","Fingerpint","","12/20/2017 12:02 PM","291","291","C/Out"
"MinDA","Fingerpint","","12/20/2017 12:02 PM","291","291","C/In"
"MinDA","Fingerpint","","12/20/2017 5:02 PM","291","291","C/Out"
"MinDA","Fingerpint","","12/21/2017 7:23 AM","291","291","C/In"
"MinDA","Fingerpint","","12/21/2017 12:03 PM","291","291","C/Out"
"MinDA","Fingerpint","","12/21/2017 12:09 PM","291","291","C/In"
"MinDA","Fingerpint","","12/21/2017 5:01 PM","291","291","C/Out"
"MinDA","Fingerpint","","12/22/2017 7:31 AM","291","291","C/In"
"MinDA","Fingerpint","","12/22/2017 12:05 PM","291","291","C/Out"
"MinDA","Fingerpint","","12/22/2017 12:05 PM","291","291","C/In"
"MinDA","Fingerpint","","12/22/2017 5:01 PM","291","291","C/Out"
"MinDA","Fingerpint","","12/27/2017 7:24 AM","291","291","C/In"
"MinDA","Fingerpint","","12/27/2017 12:03 PM","291","291","C/Out"
"MinDA","Fingerpint","","12/27/2017 12:17 PM","291","291","C/In"
"MinDA","Fingerpint","","12/27/2017 5:01 PM","291","291","C/Out"
"MinDA","Fingerpint","","12/28/2017 7:29 AM","291","291","C/In"
"MinDA","Fingerpint","","12/28/2017 5:01 PM","291","291","C/Out"
"MinDA","Fingerpint","","12/29/2017 7:02 AM","291","291","C/In"
"MinDA","Fingerpint","","12/29/2017 12:02 PM","291","291","C/Out"
"MinDA","Fingerpint","","12/29/2017 12:12 PM","291","291","C/In"
"MinDA","Fingerpint","","12/19/2017 10:02 AM","293","293","C/In"
"MinDA","Fingerpint","","12/19/2017 12:02 PM","293","293","C/Out"
"MinDA","Fingerpint","","12/19/2017 12:02 PM","293","293","C/In"
"MinDA","Fingerpint","","12/19/2017 5:01 PM","293","293","C/Out"
"MinDA","Fingerpint","","12/21/2017 12:16 PM","293","293","C/Out"
"MinDA","Fingerpint","","12/21/2017 12:16 PM","293","293","C/In"
"MinDA","Fingerpint","","12/22/2017 10:56 AM","293","293","C/In"
"MinDA","Fingerpint","","12/22/2017 12:06 PM","293","293","C/Out"
"MinDA","Fingerpint","","12/22/2017 12:25 PM","293","293","C/In"
"MinDA","Fingerpint","","12/22/2017 5:01 PM","293","293","C/Out"
"MinDA","Fingerpint","","12/29/2017 12:02 PM","293","293","C/Out"
"MinDA","Fingerpint","","12/29/2017 12:11 PM","293","293","C/In"
