"department","VerifyCode","CardNo","checktime","id_no","name","status"
"MinDA","Fingerpint","","9/8/2017 7:58 AM","180","AGUAVIVA, RACHAEL","C/In"
"MinDA","Fingerpint","","9/8/2017 12:12 PM","180","AGUAVIVA, RACHAEL","C/Out"
"MinDA","Fingerpint","","9/8/2017 12:13 PM","180","AGUAVIVA, RACHAEL","C/In"
"MinDA","Fingerpint","","9/8/2017 5:41 PM","180","AGUAVIVA, RACHAEL","C/Out"
"MinDA","Fingerpint","","9/8/2017 5:41 PM","180","AGUAVIVA, RACHAEL","C/Out"
"MinDA","Fingerpint","","9/14/2017 9:18 AM","180","AGUAVIVA, RACHAEL","C/In"
"MinDA","Fingerpint","","9/14/2017 12:05 PM","180","AGUAVIVA, RACHAEL","C/Out"
"MinDA","Fingerpint","","9/14/2017 12:08 PM","180","AGUAVIVA, RACHAEL","C/In"
"MinDA","Fingerpint","","9/15/2017 8:56 AM","180","AGUAVIVA, RACHAEL","C/In"
"MinDA","Fingerpint","","9/15/2017 6:43 PM","180","AGUAVIVA, RACHAEL","C/Out"
"MinDA","Fingerpint","","9/18/2017 12:00 PM","180","AGUAVIVA, RACHAEL","C/Out"
"MinDA","Fingerpint","","9/18/2017 12:02 PM","180","AGUAVIVA, RACHAEL","C/In"
"MinDA","Fingerpint","","9/18/2017 5:30 PM","180","AGUAVIVA, RACHAEL","C/Out"
"MinDA","Fingerpint","","9/25/2017 9:06 AM","180","AGUAVIVA, RACHAEL","C/In"
"MinDA","Fingerpint","","9/8/2017 7:48 AM","244","244","C/In"
"MinDA","Fingerpint","","9/8/2017 12:00 PM","244","244","C/Out"
"MinDA","Fingerpint","","9/8/2017 12:02 PM","244","244","C/In"
"MinDA","Fingerpint","","9/8/2017 5:01 PM","244","244","C/Out"
"MinDA","Fingerpint","","9/11/2017 7:38 AM","244","244","C/In"
"MinDA","Fingerpint","","9/11/2017 12:00 PM","244","244","C/Out"
"MinDA","Fingerpint","","9/11/2017 12:17 PM","244","244","C/In"
"MinDA","Fingerpint","","9/11/2017 5:03 PM","244","244","C/Out"
"MinDA","Fingerpint","","9/12/2017 7:51 AM","244","244","C/In"
"MinDA","Fingerpint","","9/12/2017 12:01 PM","244","244","C/Out"
"MinDA","Fingerpint","","9/12/2017 12:16 PM","244","244","C/In"
"MinDA","Fingerpint","","9/12/2017 5:02 PM","244","244","C/Out"
"MinDA","Fingerpint","","9/13/2017 7:47 AM","244","244","C/In"
"MinDA","Fingerpint","","9/13/2017 12:00 PM","244","244","C/Out"
"MinDA","Fingerpint","","9/13/2017 12:20 PM","244","244","C/In"
"MinDA","Fingerpint","","9/13/2017 5:00 PM","244","244","C/Out"
"MinDA","Fingerpint","","9/15/2017 8:01 AM","244","244","C/In"
"MinDA","Fingerpint","","9/15/2017 12:00 PM","244","244","C/Out"
"MinDA","Fingerpint","","9/15/2017 12:02 PM","244","244","C/In"
"MinDA","Fingerpint","","9/15/2017 5:01 PM","244","244","C/Out"
"MinDA","Fingerpint","","9/18/2017 7:52 AM","244","244","C/In"
"MinDA","Fingerpint","","9/18/2017 12:00 PM","244","244","C/Out"
"MinDA","Fingerpint","","9/18/2017 12:33 PM","244","244","C/In"
"MinDA","Fingerpint","","9/18/2017 5:03 PM","244","244","C/Out"
"MinDA","Fingerpint","","9/19/2017 8:11 AM","244","244","C/In"
"MinDA","Fingerpint","","9/19/2017 5:02 PM","244","244","C/Out"
"MinDA","Fingerpint","","9/20/2017 7:54 AM","244","244","C/In"
"MinDA","Fingerpint","","9/20/2017 12:02 PM","244","244","C/Out"
"MinDA","Fingerpint","","9/20/2017 12:24 PM","244","244","C/In"
"MinDA","Fingerpint","","9/20/2017 5:06 PM","244","244","C/Out"
"MinDA","Fingerpint","","9/22/2017 8:01 AM","244","244","C/In"
"MinDA","Fingerpint","","9/22/2017 12:00 PM","244","244","C/Out"
"MinDA","Fingerpint","","9/22/2017 12:10 PM","244","244","C/In"
"MinDA","Fingerpint","","9/22/2017 5:00 PM","244","244","C/Out"
"MinDA","Fingerpint","","9/25/2017 7:48 AM","244","244","C/In"
"MinDA","Fingerpint","","9/8/2017 7:54 AM","247","247","C/In"
"MinDA","Fingerpint","","9/8/2017 12:00 PM","247","247","C/Out"
"MinDA","Fingerpint","","9/8/2017 12:03 PM","247","247","C/In"
"MinDA","Fingerpint","","9/8/2017 5:06 PM","247","247","C/Out"
"MinDA","Fingerpint","","9/12/2017 7:58 AM","247","247","C/In"
"MinDA","Fingerpint","","9/12/2017 12:01 PM","247","247","C/Out"
"MinDA","Fingerpint","","9/12/2017 12:17 PM","247","247","C/In"
"MinDA","Fingerpint","","9/12/2017 5:01 PM","247","247","C/Out"
"MinDA","Fingerpint","","9/13/2017 7:56 AM","247","247","C/In"
"MinDA","Fingerpint","","9/13/2017 12:00 PM","247","247","C/Out"
"MinDA","Fingerpint","","9/13/2017 12:18 PM","247","247","C/In"
"MinDA","Fingerpint","","9/13/2017 5:02 PM","247","247","C/Out"
"MinDA","Fingerpint","","9/14/2017 8:00 AM","247","247","C/In"
"MinDA","Fingerpint","","9/14/2017 12:01 PM","247","247","C/Out"
"MinDA","Fingerpint","","9/14/2017 12:15 PM","247","247","C/In"
"MinDA","Fingerpint","","9/14/2017 5:01 PM","247","247","C/Out"
"MinDA","Fingerpint","","9/15/2017 7:51 AM","247","247","C/In"
"MinDA","Fingerpint","","9/15/2017 12:02 PM","247","247","C/Out"
"MinDA","Fingerpint","","9/15/2017 1:00 PM","247","247","C/In"
"MinDA","Fingerpint","","9/15/2017 5:04 PM","247","247","C/Out"
"MinDA","Fingerpint","","9/18/2017 7:56 AM","247","247","C/In"
"MinDA","Fingerpint","","9/18/2017 12:00 PM","247","247","C/Out"
"MinDA","Fingerpint","","9/18/2017 5:01 PM","247","247","C/Out"
"MinDA","Fingerpint","","9/19/2017 7:59 AM","247","247","C/In"
"MinDA","Fingerpint","","9/19/2017 12:15 PM","247","247","C/Out"
"MinDA","Fingerpint","","9/19/2017 12:48 PM","247","247","C/In"
"MinDA","Fingerpint","","9/19/2017 5:01 PM","247","247","C/Out"
"MinDA","Fingerpint","","9/20/2017 7:47 AM","247","247","C/In"
"MinDA","Fingerpint","","9/20/2017 12:21 PM","247","247","C/Out"
"MinDA","Fingerpint","","9/20/2017 12:23 PM","247","247","C/In"
"MinDA","Fingerpint","","9/20/2017 5:01 PM","247","247","C/Out"
"MinDA","Fingerpint","","9/25/2017 7:51 AM","247","247","C/In"
"MinDA","Fingerpint","","9/12/2017 7:38 AM","275","275","C/In"
"MinDA","Fingerpint","","9/12/2017 12:01 PM","275","275","C/Out"
"MinDA","Fingerpint","","9/12/2017 12:48 PM","275","275","C/In"
"MinDA","Fingerpint","","9/12/2017 5:01 PM","275","275","C/Out"
"MinDA","Fingerpint","","9/13/2017 7:57 AM","275","275","C/In"
"MinDA","Fingerpint","","9/13/2017 12:00 PM","275","275","C/Out"
"MinDA","Fingerpint","","9/13/2017 1:00 PM","275","275","C/In"
"MinDA","Fingerpint","","9/13/2017 5:01 PM","275","275","C/Out"
"MinDA","Fingerpint","","9/14/2017 7:56 AM","275","275","C/In"
"MinDA","Fingerpint","","9/14/2017 12:05 PM","275","275","C/Out"
"MinDA","Fingerpint","","9/14/2017 12:05 PM","275","275","C/In"
"MinDA","Fingerpint","","9/14/2017 5:26 PM","275","275","C/Out"
"MinDA","Fingerpint","","9/15/2017 7:58 AM","275","275","C/In"
"MinDA","Fingerpint","","9/15/2017 5:03 PM","275","275","C/Out"
"MinDA","Fingerpint","","9/18/2017 7:36 AM","275","275","C/In"
"MinDA","Fingerpint","","9/18/2017 12:00 PM","275","275","C/Out"
"MinDA","Fingerpint","","9/18/2017 12:34 PM","275","275","C/In"
"MinDA","Fingerpint","","9/18/2017 5:03 PM","275","275","C/Out"
"MinDA","Fingerpint","","9/25/2017 7:44 AM","275","275","C/In"
