"department","VerifyCode","CardNo","checktime","id_no","name","Status"
"OUR COMPANY","Fingerpint","","8/11/2016 5:37 PM","203","SALIMIN , JEVA","C/Out"
"OUR COMPANY","Fingerpint","","8/15/2016 8:03 AM","203","SALIMIN , JEVA","C/In"
"OUR COMPANY","Fingerpint","","8/15/2016 12:14 PM","203","SALIMIN , JEVA","C/Out"
"OUR COMPANY","Fingerpint","","8/15/2016 12:15 PM","203","SALIMIN , JEVA","C/In"
"OUR COMPANY","Fingerpint","","8/15/2016 5:57 PM","203","SALIMIN , JEVA","C/Out"
"OUR COMPANY","Fingerpint","","8/16/2016 8:07 AM","203","SALIMIN , JEVA","C/In"
"OUR COMPANY","Fingerpint","","8/16/2016 12:02 PM","203","SALIMIN , JEVA","C/Out"
"OUR COMPANY","Fingerpint","","8/16/2016 12:03 PM","203","SALIMIN , JEVA","C/In"
"OUR COMPANY","Fingerpint","","8/16/2016 5:48 PM","203","SALIMIN , JEVA","C/Out"
"OUR COMPANY","Fingerpint","","8/17/2016 8:03 AM","203","SALIMIN , JEVA","C/In"
"OUR COMPANY","Fingerpint","","8/17/2016 12:01 PM","203","SALIMIN , JEVA","C/Out"
"OUR COMPANY","Fingerpint","","8/17/2016 12:02 PM","203","SALIMIN , JEVA","C/In"
"OUR COMPANY","Fingerpint","","8/17/2016 6:18 PM","203","SALIMIN , JEVA","C/Out"
"OUR COMPANY","Fingerpint","","8/22/2016 8:09 AM","203","SALIMIN , JEVA","C/In"
"OUR COMPANY","Fingerpint","","8/22/2016 12:05 PM","203","SALIMIN , JEVA","C/Out"
"OUR COMPANY","Fingerpint","","8/22/2016 12:06 PM","203","SALIMIN , JEVA","C/In"
"OUR COMPANY","Fingerpint","","8/22/2016 5:11 PM","203","SALIMIN , JEVA","C/Out"
"OUR COMPANY","Fingerpint","","8/23/2016 12:45 PM","203","SALIMIN , JEVA","C/Out"
"OUR COMPANY","Fingerpint","","8/23/2016 12:46 PM","203","SALIMIN , JEVA","C/In"
"OUR COMPANY","Fingerpint","","8/23/2016 7:22 PM","203","SALIMIN , JEVA","C/Out"
"OUR COMPANY","Fingerpint","","8/24/2016 8:04 AM","203","SALIMIN , JEVA","C/In"
"OUR COMPANY","Fingerpint","","8/24/2016 12:03 PM","203","SALIMIN , JEVA","C/Out"
"OUR COMPANY","Fingerpint","","8/24/2016 12:04 PM","203","SALIMIN , JEVA","C/In"
"OUR COMPANY","Fingerpint","","8/24/2016 6:57 PM","203","SALIMIN , JEVA","C/Out"
"OUR COMPANY","Fingerpint","","8/25/2016 7:58 AM","203","SALIMIN , JEVA","C/In"
"OUR COMPANY","Fingerpint","","8/25/2016 12:27 PM","203","SALIMIN , JEVA","C/Out"
"OUR COMPANY","Fingerpint","","8/25/2016 12:52 PM","203","SALIMIN , JEVA","C/In"
"OUR COMPANY","Fingerpint","","8/25/2016 7:03 PM","203","SALIMIN , JEVA","C/Out"
"OUR COMPANY","Fingerpint","","8/26/2016 8:20 AM","203","SALIMIN , JEVA","C/In"
"OUR COMPANY","Fingerpint","","8/26/2016 6:17 PM","203","SALIMIN , JEVA","C/Out"
"OUR COMPANY","Fingerpint","","8/30/2016 12:03 PM","203","SALIMIN , JEVA","C/Out"
"OUR COMPANY","Fingerpint","","8/30/2016 12:04 PM","203","SALIMIN , JEVA","C/In"
"OUR COMPANY","Fingerpint","","8/30/2016 6:13 PM","203","SALIMIN , JEVA","C/Out"
"OUR COMPANY","Fingerpint","","8/31/2016 12:13 PM","203","SALIMIN , JEVA","C/Out"
"OUR COMPANY","Fingerpint","","8/31/2016 12:15 PM","203","SALIMIN , JEVA","C/In"
"OUR COMPANY","Fingerpint","","8/31/2016 5:49 PM","203","SALIMIN , JEVA","C/Out"
"OUR COMPANY","Fingerpint","","9/1/2016 12:25 PM","203","SALIMIN , JEVA","C/Out"
"OUR COMPANY","Fingerpint","","9/1/2016 5:46 PM","203","SALIMIN , JEVA","C/Out"
"OUR COMPANY","Fingerpint","","9/2/2016 12:23 PM","203","SALIMIN , JEVA","C/Out"
"OUR COMPANY","Fingerpint","","9/2/2016 12:24 PM","203","SALIMIN , JEVA","C/In"
"OUR COMPANY","Fingerpint","","9/2/2016 7:50 PM","203","SALIMIN , JEVA","C/In"
"OUR COMPANY","Fingerpint","","9/5/2016 12:00 PM","203","SALIMIN , JEVA","C/Out"
"OUR COMPANY","Fingerpint","","9/5/2016 12:29 PM","203","SALIMIN , JEVA","C/In"
"OUR COMPANY","Fingerpint","","9/6/2016 12:03 PM","203","SALIMIN , JEVA","C/Out"
"OUR COMPANY","Fingerpint","","9/6/2016 12:05 PM","203","SALIMIN , JEVA","C/In"
"OUR COMPANY","Fingerpint","","9/7/2016 12:09 PM","203","SALIMIN , JEVA","C/Out"
"OUR COMPANY","Fingerpint","","9/7/2016 12:10 PM","203","SALIMIN , JEVA","C/In"
"OUR COMPANY","Fingerpint","","9/7/2016 5:31 PM","203","SALIMIN , JEVA","C/Out"
"OUR COMPANY","Fingerpint","","9/8/2016 12:27 PM","203","SALIMIN , JEVA","C/Out"
"OUR COMPANY","Fingerpint","","9/8/2016 12:27 PM","203","SALIMIN , JEVA","C/In"
"OUR COMPANY","Fingerpint","","9/8/2016 12:35 PM","203","SALIMIN , JEVA","C/In"
"OUR COMPANY","Fingerpint","","9/8/2016 5:44 PM","203","SALIMIN , JEVA","C/Out"
"OUR COMPANY","Fingerpint","","9/9/2016 8:32 AM","203","SALIMIN , JEVA","C/In"
"OUR COMPANY","Fingerpint","","9/9/2016 12:04 PM","203","SALIMIN , JEVA","C/Out"
"OUR COMPANY","Fingerpint","","9/9/2016 12:06 PM","203","SALIMIN , JEVA","C/In"
"OUR COMPANY","Fingerpint","","9/9/2016 5:27 PM","203","SALIMIN , JEVA","C/Out"
"OUR COMPANY","Fingerpint","","9/13/2016 7:46 AM","203","SALIMIN , JEVA","C/In"
"OUR COMPANY","Fingerpint","","9/13/2016 12:27 PM","203","SALIMIN , JEVA","C/Out"
"OUR COMPANY","Fingerpint","","9/13/2016 12:28 PM","203","SALIMIN , JEVA","C/In"
"OUR COMPANY","Fingerpint","","9/13/2016 6:19 PM","203","SALIMIN , JEVA","C/Out"
"OUR COMPANY","Fingerpint","","9/14/2016 7:56 AM","203","SALIMIN , JEVA","C/In"
"OUR COMPANY","Fingerpint","","9/14/2016 12:53 PM","203","SALIMIN , JEVA","C/Out"
"OUR COMPANY","Fingerpint","","9/14/2016 12:54 PM","203","SALIMIN , JEVA","C/In"
"OUR COMPANY","Fingerpint","","9/14/2016 5:46 PM","203","SALIMIN , JEVA","C/Out"
"OUR COMPANY","Fingerpint","","9/15/2016 12:06 PM","203","SALIMIN , JEVA","C/Out"
"OUR COMPANY","Fingerpint","","9/15/2016 12:07 PM","203","SALIMIN , JEVA","C/In"
"OUR COMPANY","Fingerpint","","9/15/2016 5:03 PM","203","SALIMIN , JEVA","C/Out"
"OUR COMPANY","Fingerpint","","9/16/2016 12:25 PM","203","SALIMIN , JEVA","C/Out"
"OUR COMPANY","Fingerpint","","9/16/2016 12:26 PM","203","SALIMIN , JEVA","C/In"
"OUR COMPANY","Fingerpint","","9/19/2016 12:16 PM","203","SALIMIN , JEVA","C/Out"
"OUR COMPANY","Fingerpint","","9/19/2016 12:17 PM","203","SALIMIN , JEVA","C/In"
"OUR COMPANY","Fingerpint","","9/19/2016 5:14 PM","203","SALIMIN , JEVA","C/Out"
"OUR COMPANY","Fingerpint","","9/20/2016 5:13 PM","203","SALIMIN , JEVA","C/Out"
"OUR COMPANY","Fingerpint","","9/26/2016 7:55 AM","203","SALIMIN , JEVA","C/In"
"OUR COMPANY","Fingerpint","","9/28/2016 12:10 PM","203","SALIMIN , JEVA","C/Out"
"OUR COMPANY","Fingerpint","","9/28/2016 12:11 PM","203","SALIMIN , JEVA","C/In"
"OUR COMPANY","Fingerpint","","9/28/2016 5:26 PM","203","SALIMIN , JEVA","C/Out"
"OUR COMPANY","Fingerpint","","9/29/2016 12:02 PM","203","SALIMIN , JEVA","C/Out"
"OUR COMPANY","Fingerpint","","9/29/2016 12:02 PM","203","SALIMIN , JEVA","C/In"
"OUR COMPANY","Fingerpint","","9/29/2016 12:03 PM","203","SALIMIN , JEVA","C/In"
"OUR COMPANY","Fingerpint","","9/29/2016 5:11 PM","203","SALIMIN , JEVA","C/Out"
"OUR COMPANY","Fingerpint","","9/30/2016 12:02 PM","203","SALIMIN , JEVA","C/Out"
"OUR COMPANY","Fingerpint","","9/30/2016 12:12 PM","203","SALIMIN , JEVA","C/In"
"OUR COMPANY","Fingerpint","","9/30/2016 5:24 PM","203","SALIMIN , JEVA","C/Out"
"OUR COMPANY","Fingerpint","","10/13/2016 5:53 PM","203","SALIMIN , JEVA","C/Out"
"OUR COMPANY","Fingerpint","","10/17/2016 12:01 PM","203","SALIMIN , JEVA","C/Out"
"OUR COMPANY","Fingerpint","","10/17/2016 12:02 PM","203","SALIMIN , JEVA","C/In"
"OUR COMPANY","Fingerpint","","10/17/2016 6:23 PM","203","SALIMIN , JEVA","C/Out"
"OUR COMPANY","Fingerpint","","10/18/2016 12:44 PM","203","SALIMIN , JEVA","C/Out"
"OUR COMPANY","Fingerpint","","10/18/2016 12:45 PM","203","SALIMIN , JEVA","C/In"
"OUR COMPANY","Fingerpint","","10/18/2016 5:50 PM","203","SALIMIN , JEVA","C/Out"
"OUR COMPANY","Fingerpint","","10/19/2016 7:48 AM","203","SALIMIN , JEVA","C/In"
"OUR COMPANY","Fingerpint","","10/19/2016 6:49 PM","203","SALIMIN , JEVA","C/Out"
"OUR COMPANY","Fingerpint","","10/25/2016 6:11 PM","203","SALIMIN , JEVA","C/Out"
"OUR COMPANY","Fingerpint","","11/2/2016 12:43 PM","203","SALIMIN , JEVA","C/Out"
"OUR COMPANY","Fingerpint","","11/2/2016 12:45 PM","203","SALIMIN , JEVA","C/In"
"OUR COMPANY","Fingerpint","","11/2/2016 6:05 PM","203","SALIMIN , JEVA","C/Out"
"OUR COMPANY","Fingerpint","","11/3/2016 6:25 PM","203","SALIMIN , JEVA","C/Out"
"OUR COMPANY","Fingerpint","","11/4/2016 5:16 PM","203","SALIMIN , JEVA","C/Out"
"OUR COMPANY","Fingerpint","","11/7/2016 5:48 PM","203","SALIMIN , JEVA","C/Out"
"OUR COMPANY","Fingerpint","","11/8/2016 12:05 PM","203","SALIMIN , JEVA","C/Out"
"OUR COMPANY","Fingerpint","","11/8/2016 12:06 PM","203","SALIMIN , JEVA","C/In"
"OUR COMPANY","Fingerpint","","11/8/2016 6:12 PM","203","SALIMIN , JEVA","C/Out"
"OUR COMPANY","Fingerpint","","11/8/2016 6:13 PM","203","SALIMIN , JEVA","C/Out"
"OUR COMPANY","Fingerpint","","11/9/2016 7:56 AM","203","SALIMIN , JEVA","C/In"
"OUR COMPANY","Fingerpint","","11/9/2016 12:07 PM","203","SALIMIN , JEVA","C/Out"
"OUR COMPANY","Fingerpint","","11/9/2016 12:08 PM","203","SALIMIN , JEVA","C/In"
"OUR COMPANY","Fingerpint","","11/9/2016 5:06 PM","203","SALIMIN , JEVA","C/Out"
"OUR COMPANY","Fingerpint","","11/10/2016 7:26 AM","203","SALIMIN , JEVA","C/In"
"OUR COMPANY","Fingerpint","","11/10/2016 12:15 PM","203","SALIMIN , JEVA","C/Out"
"OUR COMPANY","Fingerpint","","11/10/2016 12:16 PM","203","SALIMIN , JEVA","C/In"
"OUR COMPANY","Fingerpint","","11/11/2016 12:43 PM","203","SALIMIN , JEVA","C/Out"
"OUR COMPANY","Fingerpint","","11/11/2016 12:43 PM","203","SALIMIN , JEVA","C/In"
"OUR COMPANY","Fingerpint","","11/11/2016 12:44 PM","203","SALIMIN , JEVA","C/In"
"OUR COMPANY","Fingerpint","","11/11/2016 5:56 PM","203","SALIMIN , JEVA","C/Out"
"OUR COMPANY","Fingerpint","","11/14/2016 7:47 AM","203","SALIMIN , JEVA","C/In"
"OUR COMPANY","Fingerpint","","11/14/2016 12:28 PM","203","SALIMIN , JEVA","C/Out"
"OUR COMPANY","Fingerpint","","11/14/2016 12:29 PM","203","SALIMIN , JEVA","C/In"
"OUR COMPANY","Fingerpint","","11/14/2016 6:10 PM","203","SALIMIN , JEVA","C/Out"
"OUR COMPANY","Fingerpint","","11/15/2016 7:56 AM","203","SALIMIN , JEVA","C/In"
"OUR COMPANY","Fingerpint","","11/15/2016 12:24 PM","203","SALIMIN , JEVA","C/Out"
"OUR COMPANY","Fingerpint","","11/15/2016 12:24 PM","203","SALIMIN , JEVA","C/In"
"OUR COMPANY","Fingerpint","","11/15/2016 6:09 PM","203","SALIMIN , JEVA","C/In"
"OUR COMPANY","Fingerpint","","11/15/2016 6:10 PM","203","SALIMIN , JEVA","C/Out"
"OUR COMPANY","Fingerpint","","11/16/2016 7:52 AM","203","SALIMIN , JEVA","C/In"
"OUR COMPANY","Fingerpint","","11/16/2016 12:05 PM","203","SALIMIN , JEVA","C/Out"
"OUR COMPANY","Fingerpint","","11/16/2016 12:06 PM","203","SALIMIN , JEVA","C/In"
"OUR COMPANY","Fingerpint","","11/16/2016 5:52 PM","203","SALIMIN , JEVA","C/Out"
"OUR COMPANY","Fingerpint","","11/17/2016 7:53 AM","203","SALIMIN , JEVA","C/In"
"OUR COMPANY","Fingerpint","","11/17/2016 12:03 PM","203","SALIMIN , JEVA","C/Out"
"OUR COMPANY","Fingerpint","","11/17/2016 12:04 PM","203","SALIMIN , JEVA","C/In"
"OUR COMPANY","Fingerpint","","11/17/2016 6:21 PM","203","SALIMIN , JEVA","C/Out"
"OUR COMPANY","Fingerpint","","11/18/2016 5:32 PM","203","SALIMIN , JEVA","C/Out"
"OUR COMPANY","Fingerpint","","11/21/2016 12:05 PM","203","SALIMIN , JEVA","C/Out"
"OUR COMPANY","Fingerpint","","11/21/2016 12:06 PM","203","SALIMIN , JEVA","C/In"
"OUR COMPANY","Fingerpint","","11/22/2016 7:55 AM","203","SALIMIN , JEVA","C/In"
"OUR COMPANY","Fingerpint","","11/22/2016 12:44 PM","203","SALIMIN , JEVA","C/Out"
"OUR COMPANY","Fingerpint","","11/22/2016 12:45 PM","203","SALIMIN , JEVA","C/In"
"OUR COMPANY","Fingerpint","","11/22/2016 5:54 PM","203","SALIMIN , JEVA","C/Out"
"OUR COMPANY","Fingerpint","","11/23/2016 12:40 PM","203","SALIMIN , JEVA","C/In"
"OUR COMPANY","Fingerpint","","11/23/2016 5:56 PM","203","SALIMIN , JEVA","C/Out"
"OUR COMPANY","Fingerpint","","11/24/2016 7:57 AM","203","SALIMIN , JEVA","C/In"
"OUR COMPANY","Fingerpint","","11/24/2016 12:39 PM","203","SALIMIN , JEVA","C/Out"
"OUR COMPANY","Fingerpint","","11/24/2016 6:42 PM","203","SALIMIN , JEVA","C/Out"
"OUR COMPANY","Fingerpint","","11/25/2016 12:39 PM","203","SALIMIN , JEVA","C/Out"
"OUR COMPANY","Fingerpint","","11/25/2016 12:46 PM","203","SALIMIN , JEVA","C/In"
"OUR COMPANY","Fingerpint","","11/25/2016 6:34 PM","203","SALIMIN , JEVA","C/Out"
"OUR COMPANY","Fingerpint","","11/29/2016 12:14 PM","203","SALIMIN , JEVA","C/Out"
"OUR COMPANY","Fingerpint","","11/29/2016 12:15 PM","203","SALIMIN , JEVA","C/In"
"OUR COMPANY","Fingerpint","","11/29/2016 5:48 PM","203","SALIMIN , JEVA","C/Out"
"OUR COMPANY","Fingerpint","","12/1/2016 5:32 PM","203","SALIMIN , JEVA","C/Out"
"OUR COMPANY","Fingerpint","","12/2/2016 12:29 PM","203","SALIMIN , JEVA","C/Out"
"OUR COMPANY","Fingerpint","","12/2/2016 12:30 PM","203","SALIMIN , JEVA","C/In"
"OUR COMPANY","Fingerpint","","12/2/2016 5:33 PM","203","SALIMIN , JEVA","C/Out"
"OUR COMPANY","Fingerpint","","8/1/2016 8:12 AM","204","TOLENTINO , JEAN PAUL","C/In"
"OUR COMPANY","Fingerpint","","8/1/2016 12:04 PM","204","TOLENTINO , JEAN PAUL","C/Out"
"OUR COMPANY","Fingerpint","","8/1/2016 12:05 PM","204","TOLENTINO , JEAN PAUL","C/In"
"OUR COMPANY","Fingerpint","","8/1/2016 5:23 PM","204","TOLENTINO , JEAN PAUL","C/Out"
"OUR COMPANY","Fingerpint","","8/2/2016 8:17 AM","204","TOLENTINO , JEAN PAUL","C/In"
"OUR COMPANY","Fingerpint","","8/2/2016 12:26 PM","204","TOLENTINO , JEAN PAUL","C/Out"
"OUR COMPANY","Fingerpint","","8/2/2016 12:27 PM","204","TOLENTINO , JEAN PAUL","C/In"
"OUR COMPANY","Fingerpint","","8/15/2016 7:55 AM","204","TOLENTINO , JEAN PAUL","C/In"
"OUR COMPANY","Fingerpint","","8/15/2016 12:24 PM","204","TOLENTINO , JEAN PAUL","C/Out"
"OUR COMPANY","Fingerpint","","8/15/2016 12:25 PM","204","TOLENTINO , JEAN PAUL","C/In"
"OUR COMPANY","Fingerpint","","8/15/2016 5:39 PM","204","TOLENTINO , JEAN PAUL","C/Out"
"OUR COMPANY","Fingerpint","","8/16/2016 8:17 AM","204","TOLENTINO , JEAN PAUL","C/In"
"OUR COMPANY","Fingerpint","","8/16/2016 12:00 PM","204","TOLENTINO , JEAN PAUL","C/Out"
"OUR COMPANY","Fingerpint","","8/16/2016 12:01 PM","204","TOLENTINO , JEAN PAUL","C/In"
"OUR COMPANY","Fingerpint","","8/16/2016 6:14 PM","204","TOLENTINO , JEAN PAUL","C/Out"
"OUR COMPANY","Fingerpint","","8/17/2016 8:14 AM","204","TOLENTINO , JEAN PAUL","C/In"
"OUR COMPANY","Fingerpint","","8/17/2016 12:01 PM","204","TOLENTINO , JEAN PAUL","C/Out"
"OUR COMPANY","Fingerpint","","8/17/2016 12:02 PM","204","TOLENTINO , JEAN PAUL","C/In"
"OUR COMPANY","Fingerpint","","8/17/2016 6:17 PM","204","TOLENTINO , JEAN PAUL","C/Out"
"OUR COMPANY","Fingerpint","","8/31/2016 12:13 PM","204","TOLENTINO , JEAN PAUL","C/Out"
"OUR COMPANY","Fingerpint","","8/31/2016 12:14 PM","204","TOLENTINO , JEAN PAUL","C/In"
"OUR COMPANY","Fingerpint","","8/31/2016 5:49 PM","204","TOLENTINO , JEAN PAUL","C/Out"
"OUR COMPANY","Fingerpint","","9/1/2016 12:06 PM","204","TOLENTINO , JEAN PAUL","C/Out"
"OUR COMPANY","Fingerpint","","9/1/2016 12:07 PM","204","TOLENTINO , JEAN PAUL","C/In"
"OUR COMPANY","Fingerpint","","9/1/2016 5:46 PM","204","TOLENTINO , JEAN PAUL","C/Out"
"OUR COMPANY","Fingerpint","","9/2/2016 12:23 PM","204","TOLENTINO , JEAN PAUL","C/Out"
"OUR COMPANY","Fingerpint","","9/2/2016 12:32 PM","204","TOLENTINO , JEAN PAUL","C/In"
"OUR COMPANY","Fingerpint","","9/2/2016 7:15 PM","204","TOLENTINO , JEAN PAUL","C/Out"
"OUR COMPANY","Fingerpint","","9/5/2016 12:17 PM","204","TOLENTINO , JEAN PAUL","C/Out"
"OUR COMPANY","Fingerpint","","9/5/2016 12:18 PM","204","TOLENTINO , JEAN PAUL","C/In"
"OUR COMPANY","Fingerpint","","9/5/2016 5:26 PM","204","TOLENTINO , JEAN PAUL","C/Out"
"OUR COMPANY","Fingerpint","","9/6/2016 12:06 PM","204","TOLENTINO , JEAN PAUL","C/Out"
"OUR COMPANY","Fingerpint","","9/6/2016 12:07 PM","204","TOLENTINO , JEAN PAUL","C/In"
"OUR COMPANY","Fingerpint","","9/6/2016 5:20 PM","204","TOLENTINO , JEAN PAUL","C/In"
"OUR COMPANY","Fingerpint","","9/7/2016 12:10 PM","204","TOLENTINO , JEAN PAUL","C/Out"
"OUR COMPANY","Fingerpint","","9/7/2016 12:11 PM","204","TOLENTINO , JEAN PAUL","C/In"
"OUR COMPANY","Fingerpint","","9/7/2016 5:47 PM","204","TOLENTINO , JEAN PAUL","C/Out"
"OUR COMPANY","Fingerpint","","9/8/2016 8:38 AM","204","TOLENTINO , JEAN PAUL","C/In"
"OUR COMPANY","Fingerpint","","9/8/2016 12:39 PM","204","TOLENTINO , JEAN PAUL","C/Out"
"OUR COMPANY","Fingerpint","","9/8/2016 12:40 PM","204","TOLENTINO , JEAN PAUL","C/In"
"OUR COMPANY","Fingerpint","","9/8/2016 6:29 PM","204","TOLENTINO , JEAN PAUL","C/Out"
"OUR COMPANY","Fingerpint","","9/9/2016 12:04 PM","204","TOLENTINO , JEAN PAUL","C/Out"
"OUR COMPANY","Fingerpint","","9/9/2016 12:10 PM","204","TOLENTINO , JEAN PAUL","C/In"
"OUR COMPANY","Fingerpint","","9/9/2016 5:41 PM","204","TOLENTINO , JEAN PAUL","C/Out"
"OUR COMPANY","Fingerpint","","9/13/2016 8:29 AM","204","TOLENTINO , JEAN PAUL","C/In"
"OUR COMPANY","Fingerpint","","9/13/2016 12:28 PM","204","TOLENTINO , JEAN PAUL","C/Out"
"OUR COMPANY","Fingerpint","","9/13/2016 12:29 PM","204","TOLENTINO , JEAN PAUL","C/In"
"OUR COMPANY","Fingerpint","","9/13/2016 5:25 PM","204","TOLENTINO , JEAN PAUL","C/Out"
"OUR COMPANY","Fingerpint","","9/14/2016 12:18 PM","204","TOLENTINO , JEAN PAUL","C/Out"
"OUR COMPANY","Fingerpint","","9/14/2016 12:19 PM","204","TOLENTINO , JEAN PAUL","C/In"
"OUR COMPANY","Fingerpint","","9/14/2016 5:47 PM","204","TOLENTINO , JEAN PAUL","C/Out"
"OUR COMPANY","Fingerpint","","9/15/2016 12:19 PM","204","TOLENTINO , JEAN PAUL","C/Out"
"OUR COMPANY","Fingerpint","","9/15/2016 12:20 PM","204","TOLENTINO , JEAN PAUL","C/In"
"OUR COMPANY","Fingerpint","","9/15/2016 6:04 PM","204","TOLENTINO , JEAN PAUL","C/Out"
"OUR COMPANY","Fingerpint","","9/16/2016 12:15 PM","204","TOLENTINO , JEAN PAUL","C/Out"
"OUR COMPANY","Fingerpint","","9/16/2016 12:16 PM","204","TOLENTINO , JEAN PAUL","C/In"
"OUR COMPANY","Fingerpint","","9/16/2016 5:54 PM","204","TOLENTINO , JEAN PAUL","C/Out"
"OUR COMPANY","Fingerpint","","9/19/2016 12:19 PM","204","TOLENTINO , JEAN PAUL","C/Out"
"OUR COMPANY","Fingerpint","","9/19/2016 12:20 PM","204","TOLENTINO , JEAN PAUL","C/In"
"OUR COMPANY","Fingerpint","","9/19/2016 5:31 PM","204","TOLENTINO , JEAN PAUL","C/Out"
"OUR COMPANY","Fingerpint","","9/20/2016 12:55 PM","204","TOLENTINO , JEAN PAUL","C/Out"
"OUR COMPANY","Fingerpint","","9/20/2016 12:56 PM","204","TOLENTINO , JEAN PAUL","C/In"
"OUR COMPANY","Fingerpint","","9/20/2016 6:05 PM","204","TOLENTINO , JEAN PAUL","C/Out"
"OUR COMPANY","Fingerpint","","9/27/2016 12:49 PM","204","TOLENTINO , JEAN PAUL","C/Out"
"OUR COMPANY","Fingerpint","","9/27/2016 12:50 PM","204","TOLENTINO , JEAN PAUL","C/In"
"OUR COMPANY","Fingerpint","","9/27/2016 6:05 PM","204","TOLENTINO , JEAN PAUL","C/Out"
"OUR COMPANY","Fingerpint","","9/28/2016 12:15 PM","204","TOLENTINO , JEAN PAUL","C/Out"
"OUR COMPANY","Fingerpint","","9/28/2016 12:16 PM","204","TOLENTINO , JEAN PAUL","C/In"
"OUR COMPANY","Fingerpint","","9/28/2016 5:56 PM","204","TOLENTINO , JEAN PAUL","C/Out"
"OUR COMPANY","Fingerpint","","9/29/2016 12:01 PM","204","TOLENTINO , JEAN PAUL","C/Out"
"OUR COMPANY","Fingerpint","","9/29/2016 12:02 PM","204","TOLENTINO , JEAN PAUL","C/In"
"OUR COMPANY","Fingerpint","","9/30/2016 12:19 PM","204","TOLENTINO , JEAN PAUL","C/Out"
"OUR COMPANY","Fingerpint","","9/30/2016 12:54 PM","204","TOLENTINO , JEAN PAUL","C/In"
"OUR COMPANY","Fingerpint","","9/30/2016 6:00 PM","204","TOLENTINO , JEAN PAUL","C/Out"
"OUR COMPANY","Fingerpint","","10/10/2016 6:42 PM","204","TOLENTINO , JEAN PAUL","C/Out"
"OUR COMPANY","Fingerpint","","10/11/2016 6:28 PM","204","TOLENTINO , JEAN PAUL","C/Out"
"OUR COMPANY","Fingerpint","","10/13/2016 8:46 AM","204","TOLENTINO , JEAN PAUL","C/In"
"OUR COMPANY","Fingerpint","","10/13/2016 12:40 PM","204","TOLENTINO , JEAN PAUL","C/Out"
"OUR COMPANY","Fingerpint","","10/13/2016 12:41 PM","204","TOLENTINO , JEAN PAUL","C/In"
"OUR COMPANY","Fingerpint","","10/13/2016 6:17 PM","204","TOLENTINO , JEAN PAUL","C/Out"
"OUR COMPANY","Fingerpint","","10/14/2016 12:07 PM","204","TOLENTINO , JEAN PAUL","C/Out"
"OUR COMPANY","Fingerpint","","10/14/2016 12:08 PM","204","TOLENTINO , JEAN PAUL","C/In"
"OUR COMPANY","Fingerpint","","10/14/2016 5:23 PM","204","TOLENTINO , JEAN PAUL","C/Out"
"OUR COMPANY","Fingerpint","","10/17/2016 12:33 PM","204","TOLENTINO , JEAN PAUL","C/Out"
"OUR COMPANY","Fingerpint","","10/17/2016 12:34 PM","204","TOLENTINO , JEAN PAUL","C/In"
"OUR COMPANY","Fingerpint","","10/17/2016 6:23 PM","204","TOLENTINO , JEAN PAUL","C/Out"
"OUR COMPANY","Fingerpint","","10/18/2016 12:44 PM","204","TOLENTINO , JEAN PAUL","C/Out"
"OUR COMPANY","Fingerpint","","10/18/2016 12:45 PM","204","TOLENTINO , JEAN PAUL","C/In"
"OUR COMPANY","Fingerpint","","10/18/2016 5:56 PM","204","TOLENTINO , JEAN PAUL","C/Out"
"OUR COMPANY","Fingerpint","","10/19/2016 6:38 PM","204","TOLENTINO , JEAN PAUL","C/Out"
"OUR COMPANY","Fingerpint","","10/20/2016 12:06 PM","204","TOLENTINO , JEAN PAUL","C/Out"
"OUR COMPANY","Fingerpint","","10/20/2016 12:07 PM","204","TOLENTINO , JEAN PAUL","C/In"
"OUR COMPANY","Fingerpint","","10/20/2016 6:30 PM","204","TOLENTINO , JEAN PAUL","C/Out"
"OUR COMPANY","Fingerpint","","10/21/2016 12:24 PM","204","TOLENTINO , JEAN PAUL","C/Out"
"OUR COMPANY","Fingerpint","","10/21/2016 12:25 PM","204","TOLENTINO , JEAN PAUL","C/In"
"OUR COMPANY","Fingerpint","","10/21/2016 5:53 PM","204","TOLENTINO , JEAN PAUL","C/Out"
"OUR COMPANY","Fingerpint","","10/24/2016 12:55 PM","204","TOLENTINO , JEAN PAUL","C/Out"
"OUR COMPANY","Fingerpint","","10/24/2016 12:56 PM","204","TOLENTINO , JEAN PAUL","C/In"
"OUR COMPANY","Fingerpint","","10/24/2016 7:03 PM","204","TOLENTINO , JEAN PAUL","C/Out"
"OUR COMPANY","Fingerpint","","10/25/2016 8:28 AM","204","TOLENTINO , JEAN PAUL","C/In"
"OUR COMPANY","Fingerpint","","10/25/2016 12:07 PM","204","TOLENTINO , JEAN PAUL","C/Out"
"OUR COMPANY","Fingerpint","","10/25/2016 6:10 PM","204","TOLENTINO , JEAN PAUL","C/Out"
"OUR COMPANY","Fingerpint","","11/2/2016 8:31 AM","204","TOLENTINO , JEAN PAUL","C/In"
"OUR COMPANY","Fingerpint","","11/2/2016 12:07 PM","204","TOLENTINO , JEAN PAUL","C/Out"
"OUR COMPANY","Fingerpint","","11/2/2016 12:08 PM","204","TOLENTINO , JEAN PAUL","C/In"
"OUR COMPANY","Fingerpint","","11/2/2016 5:51 PM","204","TOLENTINO , JEAN PAUL","C/Out"
"OUR COMPANY","Fingerpint","","11/3/2016 12:00 PM","204","TOLENTINO , JEAN PAUL","C/Out"
"OUR COMPANY","Fingerpint","","11/3/2016 12:01 PM","204","TOLENTINO , JEAN PAUL","C/In"
"OUR COMPANY","Fingerpint","","11/3/2016 6:09 PM","204","TOLENTINO , JEAN PAUL","C/Out"
"OUR COMPANY","Fingerpint","","11/4/2016 12:11 PM","204","TOLENTINO , JEAN PAUL","C/Out"
"OUR COMPANY","Fingerpint","","11/4/2016 12:12 PM","204","TOLENTINO , JEAN PAUL","C/In"
"OUR COMPANY","Fingerpint","","11/7/2016 12:22 PM","204","TOLENTINO , JEAN PAUL","C/Out"
"OUR COMPANY","Fingerpint","","11/7/2016 12:23 PM","204","TOLENTINO , JEAN PAUL","C/In"
"OUR COMPANY","Fingerpint","","11/7/2016 6:03 PM","204","TOLENTINO , JEAN PAUL","C/Out"
"OUR COMPANY","Fingerpint","","11/8/2016 8:04 AM","204","TOLENTINO , JEAN PAUL","C/In"
"OUR COMPANY","Fingerpint","","11/8/2016 6:12 PM","204","TOLENTINO , JEAN PAUL","C/Out"
"OUR COMPANY","Fingerpint","","11/14/2016 12:59 PM","204","TOLENTINO , JEAN PAUL","C/Out"
"OUR COMPANY","Fingerpint","","11/14/2016 1:00 PM","204","TOLENTINO , JEAN PAUL","C/In"
"OUR COMPANY","Fingerpint","","11/14/2016 6:04 PM","204","TOLENTINO , JEAN PAUL","C/Out"
"OUR COMPANY","Fingerpint","","11/15/2016 12:12 PM","204","TOLENTINO , JEAN PAUL","C/Out"
"OUR COMPANY","Fingerpint","","11/15/2016 12:13 PM","204","TOLENTINO , JEAN PAUL","C/In"
"OUR COMPANY","Fingerpint","","11/15/2016 6:00 PM","204","TOLENTINO , JEAN PAUL","C/Out"
"OUR COMPANY","Fingerpint","","11/16/2016 12:04 PM","204","TOLENTINO , JEAN PAUL","C/Out"
"OUR COMPANY","Fingerpint","","11/16/2016 12:05 PM","204","TOLENTINO , JEAN PAUL","C/In"
"OUR COMPANY","Fingerpint","","11/16/2016 5:52 PM","204","TOLENTINO , JEAN PAUL","C/Out"
"OUR COMPANY","Fingerpint","","11/17/2016 12:01 PM","204","TOLENTINO , JEAN PAUL","C/Out"
"OUR COMPANY","Fingerpint","","11/17/2016 12:03 PM","204","TOLENTINO , JEAN PAUL","C/In"
"OUR COMPANY","Fingerpint","","11/17/2016 5:42 PM","204","TOLENTINO , JEAN PAUL","C/Out"
"OUR COMPANY","Fingerpint","","11/18/2016 12:00 PM","204","TOLENTINO , JEAN PAUL","C/Out"
"OUR COMPANY","Fingerpint","","11/18/2016 12:01 PM","204","TOLENTINO , JEAN PAUL","C/In"
"OUR COMPANY","Fingerpint","","11/18/2016 5:35 PM","204","TOLENTINO , JEAN PAUL","C/Out"
"OUR COMPANY","Fingerpint","","11/21/2016 12:24 PM","204","TOLENTINO , JEAN PAUL","C/Out"
"OUR COMPANY","Fingerpint","","11/21/2016 12:27 PM","204","TOLENTINO , JEAN PAUL","C/In"
"OUR COMPANY","Fingerpint","","11/21/2016 6:01 PM","204","TOLENTINO , JEAN PAUL","C/Out"
"OUR COMPANY","Fingerpint","","11/22/2016 12:11 PM","204","TOLENTINO , JEAN PAUL","C/Out"
"OUR COMPANY","Fingerpint","","11/22/2016 12:13 PM","204","TOLENTINO , JEAN PAUL","C/In"
"OUR COMPANY","Fingerpint","","11/22/2016 12:44 PM","204","TOLENTINO , JEAN PAUL","C/In"
"OUR COMPANY","Fingerpint","","11/22/2016 5:53 PM","204","TOLENTINO , JEAN PAUL","C/Out"
"OUR COMPANY","Fingerpint","","11/25/2016 12:20 PM","204","TOLENTINO , JEAN PAUL","C/Out"
"OUR COMPANY","Fingerpint","","11/25/2016 12:28 PM","204","TOLENTINO , JEAN PAUL","C/In"
"OUR COMPANY","Fingerpint","","11/25/2016 6:27 PM","204","TOLENTINO , JEAN PAUL","C/Out"
"OUR COMPANY","Fingerpint","","11/29/2016 6:01 PM","204","TOLENTINO , JEAN PAUL","C/Out"
"OUR COMPANY","Fingerpint","","12/1/2016 12:09 PM","204","TOLENTINO , JEAN PAUL","C/Out"
"OUR COMPANY","Fingerpint","","12/1/2016 12:10 PM","204","TOLENTINO , JEAN PAUL","C/In"
"OUR COMPANY","Fingerpint","","12/1/2016 5:37 PM","204","TOLENTINO , JEAN PAUL","C/Out"
"OUR COMPANY","Fingerpint","","12/2/2016 6:51 PM","204","TOLENTINO , JEAN PAUL","C/Out"
"OUR COMPANY","Fingerpint","","8/1/2016 7:41 AM","206","IRAJI , OMAR","C/In"
"OUR COMPANY","Fingerpint","","8/1/2016 12:04 PM","206","IRAJI , OMAR","C/Out"
"OUR COMPANY","Fingerpint","","8/1/2016 12:05 PM","206","IRAJI , OMAR","C/In"
"OUR COMPANY","Fingerpint","","8/1/2016 5:01 PM","206","IRAJI , OMAR","C/Out"
"OUR COMPANY","Fingerpint","","8/2/2016 7:41 AM","206","IRAJI , OMAR","C/In"
"OUR COMPANY","Fingerpint","","8/2/2016 12:08 PM","206","IRAJI , OMAR","C/Out"
"OUR COMPANY","Fingerpint","","8/2/2016 12:17 PM","206","IRAJI , OMAR","C/In"
"OUR COMPANY","Fingerpint","","8/2/2016 5:01 PM","206","IRAJI , OMAR","C/In"
"OUR COMPANY","Fingerpint","","8/15/2016 12:14 PM","206","IRAJI , OMAR","C/Out"
"OUR COMPANY","Fingerpint","","8/15/2016 12:16 PM","206","IRAJI , OMAR","C/In"
"OUR COMPANY","Fingerpint","","8/15/2016 5:00 PM","206","IRAJI , OMAR","C/Out"
"OUR COMPANY","Fingerpint","","8/16/2016 7:50 AM","206","IRAJI , OMAR","C/In"
"OUR COMPANY","Fingerpint","","8/16/2016 12:02 PM","206","IRAJI , OMAR","C/Out"
"OUR COMPANY","Fingerpint","","8/16/2016 12:27 PM","206","IRAJI , OMAR","C/In"
"OUR COMPANY","Fingerpint","","8/16/2016 5:00 PM","206","IRAJI , OMAR","C/Out"
"OUR COMPANY","Fingerpint","","8/17/2016 7:27 AM","206","IRAJI , OMAR","C/In"
"OUR COMPANY","Fingerpint","","8/17/2016 12:01 PM","206","IRAJI , OMAR","C/Out"
"OUR COMPANY","Fingerpint","","8/17/2016 12:02 PM","206","IRAJI , OMAR","C/In"
"OUR COMPANY","Fingerpint","","8/17/2016 5:02 PM","206","IRAJI , OMAR","C/Out"
"OUR COMPANY","Fingerpint","","8/19/2016 7:28 AM","206","IRAJI , OMAR","C/In"
"OUR COMPANY","Fingerpint","","8/19/2016 5:00 PM","206","IRAJI , OMAR","C/Out"
"OUR COMPANY","Fingerpint","","8/22/2016 8:12 AM","206","IRAJI , OMAR","C/In"
"OUR COMPANY","Fingerpint","","8/22/2016 12:04 PM","206","IRAJI , OMAR","C/Out"
"OUR COMPANY","Fingerpint","","8/22/2016 12:05 PM","206","IRAJI , OMAR","C/In"
"OUR COMPANY","Fingerpint","","8/22/2016 5:03 PM","206","IRAJI , OMAR","C/Out"
"OUR COMPANY","Fingerpint","","8/23/2016 7:56 AM","206","IRAJI , OMAR","C/In"
"OUR COMPANY","Fingerpint","","8/23/2016 12:01 PM","206","IRAJI , OMAR","C/Out"
"OUR COMPANY","Fingerpint","","8/23/2016 12:05 PM","206","IRAJI , OMAR","C/In"
"OUR COMPANY","Fingerpint","","8/23/2016 5:05 PM","206","IRAJI , OMAR","C/Out"
"OUR COMPANY","Fingerpint","","8/24/2016 7:18 AM","206","IRAJI , OMAR","C/In"
"OUR COMPANY","Fingerpint","","8/24/2016 12:03 PM","206","IRAJI , OMAR","C/Out"
"OUR COMPANY","Fingerpint","","8/24/2016 12:04 PM","206","IRAJI , OMAR","C/In"
"OUR COMPANY","Fingerpint","","8/24/2016 5:00 PM","206","IRAJI , OMAR","C/Out"
"OUR COMPANY","Fingerpint","","8/25/2016 7:45 AM","206","IRAJI , OMAR","C/In"
"OUR COMPANY","Fingerpint","","8/25/2016 12:28 PM","206","IRAJI , OMAR","C/Out"
"OUR COMPANY","Fingerpint","","8/25/2016 12:29 PM","206","IRAJI , OMAR","C/In"
"OUR COMPANY","Fingerpint","","8/25/2016 5:01 PM","206","IRAJI , OMAR","C/Out"
"OUR COMPANY","Fingerpint","","8/26/2016 7:29 AM","206","IRAJI , OMAR","C/In"
"OUR COMPANY","Fingerpint","","8/26/2016 12:06 PM","206","IRAJI , OMAR","C/Out"
"OUR COMPANY","Fingerpint","","8/26/2016 12:07 PM","206","IRAJI , OMAR","C/In"
"OUR COMPANY","Fingerpint","","8/26/2016 5:02 PM","206","IRAJI , OMAR","C/Out"
"OUR COMPANY","Fingerpint","","9/5/2016 7:45 AM","206","IRAJI , OMAR","C/In"
"OUR COMPANY","Fingerpint","","9/5/2016 12:09 PM","206","IRAJI , OMAR","C/Out"
"OUR COMPANY","Fingerpint","","9/5/2016 12:10 PM","206","IRAJI , OMAR","C/In"
"OUR COMPANY","Fingerpint","","9/5/2016 5:01 PM","206","IRAJI , OMAR","C/In"
"OUR COMPANY","Fingerpint","","9/6/2016 7:33 AM","206","IRAJI , OMAR","C/In"
"OUR COMPANY","Fingerpint","","9/6/2016 12:07 PM","206","IRAJI , OMAR","C/Out"
"OUR COMPANY","Fingerpint","","9/6/2016 12:08 PM","206","IRAJI , OMAR","C/In"
"OUR COMPANY","Fingerpint","","9/6/2016 5:09 PM","206","IRAJI , OMAR","C/Out"
"OUR COMPANY","Fingerpint","","9/7/2016 7:52 AM","206","IRAJI , OMAR","C/In"
"OUR COMPANY","Fingerpint","","9/7/2016 12:31 PM","206","IRAJI , OMAR","C/Out"
"OUR COMPANY","Fingerpint","","9/7/2016 12:32 PM","206","IRAJI , OMAR","C/In"
"OUR COMPANY","Fingerpint","","9/7/2016 5:03 PM","206","IRAJI , OMAR","C/Out"
"OUR COMPANY","Fingerpint","","9/8/2016 7:52 AM","206","IRAJI , OMAR","C/In"
"OUR COMPANY","Fingerpint","","9/8/2016 12:09 PM","206","IRAJI , OMAR","C/Out"
"OUR COMPANY","Fingerpint","","9/8/2016 12:10 PM","206","IRAJI , OMAR","C/In"
"OUR COMPANY","Fingerpint","","9/8/2016 5:01 PM","206","IRAJI , OMAR","C/Out"
"OUR COMPANY","Fingerpint","","9/9/2016 8:13 AM","206","IRAJI , OMAR","C/In"
"OUR COMPANY","Fingerpint","","9/9/2016 12:53 PM","206","IRAJI , OMAR","C/Out"
"OUR COMPANY","Fingerpint","","9/9/2016 12:54 PM","206","IRAJI , OMAR","C/In"
"OUR COMPANY","Fingerpint","","9/9/2016 5:06 PM","206","IRAJI , OMAR","C/Out"
"OUR COMPANY","Fingerpint","","9/13/2016 8:17 AM","206","IRAJI , OMAR","C/In"
"OUR COMPANY","Fingerpint","","9/13/2016 12:28 PM","206","IRAJI , OMAR","C/Out"
"OUR COMPANY","Fingerpint","","9/13/2016 12:46 PM","206","IRAJI , OMAR","C/In"
"OUR COMPANY","Fingerpint","","9/13/2016 6:19 PM","206","IRAJI , OMAR","C/Out"
"OUR COMPANY","Fingerpint","","9/16/2016 7:59 AM","206","IRAJI , OMAR","C/In"
"OUR COMPANY","Fingerpint","","9/16/2016 12:00 PM","206","IRAJI , OMAR","C/Out"
"OUR COMPANY","Fingerpint","","9/16/2016 12:02 PM","206","IRAJI , OMAR","C/In"
"OUR COMPANY","Fingerpint","","9/26/2016 7:37 AM","206","IRAJI , OMAR","C/In"
"OUR COMPANY","Fingerpint","","9/27/2016 7:28 AM","206","IRAJI , OMAR","C/In"
"OUR COMPANY","Fingerpint","","9/27/2016 12:00 PM","206","IRAJI , OMAR","C/Out"
"OUR COMPANY","Fingerpint","","9/27/2016 12:01 PM","206","IRAJI , OMAR","C/In"
"OUR COMPANY","Fingerpint","","9/28/2016 7:41 AM","206","IRAJI , OMAR","C/In"
"OUR COMPANY","Fingerpint","","9/28/2016 12:10 PM","206","IRAJI , OMAR","C/Out"
"OUR COMPANY","Fingerpint","","9/28/2016 12:11 PM","206","IRAJI , OMAR","C/In"
"OUR COMPANY","Fingerpint","","9/28/2016 5:26 PM","206","IRAJI , OMAR","C/Out"
"OUR COMPANY","Fingerpint","","9/29/2016 7:39 AM","206","IRAJI , OMAR","C/In"
"OUR COMPANY","Fingerpint","","9/29/2016 12:01 PM","206","IRAJI , OMAR","C/Out"
"OUR COMPANY","Fingerpint","","9/29/2016 12:02 PM","206","IRAJI , OMAR","C/In"
"OUR COMPANY","Fingerpint","","9/29/2016 5:01 PM","206","IRAJI , OMAR","C/Out"
"OUR COMPANY","Fingerpint","","9/30/2016 7:46 AM","206","IRAJI , OMAR","C/In"
"OUR COMPANY","Fingerpint","","9/30/2016 12:10 PM","206","IRAJI , OMAR","C/Out"
"OUR COMPANY","Fingerpint","","9/30/2016 12:11 PM","206","IRAJI , OMAR","C/In"
"OUR COMPANY","Fingerpint","","9/30/2016 5:01 PM","206","IRAJI , OMAR","C/Out"
"OUR COMPANY","Fingerpint","","10/10/2016 7:16 AM","206","IRAJI , OMAR","C/In"
"OUR COMPANY","Fingerpint","","10/11/2016 7:35 AM","206","IRAJI , OMAR","C/In"
"OUR COMPANY","Fingerpint","","10/11/2016 6:31 PM","206","IRAJI , OMAR","C/Out"
"OUR COMPANY","Fingerpint","","10/13/2016 7:46 AM","206","IRAJI , OMAR","C/In"
"OUR COMPANY","Fingerpint","","10/13/2016 12:29 PM","206","IRAJI , OMAR","C/Out"
"OUR COMPANY","Fingerpint","","10/13/2016 12:30 PM","206","IRAJI , OMAR","C/In"
"OUR COMPANY","Fingerpint","","10/13/2016 5:11 PM","206","IRAJI , OMAR","C/Out"
"OUR COMPANY","Fingerpint","","10/14/2016 7:12 AM","206","IRAJI , OMAR","C/In"
"OUR COMPANY","Fingerpint","","10/14/2016 12:07 PM","206","IRAJI , OMAR","C/Out"
"OUR COMPANY","Fingerpint","","10/14/2016 12:08 PM","206","IRAJI , OMAR","C/In"
"OUR COMPANY","Fingerpint","","10/14/2016 5:02 PM","206","IRAJI , OMAR","C/Out"
"OUR COMPANY","Fingerpint","","10/17/2016 7:59 AM","206","IRAJI , OMAR","C/In"
"OUR COMPANY","Fingerpint","","10/17/2016 12:02 PM","206","IRAJI , OMAR","C/Out"
"OUR COMPANY","Fingerpint","","10/17/2016 12:03 PM","206","IRAJI , OMAR","C/In"
"OUR COMPANY","Fingerpint","","10/17/2016 5:04 PM","206","IRAJI , OMAR","C/Out"
"OUR COMPANY","Fingerpint","","10/18/2016 7:50 AM","206","IRAJI , OMAR","C/In"
"OUR COMPANY","Fingerpint","","10/18/2016 12:01 PM","206","IRAJI , OMAR","C/Out"
"OUR COMPANY","Fingerpint","","10/18/2016 12:02 PM","206","IRAJI , OMAR","C/In"
"OUR COMPANY","Fingerpint","","10/18/2016 5:01 PM","206","IRAJI , OMAR","C/Out"
"OUR COMPANY","Fingerpint","","10/19/2016 8:10 AM","206","IRAJI , OMAR","C/In"
"OUR COMPANY","Fingerpint","","10/19/2016 12:09 PM","206","IRAJI , OMAR","C/Out"
"OUR COMPANY","Fingerpint","","10/19/2016 12:10 PM","206","IRAJI , OMAR","C/In"
"OUR COMPANY","Fingerpint","","10/19/2016 5:01 PM","206","IRAJI , OMAR","C/Out"
"OUR COMPANY","Fingerpint","","10/20/2016 7:52 AM","206","IRAJI , OMAR","C/In"
"OUR COMPANY","Fingerpint","","10/20/2016 12:07 PM","206","IRAJI , OMAR","C/Out"
"OUR COMPANY","Fingerpint","","10/20/2016 12:08 PM","206","IRAJI , OMAR","C/In"
"OUR COMPANY","Fingerpint","","10/20/2016 5:01 PM","206","IRAJI , OMAR","C/Out"
"OUR COMPANY","Fingerpint","","10/21/2016 7:47 AM","206","IRAJI , OMAR","C/In"
"OUR COMPANY","Fingerpint","","10/21/2016 5:00 PM","206","IRAJI , OMAR","C/Out"
"OUR COMPANY","Fingerpint","","10/24/2016 8:14 AM","206","IRAJI , OMAR","C/In"
"OUR COMPANY","Fingerpint","","10/24/2016 12:01 PM","206","IRAJI , OMAR","C/Out"
"OUR COMPANY","Fingerpint","","10/24/2016 12:02 PM","206","IRAJI , OMAR","C/Out"
"OUR COMPANY","Fingerpint","","10/24/2016 5:05 PM","206","IRAJI , OMAR","C/Out"
"OUR COMPANY","Fingerpint","","10/25/2016 7:14 AM","206","IRAJI , OMAR","C/In"
"OUR COMPANY","Fingerpint","","10/25/2016 12:06 PM","206","IRAJI , OMAR","C/Out"
"OUR COMPANY","Fingerpint","","10/25/2016 5:00 PM","206","IRAJI , OMAR","C/Out"
"OUR COMPANY","Fingerpint","","10/26/2016 7:32 AM","206","IRAJI , OMAR","C/In"
"OUR COMPANY","Fingerpint","","10/26/2016 12:23 PM","206","IRAJI , OMAR","C/Out"
"OUR COMPANY","Fingerpint","","10/26/2016 12:25 PM","206","IRAJI , OMAR","C/In"
"OUR COMPANY","Fingerpint","","10/26/2016 5:05 PM","206","IRAJI , OMAR","C/Out"
"OUR COMPANY","Fingerpint","","10/27/2016 7:43 AM","206","IRAJI , OMAR","C/In"
"OUR COMPANY","Fingerpint","","10/27/2016 12:01 PM","206","IRAJI , OMAR","C/Out"
"OUR COMPANY","Fingerpint","","10/27/2016 12:02 PM","206","IRAJI , OMAR","C/In"
"OUR COMPANY","Fingerpint","","10/28/2016 7:25 AM","206","IRAJI , OMAR","C/In"
"OUR COMPANY","Fingerpint","","10/28/2016 12:05 PM","206","IRAJI , OMAR","C/Out"
"OUR COMPANY","Fingerpint","","10/28/2016 12:06 PM","206","IRAJI , OMAR","C/In"
"OUR COMPANY","Fingerpint","","10/28/2016 5:04 PM","206","IRAJI , OMAR","C/Out"
"OUR COMPANY","Fingerpint","","11/11/2016 7:48 AM","206","IRAJI , OMAR","C/In"
"OUR COMPANY","Fingerpint","","11/14/2016 8:01 AM","206","IRAJI , OMAR","C/In"
"OUR COMPANY","Fingerpint","","11/14/2016 12:04 PM","206","IRAJI , OMAR","C/Out"
"OUR COMPANY","Fingerpint","","11/14/2016 12:05 PM","206","IRAJI , OMAR","C/In"
"OUR COMPANY","Fingerpint","","11/14/2016 5:02 PM","206","IRAJI , OMAR","C/Out"
"OUR COMPANY","Fingerpint","","11/15/2016 7:36 AM","206","IRAJI , OMAR","C/In"
"OUR COMPANY","Fingerpint","","11/15/2016 12:10 PM","206","IRAJI , OMAR","C/Out"
"OUR COMPANY","Fingerpint","","11/15/2016 12:15 PM","206","IRAJI , OMAR","C/In"
"OUR COMPANY","Fingerpint","","11/15/2016 5:01 PM","206","IRAJI , OMAR","C/Out"
"OUR COMPANY","Fingerpint","","11/16/2016 7:25 AM","206","IRAJI , OMAR","C/In"
"OUR COMPANY","Fingerpint","","11/16/2016 5:06 PM","206","IRAJI , OMAR","C/Out"
"OUR COMPANY","Fingerpint","","11/17/2016 7:37 AM","206","IRAJI , OMAR","C/In"
"OUR COMPANY","Fingerpint","","11/17/2016 12:07 PM","206","IRAJI , OMAR","C/Out"
"OUR COMPANY","Fingerpint","","11/17/2016 12:08 PM","206","IRAJI , OMAR","C/In"
"OUR COMPANY","Fingerpint","","11/17/2016 5:08 PM","206","IRAJI , OMAR","C/Out"
"OUR COMPANY","Fingerpint","","11/18/2016 7:37 AM","206","IRAJI , OMAR","C/In"
"OUR COMPANY","Fingerpint","","11/18/2016 12:00 PM","206","IRAJI , OMAR","C/Out"
"OUR COMPANY","Fingerpint","","11/18/2016 12:01 PM","206","IRAJI , OMAR","C/In"
"OUR COMPANY","Fingerpint","","11/18/2016 5:25 PM","206","IRAJI , OMAR","C/Out"
"OUR COMPANY","Fingerpint","","11/28/2016 7:40 AM","206","IRAJI , OMAR","C/In"
"OUR COMPANY","Fingerpint","","11/29/2016 7:26 AM","206","IRAJI , OMAR","C/In"
"OUR COMPANY","Fingerpint","","12/1/2016 7:54 AM","206","IRAJI , OMAR","C/In"
"OUR COMPANY","Fingerpint","","12/2/2016 7:11 AM","206","IRAJI , OMAR","C/In"
"OUR COMPANY","Fingerpint","","12/2/2016 12:24 PM","206","IRAJI , OMAR","C/Out"
"OUR COMPANY","Fingerpint","","12/2/2016 12:25 PM","206","IRAJI , OMAR","C/In"
"OUR COMPANY","Fingerpint","","12/2/2016 5:10 PM","206","IRAJI , OMAR","C/Out"
"OUR COMPANY","Fingerpint","","12/5/2016 7:39 AM","206","IRAJI , OMAR","C/In"
"OUR COMPANY","Fingerpint","","8/1/2016 6:37 AM","216","VISITACION , ROJELIO","C/In"
"OUR COMPANY","Fingerpint","","8/1/2016 12:03 PM","216","VISITACION , ROJELIO","C/Out"
"OUR COMPANY","Fingerpint","","8/1/2016 12:04 PM","216","VISITACION , ROJELIO","C/In"
"OUR COMPANY","Fingerpint","","8/1/2016 5:01 PM","216","VISITACION , ROJELIO","C/Out"
"OUR COMPANY","Fingerpint","","8/2/2016 6:55 AM","216","VISITACION , ROJELIO","C/In"
"OUR COMPANY","Fingerpint","","8/2/2016 12:17 PM","216","VISITACION , ROJELIO","C/Out"
"OUR COMPANY","Fingerpint","","8/2/2016 12:18 PM","216","VISITACION , ROJELIO","C/In"
"OUR COMPANY","Fingerpint","","8/2/2016 5:00 PM","216","VISITACION , ROJELIO","C/Out"
"OUR COMPANY","Fingerpint","","8/3/2016 6:35 AM","216","VISITACION , ROJELIO","C/In"
"OUR COMPANY","Fingerpint","","8/3/2016 12:21 PM","216","VISITACION , ROJELIO","C/Out"
"OUR COMPANY","Fingerpint","","8/3/2016 12:23 PM","216","VISITACION , ROJELIO","C/In"
"OUR COMPANY","Fingerpint","","8/3/2016 5:02 PM","216","VISITACION , ROJELIO","C/Out"
"OUR COMPANY","Fingerpint","","8/4/2016 6:35 AM","216","VISITACION , ROJELIO","C/In"
"OUR COMPANY","Fingerpint","","8/4/2016 12:28 PM","216","VISITACION , ROJELIO","C/Out"
"OUR COMPANY","Fingerpint","","8/4/2016 12:29 PM","216","VISITACION , ROJELIO","C/In"
"OUR COMPANY","Fingerpint","","8/4/2016 5:00 PM","216","VISITACION , ROJELIO","C/Out"
"OUR COMPANY","Fingerpint","","8/5/2016 7:07 AM","216","VISITACION , ROJELIO","C/In"
"OUR COMPANY","Fingerpint","","8/5/2016 12:18 PM","216","VISITACION , ROJELIO","C/Out"
"OUR COMPANY","Fingerpint","","8/5/2016 12:19 PM","216","VISITACION , ROJELIO","C/In"
"OUR COMPANY","Fingerpint","","8/15/2016 6:29 AM","216","VISITACION , ROJELIO","C/In"
"OUR COMPANY","Fingerpint","","8/15/2016 12:15 PM","216","VISITACION , ROJELIO","C/Out"
"OUR COMPANY","Fingerpint","","8/15/2016 12:16 PM","216","VISITACION , ROJELIO","C/In"
"OUR COMPANY","Fingerpint","","8/15/2016 5:01 PM","216","VISITACION , ROJELIO","C/Out"
"OUR COMPANY","Fingerpint","","8/16/2016 7:18 AM","216","VISITACION , ROJELIO","C/In"
"OUR COMPANY","Fingerpint","","8/16/2016 12:19 PM","216","VISITACION , ROJELIO","C/Out"
"OUR COMPANY","Fingerpint","","8/16/2016 12:20 PM","216","VISITACION , ROJELIO","C/In"
"OUR COMPANY","Fingerpint","","8/16/2016 5:05 PM","216","VISITACION , ROJELIO","C/Out"
"OUR COMPANY","Fingerpint","","8/17/2016 6:43 AM","216","VISITACION , ROJELIO","C/In"
"OUR COMPANY","Fingerpint","","8/17/2016 12:10 PM","216","VISITACION , ROJELIO","C/Out"
"OUR COMPANY","Fingerpint","","8/17/2016 12:11 PM","216","VISITACION , ROJELIO","C/In"
"OUR COMPANY","Fingerpint","","8/17/2016 5:00 PM","216","VISITACION , ROJELIO","C/Out"
"OUR COMPANY","Fingerpint","","8/19/2016 7:12 AM","216","VISITACION , ROJELIO","C/In"
"OUR COMPANY","Fingerpint","","8/19/2016 12:47 PM","216","VISITACION , ROJELIO","C/Out"
"OUR COMPANY","Fingerpint","","8/19/2016 12:48 PM","216","VISITACION , ROJELIO","C/In"
"OUR COMPANY","Fingerpint","","8/19/2016 5:04 PM","216","VISITACION , ROJELIO","C/Out"
"OUR COMPANY","Fingerpint","","8/22/2016 7:13 AM","216","VISITACION , ROJELIO","C/In"
"OUR COMPANY","Fingerpint","","8/22/2016 12:45 PM","216","VISITACION , ROJELIO","C/Out"
"OUR COMPANY","Fingerpint","","8/22/2016 12:46 PM","216","VISITACION , ROJELIO","C/In"
"OUR COMPANY","Fingerpint","","8/22/2016 5:00 PM","216","VISITACION , ROJELIO","C/Out"
"OUR COMPANY","Fingerpint","","8/23/2016 12:35 PM","216","VISITACION , ROJELIO","C/In"
"OUR COMPANY","Fingerpint","","8/23/2016 5:00 PM","216","VISITACION , ROJELIO","C/Out"
"OUR COMPANY","Fingerpint","","8/24/2016 6:36 AM","216","VISITACION , ROJELIO","C/In"
"OUR COMPANY","Fingerpint","","8/24/2016 12:14 PM","216","VISITACION , ROJELIO","C/Out"
"OUR COMPANY","Fingerpint","","8/24/2016 12:19 PM","216","VISITACION , ROJELIO","C/In"
"OUR COMPANY","Fingerpint","","8/24/2016 5:00 PM","216","VISITACION , ROJELIO","C/Out"
"OUR COMPANY","Fingerpint","","8/25/2016 6:36 AM","216","VISITACION , ROJELIO","C/In"
"OUR COMPANY","Fingerpint","","8/25/2016 12:24 PM","216","VISITACION , ROJELIO","C/Out"
"OUR COMPANY","Fingerpint","","8/25/2016 12:25 PM","216","VISITACION , ROJELIO","C/In"
"OUR COMPANY","Fingerpint","","8/25/2016 5:05 PM","216","VISITACION , ROJELIO","C/Out"
"OUR COMPANY","Fingerpint","","8/26/2016 6:41 AM","216","VISITACION , ROJELIO","C/In"
"OUR COMPANY","Fingerpint","","8/26/2016 12:05 PM","216","VISITACION , ROJELIO","C/Out"
"OUR COMPANY","Fingerpint","","8/26/2016 12:06 PM","216","VISITACION , ROJELIO","C/In"
"OUR COMPANY","Fingerpint","","8/26/2016 5:00 PM","216","VISITACION , ROJELIO","C/Out"
"OUR COMPANY","Fingerpint","","9/6/2016 6:31 AM","216","VISITACION , ROJELIO","C/In"
"OUR COMPANY","Fingerpint","","9/6/2016 12:32 PM","216","VISITACION , ROJELIO","C/Out"
"OUR COMPANY","Fingerpint","","9/6/2016 12:33 PM","216","VISITACION , ROJELIO","C/In"
"OUR COMPANY","Fingerpint","","9/6/2016 5:03 PM","216","VISITACION , ROJELIO","C/Out"
"OUR COMPANY","Fingerpint","","9/7/2016 7:01 AM","216","VISITACION , ROJELIO","C/In"
"OUR COMPANY","Fingerpint","","9/7/2016 12:20 PM","216","VISITACION , ROJELIO","C/Out"
"OUR COMPANY","Fingerpint","","9/7/2016 12:21 PM","216","VISITACION , ROJELIO","C/In"
"OUR COMPANY","Fingerpint","","9/7/2016 5:00 PM","216","VISITACION , ROJELIO","C/Out"
"OUR COMPANY","Fingerpint","","9/8/2016 6:39 AM","216","VISITACION , ROJELIO","C/In"
"OUR COMPANY","Fingerpint","","9/8/2016 12:36 PM","216","VISITACION , ROJELIO","C/Out"
"OUR COMPANY","Fingerpint","","9/8/2016 12:37 PM","216","VISITACION , ROJELIO","C/In"
"OUR COMPANY","Fingerpint","","9/8/2016 5:00 PM","216","VISITACION , ROJELIO","C/Out"
"OUR COMPANY","Fingerpint","","9/9/2016 7:55 AM","216","VISITACION , ROJELIO","C/In"
"OUR COMPANY","Fingerpint","","9/9/2016 5:00 PM","216","VISITACION , ROJELIO","C/Out"
"OUR COMPANY","Fingerpint","","9/13/2016 6:46 AM","216","VISITACION , ROJELIO","C/In"
"OUR COMPANY","Fingerpint","","9/13/2016 12:29 PM","216","VISITACION , ROJELIO","C/Out"
"OUR COMPANY","Fingerpint","","9/13/2016 12:30 PM","216","VISITACION , ROJELIO","C/In"
"OUR COMPANY","Fingerpint","","9/13/2016 5:01 PM","216","VISITACION , ROJELIO","C/Out"
"OUR COMPANY","Fingerpint","","9/14/2016 6:55 AM","216","VISITACION , ROJELIO","C/In"
"OUR COMPANY","Fingerpint","","9/26/2016 6:23 AM","216","VISITACION , ROJELIO","C/In"
"OUR COMPANY","Fingerpint","","9/26/2016 12:17 PM","216","VISITACION , ROJELIO","C/Out"
"OUR COMPANY","Fingerpint","","9/26/2016 12:18 PM","216","VISITACION , ROJELIO","C/In"
"OUR COMPANY","Fingerpint","","9/26/2016 5:00 PM","216","VISITACION , ROJELIO","C/Out"
"OUR COMPANY","Fingerpint","","9/27/2016 6:27 AM","216","VISITACION , ROJELIO","C/In"
"OUR COMPANY","Fingerpint","","9/27/2016 5:00 PM","216","VISITACION , ROJELIO","C/Out"
"OUR COMPANY","Fingerpint","","9/28/2016 6:31 AM","216","VISITACION , ROJELIO","C/In"
"OUR COMPANY","Fingerpint","","9/28/2016 12:24 PM","216","VISITACION , ROJELIO","C/Out"
"OUR COMPANY","Fingerpint","","9/28/2016 12:25 PM","216","VISITACION , ROJELIO","C/In"
"OUR COMPANY","Fingerpint","","9/28/2016 5:00 PM","216","VISITACION , ROJELIO","C/Out"
"OUR COMPANY","Fingerpint","","9/29/2016 6:37 AM","216","VISITACION , ROJELIO","C/In"
"OUR COMPANY","Fingerpint","","9/29/2016 5:04 PM","216","VISITACION , ROJELIO","C/Out"
"OUR COMPANY","Fingerpint","","9/30/2016 7:17 AM","216","VISITACION , ROJELIO","C/In"
"OUR COMPANY","Fingerpint","","9/30/2016 12:23 PM","216","VISITACION , ROJELIO","C/Out"
"OUR COMPANY","Fingerpint","","9/30/2016 12:24 PM","216","VISITACION , ROJELIO","C/In"
"OUR COMPANY","Fingerpint","","9/30/2016 5:00 PM","216","VISITACION , ROJELIO","C/Out"
"OUR COMPANY","Fingerpint","","10/5/2016 6:26 AM","216","VISITACION , ROJELIO","C/In"
"OUR COMPANY","Fingerpint","","10/5/2016 12:16 PM","216","VISITACION , ROJELIO","C/Out"
"OUR COMPANY","Fingerpint","","10/5/2016 12:17 PM","216","VISITACION , ROJELIO","C/In"
"OUR COMPANY","Fingerpint","","10/5/2016 5:00 PM","216","VISITACION , ROJELIO","C/Out"
"OUR COMPANY","Fingerpint","","10/6/2016 6:40 AM","216","VISITACION , ROJELIO","C/In"
"OUR COMPANY","Fingerpint","","10/6/2016 12:05 PM","216","VISITACION , ROJELIO","C/Out"
"OUR COMPANY","Fingerpint","","10/6/2016 12:06 PM","216","VISITACION , ROJELIO","C/In"
"OUR COMPANY","Fingerpint","","10/6/2016 5:00 PM","216","VISITACION , ROJELIO","C/Out"
"OUR COMPANY","Fingerpint","","10/7/2016 7:36 AM","216","VISITACION , ROJELIO","C/In"
"OUR COMPANY","Fingerpint","","10/7/2016 12:15 PM","216","VISITACION , ROJELIO","C/Out"
"OUR COMPANY","Fingerpint","","10/7/2016 12:16 PM","216","VISITACION , ROJELIO","C/In"
"OUR COMPANY","Fingerpint","","10/7/2016 5:00 PM","216","VISITACION , ROJELIO","C/Out"
"OUR COMPANY","Fingerpint","","10/10/2016 6:57 AM","216","VISITACION , ROJELIO","C/In"
"OUR COMPANY","Fingerpint","","10/10/2016 12:27 PM","216","VISITACION , ROJELIO","C/Out"
"OUR COMPANY","Fingerpint","","10/10/2016 12:28 PM","216","VISITACION , ROJELIO","C/In"
"OUR COMPANY","Fingerpint","","10/10/2016 5:00 PM","216","VISITACION , ROJELIO","C/Out"
"OUR COMPANY","Fingerpint","","10/11/2016 6:51 AM","216","VISITACION , ROJELIO","C/In"
"OUR COMPANY","Fingerpint","","10/11/2016 12:35 PM","216","VISITACION , ROJELIO","C/Out"
"OUR COMPANY","Fingerpint","","10/11/2016 12:36 PM","216","VISITACION , ROJELIO","C/In"
"OUR COMPANY","Fingerpint","","10/11/2016 5:02 PM","216","VISITACION , ROJELIO","C/Out"
"OUR COMPANY","Fingerpint","","10/13/2016 7:46 AM","216","VISITACION , ROJELIO","C/In"
"OUR COMPANY","Fingerpint","","10/13/2016 12:28 PM","216","VISITACION , ROJELIO","C/Out"
"OUR COMPANY","Fingerpint","","10/13/2016 12:29 PM","216","VISITACION , ROJELIO","C/In"
"OUR COMPANY","Fingerpint","","10/13/2016 4:30 PM","216","VISITACION , ROJELIO","C/Out"
"OUR COMPANY","Fingerpint","","10/14/2016 7:23 AM","216","VISITACION , ROJELIO","C/In"
"OUR COMPANY","Fingerpint","","10/14/2016 12:30 PM","216","VISITACION , ROJELIO","C/Out"
"OUR COMPANY","Fingerpint","","10/14/2016 12:31 PM","216","VISITACION , ROJELIO","C/In"
"OUR COMPANY","Fingerpint","","10/14/2016 5:00 PM","216","VISITACION , ROJELIO","C/Out"
"OUR COMPANY","Fingerpint","","10/24/2016 12:31 PM","216","VISITACION , ROJELIO","C/In"
"OUR COMPANY","Fingerpint","","10/24/2016 5:00 PM","216","VISITACION , ROJELIO","C/Out"
"OUR COMPANY","Fingerpint","","10/25/2016 7:38 AM","216","VISITACION , ROJELIO","C/In"
"OUR COMPANY","Fingerpint","","10/25/2016 12:16 PM","216","VISITACION , ROJELIO","C/Out"
"OUR COMPANY","Fingerpint","","10/25/2016 12:19 PM","216","VISITACION , ROJELIO","C/Out"
"OUR COMPANY","Fingerpint","","10/25/2016 12:20 PM","216","VISITACION , ROJELIO","C/In"
"OUR COMPANY","Fingerpint","","10/25/2016 5:00 PM","216","VISITACION , ROJELIO","C/In"
"OUR COMPANY","Fingerpint","","10/26/2016 7:31 AM","216","VISITACION , ROJELIO","C/In"
"OUR COMPANY","Fingerpint","","10/26/2016 12:25 PM","216","VISITACION , ROJELIO","C/Out"
"OUR COMPANY","Fingerpint","","10/26/2016 12:26 PM","216","VISITACION , ROJELIO","C/In"
"OUR COMPANY","Fingerpint","","10/26/2016 5:04 PM","216","VISITACION , ROJELIO","C/Out"
"OUR COMPANY","Fingerpint","","10/27/2016 7:35 AM","216","VISITACION , ROJELIO","C/In"
"OUR COMPANY","Fingerpint","","10/27/2016 12:08 PM","216","VISITACION , ROJELIO","C/Out"
"OUR COMPANY","Fingerpint","","10/27/2016 12:09 PM","216","VISITACION , ROJELIO","C/In"
"OUR COMPANY","Fingerpint","","10/27/2016 5:00 PM","216","VISITACION , ROJELIO","C/Out"
"OUR COMPANY","Fingerpint","","10/28/2016 7:25 AM","216","VISITACION , ROJELIO","C/In"
"OUR COMPANY","Fingerpint","","10/28/2016 1:12 PM","216","VISITACION , ROJELIO","C/Out"
"OUR COMPANY","Fingerpint","","10/28/2016 1:13 PM","216","VISITACION , ROJELIO","C/In"
"OUR COMPANY","Fingerpint","","11/14/2016 7:12 AM","216","VISITACION , ROJELIO","C/In"
"OUR COMPANY","Fingerpint","","11/14/2016 12:04 PM","216","VISITACION , ROJELIO","C/Out"
"OUR COMPANY","Fingerpint","","11/14/2016 12:41 PM","216","VISITACION , ROJELIO","C/In"
"OUR COMPANY","Fingerpint","","11/14/2016 5:00 PM","216","VISITACION , ROJELIO","C/Out"
"OUR COMPANY","Fingerpint","","11/15/2016 7:36 AM","216","VISITACION , ROJELIO","C/In"
"OUR COMPANY","Fingerpint","","11/15/2016 12:05 PM","216","VISITACION , ROJELIO","C/Out"
"OUR COMPANY","Fingerpint","","11/15/2016 12:06 PM","216","VISITACION , ROJELIO","C/In"
"OUR COMPANY","Fingerpint","","11/15/2016 5:00 PM","216","VISITACION , ROJELIO","C/Out"
"OUR COMPANY","Fingerpint","","11/16/2016 7:20 AM","216","VISITACION , ROJELIO","C/In"
"OUR COMPANY","Fingerpint","","11/16/2016 12:07 PM","216","VISITACION , ROJELIO","C/Out"
"OUR COMPANY","Fingerpint","","11/16/2016 12:08 PM","216","VISITACION , ROJELIO","C/In"
"OUR COMPANY","Fingerpint","","11/16/2016 5:01 PM","216","VISITACION , ROJELIO","C/Out"
"OUR COMPANY","Fingerpint","","11/17/2016 6:49 AM","216","VISITACION , ROJELIO","C/In"
"OUR COMPANY","Fingerpint","","11/17/2016 12:09 PM","216","VISITACION , ROJELIO","C/Out"
"OUR COMPANY","Fingerpint","","11/17/2016 12:10 PM","216","VISITACION , ROJELIO","C/In"
"OUR COMPANY","Fingerpint","","11/17/2016 5:00 PM","216","VISITACION , ROJELIO","C/Out"
"OUR COMPANY","Fingerpint","","11/18/2016 6:39 AM","216","VISITACION , ROJELIO","C/In"
"OUR COMPANY","Fingerpint","","11/18/2016 5:05 PM","216","VISITACION , ROJELIO","C/Out"
"OUR COMPANY","Fingerpint","","11/28/2016 6:32 AM","216","VISITACION , ROJELIO","C/In"
"OUR COMPANY","Fingerpint","","11/28/2016 12:08 PM","216","VISITACION , ROJELIO","C/Out"
"OUR COMPANY","Fingerpint","","11/28/2016 12:11 PM","216","VISITACION , ROJELIO","C/In"
"OUR COMPANY","Fingerpint","","11/29/2016 6:40 AM","216","VISITACION , ROJELIO","C/In"
"OUR COMPANY","Fingerpint","","11/29/2016 12:05 PM","216","VISITACION , ROJELIO","C/Out"
"OUR COMPANY","Fingerpint","","11/29/2016 12:19 PM","216","VISITACION , ROJELIO","C/In"
"OUR COMPANY","Fingerpint","","11/29/2016 5:44 PM","216","VISITACION , ROJELIO","C/Out"
"OUR COMPANY","Fingerpint","","12/1/2016 8:10 AM","216","VISITACION , ROJELIO","C/In"
"OUR COMPANY","Fingerpint","","12/1/2016 12:42 PM","216","VISITACION , ROJELIO","C/Out"
"OUR COMPANY","Fingerpint","","12/1/2016 12:43 PM","216","VISITACION , ROJELIO","C/In"
"OUR COMPANY","Fingerpint","","12/1/2016 5:15 PM","216","VISITACION , ROJELIO","C/Out"
"OUR COMPANY","Fingerpint","","12/2/2016 8:00 AM","216","VISITACION , ROJELIO","C/In"
"OUR COMPANY","Fingerpint","","12/2/2016 5:00 PM","216","VISITACION , ROJELIO","C/Out"
"OUR COMPANY","Fingerpint","","8/1/2016 8:09 AM","236","PABALINAS, ERICA J","C/In"
"OUR COMPANY","Fingerpint","","8/1/2016 12:32 PM","236","PABALINAS, ERICA J","C/Out"
"OUR COMPANY","Fingerpint","","8/1/2016 12:35 PM","236","PABALINAS, ERICA J","C/In"
"OUR COMPANY","Fingerpint","","8/1/2016 5:04 PM","236","PABALINAS, ERICA J","C/Out"
"OUR COMPANY","Fingerpint","","8/2/2016 8:09 AM","236","PABALINAS, ERICA J","C/In"
"OUR COMPANY","Fingerpint","","8/2/2016 12:22 PM","236","PABALINAS, ERICA J","C/Out"
"OUR COMPANY","Fingerpint","","8/2/2016 12:26 PM","236","PABALINAS, ERICA J","C/In"
"OUR COMPANY","Fingerpint","","8/2/2016 5:28 PM","236","PABALINAS, ERICA J","C/Out"
"OUR COMPANY","Fingerpint","","8/15/2016 7:47 AM","236","PABALINAS, ERICA J","C/In"
"OUR COMPANY","Fingerpint","","8/15/2016 12:14 PM","236","PABALINAS, ERICA J","C/Out"
"OUR COMPANY","Fingerpint","","8/15/2016 12:15 PM","236","PABALINAS, ERICA J","C/In"
"OUR COMPANY","Fingerpint","","8/15/2016 5:37 PM","236","PABALINAS, ERICA J","C/Out"
"OUR COMPANY","Fingerpint","","8/16/2016 8:18 AM","236","PABALINAS, ERICA J","C/In"
"OUR COMPANY","Fingerpint","","8/16/2016 12:01 PM","236","PABALINAS, ERICA J","C/Out"
"OUR COMPANY","Fingerpint","","8/16/2016 12:03 PM","236","PABALINAS, ERICA J","C/In"
"OUR COMPANY","Fingerpint","","8/16/2016 5:41 PM","236","PABALINAS, ERICA J","C/Out"
"OUR COMPANY","Fingerpint","","8/17/2016 8:19 AM","236","PABALINAS, ERICA J","C/In"
"OUR COMPANY","Fingerpint","","8/17/2016 12:10 PM","236","PABALINAS, ERICA J","C/Out"
"OUR COMPANY","Fingerpint","","8/17/2016 12:11 PM","236","PABALINAS, ERICA J","C/In"
"OUR COMPANY","Fingerpint","","8/17/2016 6:18 PM","236","PABALINAS, ERICA J","C/Out"
"OUR COMPANY","Fingerpint","","8/18/2016 8:18 AM","236","PABALINAS, ERICA J","C/In"
"OUR COMPANY","Fingerpint","","8/18/2016 12:00 PM","236","PABALINAS, ERICA J","C/Out"
"OUR COMPANY","Fingerpint","","8/18/2016 12:01 PM","236","PABALINAS, ERICA J","C/In"
"OUR COMPANY","Fingerpint","","8/18/2016 5:36 PM","236","PABALINAS, ERICA J","C/Out"
"OUR COMPANY","Fingerpint","","8/19/2016 7:33 AM","236","PABALINAS, ERICA J","C/In"
"OUR COMPANY","Fingerpint","","8/19/2016 12:00 PM","236","PABALINAS, ERICA J","C/Out"
"OUR COMPANY","Fingerpint","","8/19/2016 12:01 PM","236","PABALINAS, ERICA J","C/In"
"OUR COMPANY","Fingerpint","","8/19/2016 5:36 PM","236","PABALINAS, ERICA J","C/Out"
"OUR COMPANY","Fingerpint","","8/30/2016 8:18 AM","236","PABALINAS, ERICA J","C/In"
"OUR COMPANY","Fingerpint","","8/30/2016 12:03 PM","236","PABALINAS, ERICA J","C/Out"
"OUR COMPANY","Fingerpint","","8/30/2016 12:04 PM","236","PABALINAS, ERICA J","C/In"
"OUR COMPANY","Fingerpint","","8/30/2016 6:08 PM","236","PABALINAS, ERICA J","C/Out"
"OUR COMPANY","Fingerpint","","8/31/2016 8:05 AM","236","PABALINAS, ERICA J","C/In"
"OUR COMPANY","Fingerpint","","8/31/2016 12:13 PM","236","PABALINAS, ERICA J","C/Out"
"OUR COMPANY","Fingerpint","","8/31/2016 12:15 PM","236","PABALINAS, ERICA J","C/In"
"OUR COMPANY","Fingerpint","","8/31/2016 5:48 PM","236","PABALINAS, ERICA J","C/Out"
"OUR COMPANY","Fingerpint","","9/1/2016 8:03 AM","236","PABALINAS, ERICA J","C/In"
"OUR COMPANY","Fingerpint","","9/1/2016 12:07 PM","236","PABALINAS, ERICA J","C/Out"
"OUR COMPANY","Fingerpint","","9/1/2016 12:08 PM","236","PABALINAS, ERICA J","C/In"
"OUR COMPANY","Fingerpint","","9/1/2016 5:48 PM","236","PABALINAS, ERICA J","C/Out"
"OUR COMPANY","Fingerpint","","9/2/2016 12:24 PM","236","PABALINAS, ERICA J","C/Out"
"OUR COMPANY","Fingerpint","","9/2/2016 12:25 PM","236","PABALINAS, ERICA J","C/In"
"OUR COMPANY","Fingerpint","","9/2/2016 7:47 PM","236","PABALINAS, ERICA J","C/Out"
"OUR COMPANY","Fingerpint","","9/5/2016 12:31 PM","236","PABALINAS, ERICA J","C/Out"
"OUR COMPANY","Fingerpint","","9/5/2016 12:39 PM","236","PABALINAS, ERICA J","C/In"
"OUR COMPANY","Fingerpint","","9/5/2016 5:27 PM","236","PABALINAS, ERICA J","C/Out"
"OUR COMPANY","Fingerpint","","9/6/2016 7:58 AM","236","PABALINAS, ERICA J","C/In"
"OUR COMPANY","Fingerpint","","9/6/2016 12:02 PM","236","PABALINAS, ERICA J","C/Out"
"OUR COMPANY","Fingerpint","","9/6/2016 12:03 PM","236","PABALINAS, ERICA J","C/In"
"OUR COMPANY","Fingerpint","","9/6/2016 5:19 PM","236","PABALINAS, ERICA J","C/Out"
"OUR COMPANY","Fingerpint","","9/7/2016 8:05 AM","236","PABALINAS, ERICA J","C/In"
"OUR COMPANY","Fingerpint","","9/7/2016 12:06 PM","236","PABALINAS, ERICA J","C/Out"
"OUR COMPANY","Fingerpint","","9/7/2016 12:07 PM","236","PABALINAS, ERICA J","C/In"
"OUR COMPANY","Fingerpint","","9/7/2016 5:15 PM","236","PABALINAS, ERICA J","C/Out"
"OUR COMPANY","Fingerpint","","9/8/2016 12:45 PM","236","PABALINAS, ERICA J","C/In"
"OUR COMPANY","Fingerpint","","9/8/2016 5:30 PM","236","PABALINAS, ERICA J","C/Out"
"OUR COMPANY","Fingerpint","","9/9/2016 7:55 AM","236","PABALINAS, ERICA J","C/In"
"OUR COMPANY","Fingerpint","","9/9/2016 12:05 PM","236","PABALINAS, ERICA J","C/Out"
"OUR COMPANY","Fingerpint","","9/9/2016 12:06 PM","236","PABALINAS, ERICA J","C/In"
"OUR COMPANY","Fingerpint","","9/9/2016 5:27 PM","236","PABALINAS, ERICA J","C/Out"
"OUR COMPANY","Fingerpint","","9/13/2016 7:56 AM","236","PABALINAS, ERICA J","C/In"
"OUR COMPANY","Fingerpint","","9/13/2016 12:30 PM","236","PABALINAS, ERICA J","C/Out"
"OUR COMPANY","Fingerpint","","9/13/2016 12:51 PM","236","PABALINAS, ERICA J","C/In"
"OUR COMPANY","Fingerpint","","9/13/2016 6:18 PM","236","PABALINAS, ERICA J","C/Out"
"OUR COMPANY","Fingerpint","","9/14/2016 7:48 AM","236","PABALINAS, ERICA J","C/In"
"OUR COMPANY","Fingerpint","","9/14/2016 12:53 PM","236","PABALINAS, ERICA J","C/Out"
"OUR COMPANY","Fingerpint","","9/14/2016 12:54 PM","236","PABALINAS, ERICA J","C/In"
"OUR COMPANY","Fingerpint","","9/14/2016 5:46 PM","236","PABALINAS, ERICA J","C/Out"
"OUR COMPANY","Fingerpint","","9/15/2016 8:07 AM","236","PABALINAS, ERICA J","C/In"
"OUR COMPANY","Fingerpint","","9/15/2016 12:15 PM","236","PABALINAS, ERICA J","C/Out"
"OUR COMPANY","Fingerpint","","9/15/2016 12:17 PM","236","PABALINAS, ERICA J","C/In"
"OUR COMPANY","Fingerpint","","9/15/2016 5:03 PM","236","PABALINAS, ERICA J","C/Out"
"OUR COMPANY","Fingerpint","","9/16/2016 12:04 PM","236","PABALINAS, ERICA J","C/Out"
"OUR COMPANY","Fingerpint","","9/16/2016 12:05 PM","236","PABALINAS, ERICA J","C/In"
"OUR COMPANY","Fingerpint","","9/19/2016 7:51 AM","236","PABALINAS, ERICA J","C/In"
"OUR COMPANY","Fingerpint","","9/19/2016 12:08 PM","236","PABALINAS, ERICA J","C/Out"
"OUR COMPANY","Fingerpint","","9/19/2016 12:10 PM","236","PABALINAS, ERICA J","C/In"
"OUR COMPANY","Fingerpint","","9/19/2016 5:13 PM","236","PABALINAS, ERICA J","C/Out"
"OUR COMPANY","Fingerpint","","9/20/2016 12:15 PM","236","PABALINAS, ERICA J","C/Out"
"OUR COMPANY","Fingerpint","","9/20/2016 12:16 PM","236","PABALINAS, ERICA J","C/In"
"OUR COMPANY","Fingerpint","","9/20/2016 5:12 PM","236","PABALINAS, ERICA J","C/In"
"OUR COMPANY","Fingerpint","","9/28/2016 7:57 AM","236","PABALINAS, ERICA J","C/In"
"OUR COMPANY","Fingerpint","","9/28/2016 12:12 PM","236","PABALINAS, ERICA J","C/Out"
"OUR COMPANY","Fingerpint","","9/28/2016 5:36 PM","236","PABALINAS, ERICA J","C/Out"
"OUR COMPANY","Fingerpint","","9/29/2016 12:01 PM","236","PABALINAS, ERICA J","C/Out"
"OUR COMPANY","Fingerpint","","9/29/2016 12:26 PM","236","PABALINAS, ERICA J","C/In"
"OUR COMPANY","Fingerpint","","9/29/2016 5:16 PM","236","PABALINAS, ERICA J","C/Out"
"OUR COMPANY","Fingerpint","","9/30/2016 12:00 PM","236","PABALINAS, ERICA J","C/Out"
"OUR COMPANY","Fingerpint","","9/30/2016 12:01 PM","236","PABALINAS, ERICA J","C/In"
"OUR COMPANY","Fingerpint","","9/30/2016 5:49 PM","236","PABALINAS, ERICA J","C/Out"
"OUR COMPANY","Fingerpint","","10/10/2016 7:53 AM","236","PABALINAS, ERICA J","C/In"
"OUR COMPANY","Fingerpint","","10/10/2016 6:42 PM","236","PABALINAS, ERICA J","C/Out"
"OUR COMPANY","Fingerpint","","10/11/2016 6:28 PM","236","PABALINAS, ERICA J","C/Out"
"OUR COMPANY","Fingerpint","","10/13/2016 8:03 AM","236","PABALINAS, ERICA J","C/In"
"OUR COMPANY","Fingerpint","","10/13/2016 12:39 PM","236","PABALINAS, ERICA J","C/Out"
"OUR COMPANY","Fingerpint","","10/13/2016 12:40 PM","236","PABALINAS, ERICA J","C/In"
"OUR COMPANY","Fingerpint","","10/13/2016 6:20 PM","236","PABALINAS, ERICA J","C/Out"
"OUR COMPANY","Fingerpint","","10/14/2016 7:57 AM","236","PABALINAS, ERICA J","C/In"
"OUR COMPANY","Fingerpint","","10/14/2016 12:28 PM","236","PABALINAS, ERICA J","C/Out"
"OUR COMPANY","Fingerpint","","10/14/2016 12:29 PM","236","PABALINAS, ERICA J","C/In"
"OUR COMPANY","Fingerpint","","10/14/2016 5:23 PM","236","PABALINAS, ERICA J","C/Out"
"OUR COMPANY","Fingerpint","","10/17/2016 12:01 PM","236","PABALINAS, ERICA J","C/Out"
"OUR COMPANY","Fingerpint","","10/17/2016 12:03 PM","236","PABALINAS, ERICA J","C/In"
"OUR COMPANY","Fingerpint","","10/17/2016 6:00 PM","236","PABALINAS, ERICA J","C/Out"
"OUR COMPANY","Fingerpint","","10/18/2016 8:05 AM","236","PABALINAS, ERICA J","C/In"
"OUR COMPANY","Fingerpint","","10/18/2016 12:00 PM","236","PABALINAS, ERICA J","C/Out"
"OUR COMPANY","Fingerpint","","10/18/2016 12:01 PM","236","PABALINAS, ERICA J","C/In"
"OUR COMPANY","Fingerpint","","10/18/2016 5:51 PM","236","PABALINAS, ERICA J","C/Out"
"OUR COMPANY","Fingerpint","","10/19/2016 12:13 PM","236","PABALINAS, ERICA J","C/Out"
"OUR COMPANY","Fingerpint","","10/19/2016 12:14 PM","236","PABALINAS, ERICA J","C/In"
"OUR COMPANY","Fingerpint","","10/19/2016 6:04 PM","236","PABALINAS, ERICA J","C/Out"
"OUR COMPANY","Fingerpint","","10/25/2016 1:00 PM","236","PABALINAS, ERICA J","C/In"
"OUR COMPANY","Fingerpint","","10/25/2016 6:12 PM","236","PABALINAS, ERICA J","C/Out"
"OUR COMPANY","Fingerpint","","10/26/2016 8:20 AM","236","PABALINAS, ERICA J","C/In"
"OUR COMPANY","Fingerpint","","10/26/2016 12:22 PM","236","PABALINAS, ERICA J","C/In"
"OUR COMPANY","Fingerpint","","10/26/2016 12:22 PM","236","PABALINAS, ERICA J","C/Out"
"OUR COMPANY","Fingerpint","","10/26/2016 12:23 PM","236","PABALINAS, ERICA J","C/In"
"OUR COMPANY","Fingerpint","","10/26/2016 5:40 PM","236","PABALINAS, ERICA J","C/Out"
"OUR COMPANY","Fingerpint","","10/27/2016 8:18 AM","236","PABALINAS, ERICA J","C/In"
"OUR COMPANY","Fingerpint","","10/27/2016 12:59 PM","236","PABALINAS, ERICA J","C/Out"
"OUR COMPANY","Fingerpint","","10/27/2016 1:00 PM","236","PABALINAS, ERICA J","C/In"
"OUR COMPANY","Fingerpint","","10/27/2016 6:04 PM","236","PABALINAS, ERICA J","C/Out"
"OUR COMPANY","Fingerpint","","10/28/2016 9:08 AM","236","PABALINAS, ERICA J","C/In"
"OUR COMPANY","Fingerpint","","10/28/2016 12:26 PM","236","PABALINAS, ERICA J","C/Out"
"OUR COMPANY","Fingerpint","","10/28/2016 5:14 PM","236","PABALINAS, ERICA J","C/Out"
"OUR COMPANY","Fingerpint","","11/2/2016 12:23 PM","236","PABALINAS, ERICA J","C/Out"
"OUR COMPANY","Fingerpint","","11/2/2016 12:43 PM","236","PABALINAS, ERICA J","C/In"
"OUR COMPANY","Fingerpint","","11/3/2016 6:15 PM","236","PABALINAS, ERICA J","C/Out"
"OUR COMPANY","Fingerpint","","11/4/2016 12:04 PM","236","PABALINAS, ERICA J","C/Out"
"OUR COMPANY","Fingerpint","","11/4/2016 12:05 PM","236","PABALINAS, ERICA J","C/In"
"OUR COMPANY","Fingerpint","","11/4/2016 12:13 PM","236","PABALINAS, ERICA J","C/In"
"OUR COMPANY","Fingerpint","","11/4/2016 5:02 PM","236","PABALINAS, ERICA J","C/Out"
"OUR COMPANY","Fingerpint","","11/7/2016 5:50 PM","236","PABALINAS, ERICA J","C/Out"
"OUR COMPANY","Fingerpint","","11/8/2016 12:05 PM","236","PABALINAS, ERICA J","C/Out"
"OUR COMPANY","Fingerpint","","11/8/2016 12:06 PM","236","PABALINAS, ERICA J","C/In"
"OUR COMPANY","Fingerpint","","11/8/2016 6:12 PM","236","PABALINAS, ERICA J","C/Out"
"OUR COMPANY","Fingerpint","","11/9/2016 12:07 PM","236","PABALINAS, ERICA J","C/Out"
"OUR COMPANY","Fingerpint","","11/9/2016 12:08 PM","236","PABALINAS, ERICA J","C/In"
"OUR COMPANY","Fingerpint","","11/9/2016 5:06 PM","236","PABALINAS, ERICA J","C/Out"
"OUR COMPANY","Fingerpint","","11/14/2016 12:46 PM","236","PABALINAS, ERICA J","C/In"
"OUR COMPANY","Fingerpint","","11/14/2016 5:58 PM","236","PABALINAS, ERICA J","C/Out"
"OUR COMPANY","Fingerpint","","11/15/2016 8:09 AM","236","PABALINAS, ERICA J","C/In"
"OUR COMPANY","Fingerpint","","11/15/2016 12:12 PM","236","PABALINAS, ERICA J","C/Out"
"OUR COMPANY","Fingerpint","","11/15/2016 12:13 PM","236","PABALINAS, ERICA J","C/In"
"OUR COMPANY","Fingerpint","","11/15/2016 6:05 PM","236","PABALINAS, ERICA J","C/Out"
"OUR COMPANY","Fingerpint","","11/16/2016 8:15 AM","236","PABALINAS, ERICA J","C/In"
"OUR COMPANY","Fingerpint","","11/16/2016 5:52 PM","236","PABALINAS, ERICA J","C/Out"
"OUR COMPANY","Fingerpint","","11/17/2016 8:32 AM","236","PABALINAS, ERICA J","C/In"
"OUR COMPANY","Fingerpint","","11/17/2016 12:04 PM","236","PABALINAS, ERICA J","C/Out"
"OUR COMPANY","Fingerpint","","11/17/2016 12:05 PM","236","PABALINAS, ERICA J","C/In"
"OUR COMPANY","Fingerpint","","11/17/2016 6:19 PM","236","PABALINAS, ERICA J","C/Out"
"OUR COMPANY","Fingerpint","","11/18/2016 12:00 PM","236","PABALINAS, ERICA J","C/Out"
"OUR COMPANY","Fingerpint","","11/18/2016 12:01 PM","236","PABALINAS, ERICA J","C/In"
"OUR COMPANY","Fingerpint","","11/18/2016 5:32 PM","236","PABALINAS, ERICA J","C/Out"
"OUR COMPANY","Fingerpint","","11/21/2016 12:05 PM","236","PABALINAS, ERICA J","C/Out"
"OUR COMPANY","Fingerpint","","11/21/2016 12:06 PM","236","PABALINAS, ERICA J","C/In"
"OUR COMPANY","Fingerpint","","11/22/2016 12:44 PM","236","PABALINAS, ERICA J","C/Out"
"OUR COMPANY","Fingerpint","","11/22/2016 12:45 PM","236","PABALINAS, ERICA J","C/In"
"OUR COMPANY","Fingerpint","","11/22/2016 5:50 PM","236","PABALINAS, ERICA J","C/Out"
"OUR COMPANY","Fingerpint","","11/23/2016 12:16 PM","236","PABALINAS, ERICA J","C/Out"
"OUR COMPANY","Fingerpint","","11/23/2016 12:41 PM","236","PABALINAS, ERICA J","C/In"
"OUR COMPANY","Fingerpint","","11/23/2016 5:57 PM","236","PABALINAS, ERICA J","C/Out"
"OUR COMPANY","Fingerpint","","11/24/2016 7:52 AM","236","PABALINAS, ERICA J","C/In"
"OUR COMPANY","Fingerpint","","11/24/2016 12:22 PM","236","PABALINAS, ERICA J","C/Out"
"OUR COMPANY","Fingerpint","","11/24/2016 12:23 PM","236","PABALINAS, ERICA J","C/In"
"OUR COMPANY","Fingerpint","","11/24/2016 6:42 PM","236","PABALINAS, ERICA J","C/Out"
"OUR COMPANY","Fingerpint","","11/25/2016 12:20 PM","236","PABALINAS, ERICA J","C/Out"
"OUR COMPANY","Fingerpint","","11/29/2016 12:45 PM","236","PABALINAS, ERICA J","C/Out"
"OUR COMPANY","Fingerpint","","11/29/2016 12:46 PM","236","PABALINAS, ERICA J","C/In"
"OUR COMPANY","Fingerpint","","11/29/2016 5:59 PM","236","PABALINAS, ERICA J","C/Out"
