"department","VerifyCode","CardNo","checktime","id_no","name","status"
"MinDA","FP","","7/10/2017 8:04 AM","203","203","C/In"
"MinDA","FP","","7/10/2017 12:07 PM","203","203","C/Out"
"MinDA","FP","","7/10/2017 12:08 PM","203","203","C/In"
"MinDA","FP","","7/10/2017 5:10 PM","203","203","C/Out"
"MinDA","FP","","7/11/2017 7:56 AM","203","203","C/In"
"MinDA","FP","","7/11/2017 12:56 PM","203","203","C/Out"
"MinDA","FP","","7/11/2017 12:57 PM","203","203","C/In"
"MinDA","FP","","7/11/2017 5:15 PM","203","203","C/Out"
"MinDA","FP","","7/12/2017 7:38 AM","203","203","C/In"
"MinDA","FP","","7/12/2017 12:18 PM","203","203","C/Out"
"MinDA","FP","","7/12/2017 12:19 PM","203","203","C/In"
"MinDA","FP","","7/12/2017 12:19 PM","203","203","C/In"
"MinDA","FP","","7/12/2017 5:04 PM","203","203","C/Out"
"MinDA","FP","","7/13/2017 7:24 AM","203","203","C/In"
"MinDA","FP","","7/13/2017 12:40 PM","203","203","C/Out"
"MinDA","FP","","7/13/2017 12:41 PM","203","203","C/In"
"MinDA","FP","","7/13/2017 5:07 PM","203","203","C/Out"
"MinDA","FP","","7/14/2017 7:22 AM","203","203","C/In"
"MinDA","FP","","7/14/2017 12:00 PM","203","203","C/Out"
"MinDA","FP","","7/14/2017 12:55 PM","203","203","C/In"
"MinDA","FP","","7/14/2017 5:02 PM","203","203","C/Out"
"MinDA","FP","","7/17/2017 7:57 AM","203","203","C/In"
"MinDA","FP","","7/17/2017 12:03 PM","203","203","C/Out"
"MinDA","FP","","7/17/2017 12:04 PM","203","203","C/In"
"MinDA","FP","","7/17/2017 5:21 PM","203","203","C/Out"
"MinDA","FP","","7/18/2017 7:53 AM","203","203","C/In"
"MinDA","FP","","7/18/2017 5:07 PM","203","203","C/Out"
"MinDA","FP","","7/19/2017 12:05 PM","203","203","C/Out"
"MinDA","FP","","7/19/2017 12:06 PM","203","203","C/In"
"MinDA","FP","","7/19/2017 5:08 PM","203","203","C/Out"
"MinDA","FP","","7/20/2017 8:00 AM","203","203","C/In"
"MinDA","FP","","7/20/2017 12:00 PM","203","203","C/Out"
"MinDA","FP","","7/20/2017 12:01 PM","203","203","C/Out"
"MinDA","FP","","7/20/2017 5:03 PM","203","203","C/Out"
"MinDA","FP","","7/21/2017 8:16 AM","203","203","C/In"
"MinDA","FP","","7/21/2017 12:34 PM","203","203","C/Out"
"MinDA","FP","","7/21/2017 12:35 PM","203","203","C/In"
"MinDA","FP","","7/21/2017 5:32 PM","203","203","C/Out"
"MinDA","FP","","7/10/2017 7:53 AM","206","206","C/In"
"MinDA","FP","","7/10/2017 12:04 PM","206","206","C/In"
"MinDA","FP","","7/10/2017 12:15 PM","206","206","C/In"
"MinDA","FP","","7/10/2017 5:01 PM","206","206","C/Out"
"MinDA","FP","","7/11/2017 7:45 AM","206","206","C/In"
"MinDA","FP","","7/11/2017 5:02 PM","206","206","C/Out"
"MinDA","FP","","7/12/2017 8:00 AM","206","206","C/In"
"MinDA","FP","","7/12/2017 12:23 PM","206","206","C/Out"
"MinDA","FP","","7/12/2017 12:24 PM","206","206","C/In"
"MinDA","FP","","7/12/2017 5:00 PM","206","206","C/Out"
"MinDA","FP","","7/13/2017 7:39 AM","206","206","C/In"
"MinDA","FP","","7/13/2017 12:13 PM","206","206","C/Out"
"MinDA","FP","","7/13/2017 12:14 PM","206","206","C/In"
"MinDA","FP","","7/13/2017 5:01 PM","206","206","C/Out"
"MinDA","FP","","7/14/2017 7:22 AM","206","206","C/In"
"MinDA","FP","","7/14/2017 5:00 PM","206","206","C/Out"
"MinDA","FP","","7/17/2017 7:39 AM","206","206","C/In"
"MinDA","FP","","7/17/2017 12:01 PM","206","206","C/Out"
"MinDA","FP","","7/17/2017 12:06 PM","206","206","C/In"
"MinDA","FP","","7/17/2017 5:02 PM","206","206","C/Out"
"MinDA","FP","","7/18/2017 7:49 AM","206","206","C/In"
"MinDA","FP","","7/18/2017 5:01 PM","206","206","C/Out"
"MinDA","FP","","7/19/2017 12:12 PM","206","206","C/Out"
"MinDA","FP","","7/19/2017 12:13 PM","206","206","C/In"
"MinDA","FP","","7/19/2017 5:02 PM","206","206","C/Out"
"MinDA","FP","","7/20/2017 7:22 AM","206","206","C/In"
"MinDA","FP","","7/20/2017 12:15 PM","206","206","C/Out"
"MinDA","FP","","7/20/2017 12:16 PM","206","206","C/In"
"MinDA","FP","","7/20/2017 5:00 PM","206","206","C/Out"
"MinDA","FP","","7/21/2017 7:38 AM","206","206","C/In"
"MinDA","FP","","7/21/2017 12:53 PM","206","206","C/Out"
"MinDA","FP","","7/21/2017 12:54 PM","206","206","C/In"
"MinDA","FP","","7/21/2017 5:00 PM","206","206","C/Out"
"MinDA","FP","","7/10/2017 7:06 AM","236","236","C/In"
"MinDA","FP","","7/10/2017 12:06 PM","236","236","C/Out"
"MinDA","FP","","7/10/2017 12:07 PM","236","236","C/In"
"MinDA","FP","","7/10/2017 5:08 PM","236","236","C/Out"
"MinDA","FP","","7/11/2017 7:52 AM","236","236","C/In"
"MinDA","FP","","7/11/2017 12:56 PM","236","236","C/Out"
"MinDA","FP","","7/11/2017 12:57 PM","236","236","C/In"
"MinDA","FP","","7/11/2017 5:10 PM","236","236","C/Out"
"MinDA","FP","","7/12/2017 8:11 AM","236","236","C/In"
"MinDA","FP","","7/12/2017 12:18 PM","236","236","C/Out"
"MinDA","FP","","7/12/2017 12:19 PM","236","236","C/In"
"MinDA","FP","","7/12/2017 5:05 PM","236","236","C/Out"
"MinDA","FP","","7/13/2017 8:10 AM","236","236","C/In"
"MinDA","FP","","7/13/2017 12:01 PM","236","236","C/Out"
"MinDA","FP","","7/13/2017 12:40 PM","236","236","C/In"
"MinDA","FP","","7/13/2017 5:02 PM","236","236","C/Out"
"MinDA","FP","","7/14/2017 8:09 AM","236","236","C/In"
"MinDA","FP","","7/14/2017 12:00 PM","236","236","C/Out"
"MinDA","FP","","7/14/2017 12:01 PM","236","236","C/In"
"MinDA","FP","","7/14/2017 5:00 PM","236","236","C/Out"
"MinDA","FP","","7/17/2017 8:00 AM","236","236","C/In"
"MinDA","FP","","7/17/2017 12:02 PM","236","236","C/Out"
"MinDA","FP","","7/17/2017 12:03 PM","236","236","C/In"
"MinDA","FP","","7/17/2017 5:06 PM","236","236","C/Out"
"MinDA","FP","","7/18/2017 8:21 AM","236","236","C/In"
"MinDA","FP","","7/18/2017 12:14 PM","236","236","C/Out"
"MinDA","FP","","7/18/2017 12:15 PM","236","236","C/In"
"MinDA","FP","","7/19/2017 12:08 PM","236","236","C/Out"
"MinDA","FP","","7/19/2017 12:09 PM","236","236","C/In"
"MinDA","FP","","7/19/2017 5:02 PM","236","236","C/Out"
"MinDA","FP","","7/20/2017 7:59 AM","236","236","C/In"
"MinDA","FP","","7/20/2017 12:00 PM","236","236","C/Out"
"MinDA","FP","","7/20/2017 12:01 PM","236","236","C/In"
"MinDA","FP","","7/20/2017 5:03 PM","236","236","C/Out"
"MinDA","FP","","7/21/2017 8:14 AM","236","236","C/In"
"MinDA","FP","","7/21/2017 12:34 PM","236","236","C/Out"
"MinDA","FP","","7/21/2017 12:35 PM","236","236","C/In"
"MinDA","FP","","7/21/2017 5:29 PM","236","236","C/Out"
