"department","VerifyCode","CardNo","checktime","id_no","name","status"
"MinDA","Fingerpint","","8/22/2017 7:51 AM","79","REYNALDO, GERARDO B","C/In"
"MinDA","Fingerpint","","8/22/2017 12:12 PM","79","REYNALDO, GERARDO B","C/Out"
"MinDA","Fingerpint","","8/22/2017 12:12 PM","79","REYNALDO, GERARDO B","C/In"
"MinDA","Fingerpint","","8/22/2017 5:21 PM","79","REYNALDO, GERARDO B","C/Out"
"MinDA","Fingerpint","","8/23/2017 7:35 AM","79","REYNALDO, GERARDO B","C/In"
"MinDA","Fingerpint","","8/23/2017 12:04 PM","79","REYNALDO, GERARDO B","C/Out"
"MinDA","Fingerpint","","8/23/2017 12:04 PM","79","REYNALDO, GERARDO B","C/In"
"MinDA","Fingerpint","","8/31/2017 6:26 AM","79","REYNALDO, GERARDO B","C/In"
"MinDA","Fingerpint","","8/31/2017 5:01 PM","79","REYNALDO, GERARDO B","C/Out"
"MinDA","Fingerpint","","8/29/2017 8:36 AM","174","BUHAT, RENATO JR. A","C/In"
"MinDA","Fingerpint","","8/29/2017 12:11 PM","174","BUHAT, RENATO JR. A","C/Out"
"MinDA","Fingerpint","","8/29/2017 12:17 PM","174","BUHAT, RENATO JR. A","C/In"
"MinDA","Fingerpint","","8/24/2017 7:08 AM","291","291","C/In"
"MinDA","Fingerpint","","8/24/2017 12:01 PM","291","291","C/Out"
"MinDA","Fingerpint","","8/24/2017 12:23 PM","291","291","C/In"
"MinDA","Fingerpint","","8/24/2017 5:01 PM","291","291","C/Out"
"MinDA","Fingerpint","","8/25/2017 7:38 AM","291","291","C/In"
"MinDA","Fingerpint","","8/25/2017 12:07 PM","291","291","C/Out"
"MinDA","Fingerpint","","8/25/2017 12:18 PM","291","291","C/In"
"MinDA","Fingerpint","","8/29/2017 7:02 AM","291","291","C/In"
"MinDA","Fingerpint","","8/29/2017 12:01 PM","291","291","C/Out"
"MinDA","Fingerpint","","8/29/2017 12:10 PM","291","291","C/In"
"MinDA","Fingerpint","","8/29/2017 5:01 PM","291","291","C/Out"
"MinDA","Fingerpint","","8/30/2017 7:09 AM","291","291","C/In"
"MinDA","Fingerpint","","8/30/2017 12:02 PM","291","291","C/Out"
"MinDA","Fingerpint","","8/30/2017 12:12 PM","291","291","C/In"
"MinDA","Fingerpint","","8/30/2017 5:01 PM","291","291","C/Out"
"MinDA","Fingerpint","","8/31/2017 7:18 AM","291","291","C/In"
"MinDA","Fingerpint","","8/31/2017 12:01 PM","291","291","C/Out"
"MinDA","Fingerpint","","8/31/2017 12:10 PM","291","291","C/In"
"MinDA","Fingerpint","","8/31/2017 5:01 PM","291","291","C/Out"
"MinDA","Fingerpint","","8/22/2017 7:54 AM","292","292","C/In"
"MinDA","Fingerpint","","8/22/2017 12:40 PM","292","292","C/Out"
"MinDA","Fingerpint","","8/22/2017 12:40 PM","292","292","C/In"
"MinDA","Fingerpint","","8/22/2017 8:40 PM","292","292","C/Out"
"MinDA","Fingerpint","","8/23/2017 7:58 AM","292","292","C/In"
"MinDA","Fingerpint","","8/23/2017 12:34 PM","292","292","C/Out"
"MinDA","Fingerpint","","8/23/2017 12:34 PM","292","292","C/In"
"MinDA","Fingerpint","","8/23/2017 6:31 PM","292","292","C/Out"
"MinDA","Fingerpint","","8/24/2017 7:54 AM","292","292","C/In"
"MinDA","Fingerpint","","8/24/2017 12:22 PM","292","292","C/Out"
"MinDA","Fingerpint","","8/24/2017 12:22 PM","292","292","C/In"
"MinDA","Fingerpint","","8/24/2017 5:07 PM","292","292","C/Out"
"MinDA","Fingerpint","","8/29/2017 7:57 AM","292","292","C/In"
"MinDA","Fingerpint","","8/29/2017 12:44 PM","292","292","C/Out"
"MinDA","Fingerpint","","8/29/2017 12:44 PM","292","292","C/In"
"MinDA","Fingerpint","","8/29/2017 7:44 PM","292","292","C/Out"
"MinDA","Fingerpint","","8/30/2017 7:52 AM","292","292","C/In"
"MinDA","Fingerpint","","8/30/2017 12:46 PM","292","292","C/Out"
"MinDA","Fingerpint","","8/30/2017 12:46 PM","292","292","C/In"
"MinDA","Fingerpint","","8/30/2017 6:47 PM","292","292","C/Out"
"MinDA","Fingerpint","","8/31/2017 7:56 AM","292","292","C/In"
"MinDA","Fingerpint","","8/31/2017 12:06 PM","292","292","C/Out"
"MinDA","Fingerpint","","8/31/2017 12:06 PM","292","292","C/In"
"MinDA","Fingerpint","","8/31/2017 7:50 PM","292","292","C/Out"
