"department","VerifyCode","CardNo","checktime","id_no","name","status"
"MinDA","FP","","11/2/2017 12:00 PM","203","203","C/Out"
"MinDA","FP","","11/2/2017 12:01 PM","203","203","C/In"
"MinDA","FP","","11/2/2017 5:06 PM","203","203","C/Out"
"MinDA","FP","","11/3/2017 7:48 AM","203","203","C/In"
"MinDA","FP","","11/3/2017 12:00 PM","203","203","C/Out"
"MinDA","FP","","11/3/2017 12:01 PM","203","203","C/In"
"MinDA","FP","","11/3/2017 5:04 PM","203","203","C/Out"
"MinDA","FP","","11/6/2017 7:46 AM","203","203","C/In"
"MinDA","FP","","11/6/2017 12:18 PM","203","203","C/Out"
"MinDA","FP","","11/6/2017 12:19 PM","203","203","C/In"
"MinDA","FP","","11/6/2017 6:59 PM","203","203","C/Out"
"MinDA","FP","","11/7/2017 7:48 AM","203","203","C/In"
"MinDA","FP","","11/7/2017 12:17 PM","203","203","C/Out"
"MinDA","FP","","11/7/2017 12:18 PM","203","203","C/In"
"MinDA","FP","","11/7/2017 5:00 PM","203","203","C/Out"
"MinDA","FP","","11/8/2017 7:42 AM","203","203","C/In"
"MinDA","FP","","11/8/2017 12:11 PM","203","203","C/Out"
"MinDA","FP","","11/8/2017 12:12 PM","203","203","C/In"
"MinDA","FP","","11/8/2017 5:04 PM","203","203","C/Out"
"MinDA","FP","","11/10/2017 8:25 AM","203","203","C/In"
"MinDA","FP","","11/10/2017 12:06 PM","203","203","C/Out"
"MinDA","FP","","11/10/2017 12:07 PM","203","203","C/In"
"MinDA","FP","","11/10/2017 5:04 PM","203","203","C/Out"
"MinDA","FP","","11/13/2017 8:13 AM","203","203","C/In"
"MinDA","FP","","11/13/2017 12:09 PM","203","203","C/Out"
"MinDA","FP","","11/13/2017 12:10 PM","203","203","C/Out"
"MinDA","FP","","11/13/2017 12:10 PM","203","203","C/In"
"MinDA","FP","","11/13/2017 5:04 PM","203","203","C/Out"
"MinDA","FP","","11/14/2017 8:28 AM","203","203","C/In"
"MinDA","FP","","11/14/2017 12:07 PM","203","203","C/Out"
"MinDA","FP","","11/14/2017 5:21 PM","203","203","C/Out"
"MinDA","FP","","11/15/2017 8:15 AM","203","203","C/In"
"MinDA","FP","","11/15/2017 1:02 PM","203","203","C/Out"
"MinDA","FP","","11/15/2017 1:03 PM","203","203","C/In"
"MinDA","FP","","11/16/2017 8:29 AM","203","203","C/In"
"MinDA","FP","","11/16/2017 5:07 PM","203","203","C/Out"
"MinDA","FP","","11/17/2017 8:15 AM","203","203","C/In"
"MinDA","FP","","11/17/2017 12:21 PM","203","203","C/Out"
"MinDA","FP","","11/17/2017 12:22 PM","203","203","C/In"
"MinDA","FP","","11/17/2017 5:00 PM","203","203","C/Out"
"MinDA","FP","","11/20/2017 7:49 AM","203","203","C/In"
"MinDA","FP","","11/20/2017 12:13 PM","203","203","C/Out"
"MinDA","FP","","11/20/2017 12:15 PM","203","203","C/In"
"MinDA","FP","","11/20/2017 5:04 PM","203","203","C/Out"
"MinDA","FP","","11/21/2017 7:24 AM","203","203","C/In"
"MinDA","FP","","11/21/2017 7:28 AM","203","203","C/In"
"MinDA","FP","","11/21/2017 12:18 PM","203","203","C/Out"
"MinDA","FP","","11/21/2017 12:19 PM","203","203","C/In"
"MinDA","FP","","11/21/2017 5:00 PM","203","203","C/Out"
"MinDA","FP","","11/22/2017 8:05 AM","203","203","C/In"
"MinDA","FP","","11/22/2017 12:26 PM","203","203","C/Out"
"MinDA","FP","","11/22/2017 12:27 PM","203","203","C/In"
"MinDA","FP","","11/22/2017 5:13 PM","203","203","C/Out"
"MinDA","FP","","11/23/2017 8:22 AM","203","203","C/In"
"MinDA","FP","","11/23/2017 12:02 PM","203","203","C/Out"
"MinDA","FP","","11/23/2017 12:03 PM","203","203","C/In"
"MinDA","FP","","11/23/2017 5:08 PM","203","203","C/Out"
"MinDA","FP","","11/27/2017 8:25 AM","203","203","C/In"
"MinDA","FP","","11/27/2017 12:31 PM","203","203","C/Out"
"MinDA","FP","","11/27/2017 12:33 PM","203","203","C/In"
"MinDA","FP","","11/27/2017 5:15 PM","203","203","C/Out"
"MinDA","FP","","11/28/2017 12:06 PM","203","203","C/Out"
"MinDA","FP","","11/28/2017 12:07 PM","203","203","C/In"
"MinDA","FP","","11/28/2017 5:13 PM","203","203","C/Out"
"MinDA","FP","","12/4/2017 12:23 PM","203","203","C/Out"
"MinDA","FP","","12/4/2017 12:24 PM","203","203","C/In"
"MinDA","FP","","12/4/2017 5:01 PM","203","203","C/Out"
"MinDA","FP","","12/5/2017 8:18 AM","203","203","C/In"
"MinDA","FP","","12/5/2017 12:13 PM","203","203","C/Out"
"MinDA","FP","","12/5/2017 12:14 PM","203","203","C/In"
"MinDA","FP","","12/5/2017 5:13 PM","203","203","C/Out"
"MinDA","FP","","12/6/2017 8:19 AM","203","203","C/In"
"MinDA","FP","","12/6/2017 12:00 PM","203","203","C/Out"
"MinDA","FP","","12/6/2017 12:01 PM","203","203","C/In"
"MinDA","FP","","12/6/2017 5:17 PM","203","203","C/Out"
"MinDA","FP","","12/7/2017 12:32 PM","203","203","C/Out"
"MinDA","FP","","12/7/2017 12:33 PM","203","203","C/In"
"MinDA","FP","","12/7/2017 5:37 PM","203","203","C/Out"
"MinDA","FP","","12/8/2017 7:35 AM","203","203","C/In"
"MinDA","FP","","12/8/2017 12:29 PM","203","203","C/Out"
"MinDA","FP","","12/8/2017 5:04 PM","203","203","C/Out"
"MinDA","FP","","12/11/2017 7:46 AM","203","203","C/In"
"MinDA","FP","","12/11/2017 12:41 PM","203","203","C/Out"
"MinDA","FP","","12/11/2017 12:42 PM","203","203","C/In"
"MinDA","FP","","12/11/2017 5:00 PM","203","203","C/Out"
"MinDA","FP","","12/12/2017 12:17 PM","203","203","C/Out"
"MinDA","FP","","12/12/2017 12:18 PM","203","203","C/In"
"MinDA","FP","","12/12/2017 5:01 PM","203","203","C/Out"
"MinDA","FP","","12/14/2017 12:11 PM","203","203","C/Out"
"MinDA","FP","","12/14/2017 12:12 PM","203","203","C/In"
"MinDA","FP","","12/15/2017 12:16 PM","203","203","C/Out"
"MinDA","FP","","12/15/2017 12:17 PM","203","203","C/In"
"MinDA","FP","","12/15/2017 5:41 PM","203","203","C/Out"
"MinDA","FP","","12/18/2017 12:19 PM","203","203","C/Out"
"MinDA","FP","","12/18/2017 12:20 PM","203","203","C/In"
"MinDA","FP","","12/18/2017 5:00 PM","203","203","C/Out"
"MinDA","FP","","12/19/2017 8:33 AM","203","203","C/In"
"MinDA","FP","","11/6/2017 8:25 AM","204","204","C/In"
"MinDA","FP","","11/6/2017 12:15 PM","204","204","C/Out"
"MinDA","FP","","11/6/2017 12:16 PM","204","204","C/In"
"MinDA","FP","","11/6/2017 6:13 PM","204","204","C/Out"
"MinDA","FP","","11/14/2017 9:09 AM","204","204","C/In"
"MinDA","FP","","11/14/2017 12:29 PM","204","204","C/Out"
"MinDA","FP","","11/14/2017 12:30 PM","204","204","C/In"
"MinDA","FP","","11/14/2017 6:06 PM","204","204","C/Out"
"MinDA","FP","","11/15/2017 12:15 PM","204","204","C/Out"
"MinDA","FP","","11/15/2017 12:16 PM","204","204","C/In"
"MinDA","FP","","11/15/2017 5:30 PM","204","204","C/Out"
"MinDA","FP","","12/6/2017 12:14 PM","204","204","C/Out"
"MinDA","FP","","12/6/2017 12:15 PM","204","204","C/In"
"MinDA","FP","","12/6/2017 5:43 PM","204","204","C/Out"
"MinDA","FP","","12/7/2017 12:18 PM","204","204","C/Out"
"MinDA","FP","","12/7/2017 12:19 PM","204","204","C/In"
"MinDA","FP","","12/7/2017 6:08 PM","204","204","C/Out"
"MinDA","FP","","12/8/2017 12:54 PM","204","204","C/Out"
"MinDA","FP","","12/8/2017 12:55 PM","204","204","C/In"
"MinDA","FP","","12/8/2017 5:53 PM","204","204","C/Out"
"MinDA","FP","","12/11/2017 12:02 PM","204","204","C/Out"
"MinDA","FP","","12/11/2017 12:03 PM","204","204","C/In"
"MinDA","FP","","12/12/2017 12:21 PM","204","204","C/Out"
"MinDA","FP","","12/12/2017 12:22 PM","204","204","C/In"
"MinDA","FP","","12/12/2017 6:02 PM","204","204","C/Out"
"MinDA","FP","","12/13/2017 12:31 PM","204","204","C/Out"
"MinDA","FP","","12/13/2017 12:32 PM","204","204","C/In"
"MinDA","FP","","12/13/2017 5:35 PM","204","204","C/Out"
"MinDA","FP","","12/14/2017 12:48 PM","204","204","C/Out"
"MinDA","FP","","12/14/2017 12:49 PM","204","204","C/In"
"MinDA","FP","","12/14/2017 5:47 PM","204","204","C/Out"
"MinDA","FP","","12/15/2017 9:09 AM","204","204","C/In"
"MinDA","FP","","12/15/2017 12:16 PM","204","204","C/Out"
"MinDA","FP","","12/15/2017 12:17 PM","204","204","C/In"
"MinDA","FP","","12/15/2017 6:01 PM","204","204","C/Out"
"MinDA","FP","","12/18/2017 12:46 PM","204","204","C/Out"
"MinDA","FP","","12/18/2017 12:47 PM","204","204","C/In"
"MinDA","FP","","12/18/2017 6:02 PM","204","204","C/Out"
"MinDA","FP","","11/6/2017 7:45 AM","206","206","C/In"
"MinDA","FP","","11/6/2017 6:58 PM","206","206","C/Out"
"MinDA","FP","","11/8/2017 7:46 AM","206","206","C/In"
"MinDA","FP","","11/8/2017 12:11 PM","206","206","C/Out"
"MinDA","FP","","11/8/2017 12:12 PM","206","206","C/In"
"MinDA","FP","","11/8/2017 5:00 PM","206","206","C/Out"
"MinDA","FP","","11/9/2017 7:49 AM","206","206","C/In"
"MinDA","FP","","11/9/2017 12:17 PM","206","206","C/Out"
"MinDA","FP","","11/9/2017 12:18 PM","206","206","C/In"
"MinDA","FP","","11/9/2017 5:01 PM","206","206","C/Out"
"MinDA","FP","","11/10/2017 7:56 AM","206","206","C/In"
"MinDA","FP","","11/10/2017 12:52 PM","206","206","C/Out"
"MinDA","FP","","11/10/2017 12:53 PM","206","206","C/In"
"MinDA","FP","","11/10/2017 5:00 PM","206","206","C/Out"
"MinDA","FP","","11/13/2017 7:47 AM","206","206","C/In"
"MinDA","FP","","11/13/2017 12:21 PM","206","206","C/Out"
"MinDA","FP","","11/13/2017 12:22 PM","206","206","C/In"
"MinDA","FP","","11/13/2017 5:00 PM","206","206","C/Out"
"MinDA","FP","","11/14/2017 7:50 AM","206","206","C/In"
"MinDA","FP","","11/14/2017 12:17 PM","206","206","C/Out"
"MinDA","FP","","11/14/2017 12:19 PM","206","206","C/In"
"MinDA","FP","","11/14/2017 5:02 PM","206","206","C/Out"
"MinDA","FP","","11/15/2017 7:40 AM","206","206","C/In"
"MinDA","FP","","11/16/2017 7:53 AM","206","206","C/In"
"MinDA","FP","","11/16/2017 12:00 PM","206","206","C/Out"
"MinDA","FP","","11/16/2017 12:01 PM","206","206","C/In"
"MinDA","FP","","11/16/2017 5:00 PM","206","206","C/Out"
"MinDA","FP","","11/16/2017 5:00 PM","206","206","C/Out"
"MinDA","FP","","11/17/2017 7:51 AM","206","206","C/In"
"MinDA","FP","","11/17/2017 5:00 PM","206","206","C/Out"
"MinDA","FP","","11/20/2017 8:00 AM","206","206","C/In"
"MinDA","FP","","11/20/2017 12:00 PM","206","206","C/Out"
"MinDA","FP","","11/20/2017 12:01 PM","206","206","C/In"
"MinDA","FP","","11/20/2017 5:00 PM","206","206","C/Out"
"MinDA","FP","","11/21/2017 7:52 AM","206","206","C/In"
"MinDA","FP","","11/21/2017 12:03 PM","206","206","C/Out"
"MinDA","FP","","11/21/2017 12:04 PM","206","206","C/In"
"MinDA","FP","","11/21/2017 4:57 PM","206","206","C/Out"
"MinDA","FP","","11/22/2017 7:48 AM","206","206","C/In"
"MinDA","FP","","11/22/2017 12:11 PM","206","206","C/Out"
"MinDA","FP","","11/22/2017 12:12 PM","206","206","C/In"
"MinDA","FP","","11/22/2017 5:00 PM","206","206","C/Out"
"MinDA","FP","","11/23/2017 7:47 AM","206","206","C/In"
"MinDA","FP","","11/23/2017 12:18 PM","206","206","C/Out"
"MinDA","FP","","11/23/2017 12:19 PM","206","206","C/In"
"MinDA","FP","","11/23/2017 5:00 PM","206","206","C/Out"
"MinDA","FP","","11/24/2017 7:51 AM","206","206","C/In"
"MinDA","FP","","11/24/2017 12:00 PM","206","206","C/Out"
"MinDA","FP","","11/24/2017 12:01 PM","206","206","C/In"
"MinDA","FP","","11/27/2017 7:45 AM","206","206","C/In"
"MinDA","FP","","11/27/2017 12:09 PM","206","206","C/Out"
"MinDA","FP","","11/27/2017 12:10 PM","206","206","C/In"
"MinDA","FP","","11/27/2017 5:01 PM","206","206","C/Out"
"MinDA","FP","","11/28/2017 7:49 AM","206","206","C/In"
"MinDA","FP","","11/28/2017 12:09 PM","206","206","C/Out"
"MinDA","FP","","11/28/2017 12:11 PM","206","206","C/In"
"MinDA","FP","","11/28/2017 5:14 PM","206","206","C/Out"
"MinDA","FP","","11/29/2017 7:53 AM","206","206","C/In"
"MinDA","FP","","11/29/2017 12:17 PM","206","206","C/Out"
"MinDA","FP","","11/29/2017 12:18 PM","206","206","C/In"
"MinDA","FP","","11/29/2017 5:00 PM","206","206","C/Out"
"MinDA","FP","","12/1/2017 7:49 AM","206","206","C/In"
"MinDA","FP","","12/1/2017 12:39 PM","206","206","C/Out"
"MinDA","FP","","12/1/2017 12:41 PM","206","206","C/In"
"MinDA","FP","","12/1/2017 5:01 PM","206","206","C/Out"
"MinDA","FP","","12/4/2017 7:51 AM","206","206","C/In"
"MinDA","FP","","12/4/2017 12:23 PM","206","206","C/Out"
"MinDA","FP","","12/4/2017 12:23 PM","206","206","C/In"
"MinDA","FP","","12/4/2017 5:00 PM","206","206","C/Out"
"MinDA","FP","","12/5/2017 7:52 AM","206","206","C/In"
"MinDA","FP","","12/5/2017 12:24 PM","206","206","C/Out"
"MinDA","FP","","12/5/2017 12:25 PM","206","206","C/In"
"MinDA","FP","","12/5/2017 5:11 PM","206","206","C/Out"
"MinDA","FP","","12/6/2017 7:54 AM","206","206","C/In"
"MinDA","FP","","12/6/2017 12:01 PM","206","206","C/Out"
"MinDA","FP","","12/6/2017 12:03 PM","206","206","C/In"
"MinDA","FP","","12/6/2017 5:00 PM","206","206","C/Out"
"MinDA","FP","","12/7/2017 7:55 AM","206","206","C/In"
"MinDA","FP","","12/7/2017 5:09 PM","206","206","C/Out"
"MinDA","FP","","12/8/2017 6:46 AM","206","206","C/In"
"MinDA","FP","","12/8/2017 12:49 PM","206","206","C/Out"
"MinDA","FP","","12/8/2017 12:51 PM","206","206","C/In"
"MinDA","FP","","12/8/2017 5:01 PM","206","206","C/Out"
"MinDA","FP","","12/11/2017 7:36 AM","206","206","C/In"
"MinDA","FP","","12/11/2017 12:46 PM","206","206","C/Out"
"MinDA","FP","","12/11/2017 12:47 PM","206","206","C/In"
"MinDA","FP","","12/11/2017 5:00 PM","206","206","C/Out"
"MinDA","FP","","12/12/2017 7:56 AM","206","206","C/In"
"MinDA","FP","","12/12/2017 12:11 PM","206","206","C/Out"
"MinDA","FP","","12/12/2017 12:12 PM","206","206","C/In"
"MinDA","FP","","12/12/2017 5:00 PM","206","206","C/Out"
"MinDA","FP","","12/13/2017 7:53 AM","206","206","C/Out"
"MinDA","FP","","12/14/2017 8:08 AM","206","206","C/In"
"MinDA","FP","","12/14/2017 12:21 PM","206","206","C/Out"
"MinDA","FP","","12/14/2017 12:22 PM","206","206","C/In"
"MinDA","FP","","12/14/2017 5:00 PM","206","206","C/Out"
"MinDA","FP","","12/15/2017 7:57 AM","206","206","C/In"
"MinDA","FP","","12/15/2017 5:15 PM","206","206","C/Out"
"MinDA","FP","","12/18/2017 7:39 AM","206","206","C/In"
"MinDA","FP","","12/18/2017 12:00 PM","206","206","C/Out"
"MinDA","FP","","12/18/2017 12:01 PM","206","206","C/In"
"MinDA","FP","","12/18/2017 5:00 PM","206","206","C/Out"
"MinDA","FP","","12/19/2017 7:53 AM","206","206","C/In"
"MinDA","FP","","11/2/2017 7:18 AM","216","216","C/In"
"MinDA","FP","","11/2/2017 12:13 PM","216","216","C/Out"
"MinDA","FP","","11/2/2017 12:14 PM","216","216","C/In"
"MinDA","FP","","11/2/2017 12:14 PM","216","216","C/In"
"MinDA","FP","","11/2/2017 5:00 PM","216","216","C/Out"
"MinDA","FP","","11/3/2017 7:23 AM","216","216","C/In"
"MinDA","FP","","11/3/2017 12:17 PM","216","216","C/Out"
"MinDA","FP","","11/3/2017 12:18 PM","216","216","C/In"
"MinDA","FP","","11/3/2017 5:00 PM","216","216","C/Out"
"MinDA","FP","","11/6/2017 8:10 AM","216","216","C/In"
"MinDA","FP","","11/6/2017 12:00 PM","216","216","C/Out"
"MinDA","FP","","11/6/2017 12:05 PM","216","216","C/In"
"MinDA","FP","","11/6/2017 5:00 PM","216","216","C/Out"
"MinDA","FP","","11/7/2017 7:27 AM","216","216","C/In"
"MinDA","FP","","11/7/2017 12:09 PM","216","216","C/Out"
"MinDA","FP","","11/7/2017 12:10 PM","216","216","C/In"
"MinDA","FP","","11/7/2017 5:00 PM","216","216","C/Out"
"MinDA","FP","","11/8/2017 7:25 AM","216","216","C/In"
"MinDA","FP","","11/8/2017 12:14 PM","216","216","C/Out"
"MinDA","FP","","11/8/2017 12:18 PM","216","216","C/In"
"MinDA","FP","","11/8/2017 5:00 PM","216","216","C/Out"
"MinDA","FP","","11/9/2017 7:09 AM","216","216","C/In"
"MinDA","FP","","11/9/2017 12:04 PM","216","216","C/Out"
"MinDA","FP","","11/9/2017 12:04 PM","216","216","C/Out"
"MinDA","FP","","11/9/2017 12:14 PM","216","216","C/In"
"MinDA","FP","","11/9/2017 5:00 PM","216","216","C/Out"
"MinDA","FP","","11/10/2017 7:32 AM","216","216","C/In"
"MinDA","FP","","11/10/2017 12:01 PM","216","216","C/Out"
"MinDA","FP","","11/10/2017 12:02 PM","216","216","C/In"
"MinDA","FP","","11/10/2017 5:00 PM","216","216","C/Out"
"MinDA","FP","","11/16/2017 6:37 AM","216","216","C/In"
"MinDA","FP","","11/16/2017 12:09 PM","216","216","C/Out"
"MinDA","FP","","11/16/2017 12:10 PM","216","216","C/In"
"MinDA","FP","","11/16/2017 5:00 PM","216","216","C/Out"
"MinDA","FP","","11/17/2017 7:25 AM","216","216","C/In"
"MinDA","FP","","11/17/2017 12:14 PM","216","216","C/Out"
"MinDA","FP","","11/17/2017 12:15 PM","216","216","C/In"
"MinDA","FP","","11/17/2017 5:00 PM","216","216","C/Out"
"MinDA","FP","","11/20/2017 7:25 AM","216","216","C/In"
"MinDA","FP","","11/21/2017 7:23 AM","216","216","C/In"
"MinDA","FP","","11/22/2017 6:58 AM","216","216","C/In"
"MinDA","FP","","11/22/2017 12:18 PM","216","216","C/Out"
"MinDA","FP","","11/22/2017 12:21 PM","216","216","C/In"
"MinDA","FP","","11/22/2017 5:00 PM","216","216","C/Out"
"MinDA","FP","","11/22/2017 5:00 PM","216","216","C/Out"
"MinDA","FP","","11/23/2017 6:59 AM","216","216","C/In"
"MinDA","FP","","11/23/2017 12:01 PM","216","216","C/Out"
"MinDA","FP","","11/23/2017 12:02 PM","216","216","C/In"
"MinDA","FP","","11/23/2017 5:00 PM","216","216","C/Out"
"MinDA","FP","","11/24/2017 7:23 AM","216","216","C/In"
"MinDA","FP","","11/24/2017 12:02 PM","216","216","C/Out"
"MinDA","FP","","11/24/2017 12:03 PM","216","216","C/In"
"MinDA","FP","","11/27/2017 7:05 AM","216","216","C/In"
"MinDA","FP","","11/27/2017 12:01 PM","216","216","C/Out"
"MinDA","FP","","11/27/2017 12:02 PM","216","216","C/In"
"MinDA","FP","","11/27/2017 5:00 PM","216","216","C/Out"
"MinDA","FP","","11/28/2017 7:18 AM","216","216","C/In"
"MinDA","FP","","11/28/2017 12:23 PM","216","216","C/Out"
"MinDA","FP","","11/28/2017 12:24 PM","216","216","C/In"
"MinDA","FP","","11/28/2017 5:00 PM","216","216","C/Out"
"MinDA","FP","","11/29/2017 7:00 AM","216","216","C/In"
"MinDA","FP","","11/29/2017 12:23 PM","216","216","C/Out"
"MinDA","FP","","11/29/2017 12:24 PM","216","216","C/In"
"MinDA","FP","","11/29/2017 5:00 PM","216","216","C/Out"
"MinDA","FP","","12/1/2017 7:26 AM","216","216","C/In"
"MinDA","FP","","12/1/2017 12:00 PM","216","216","C/Out"
"MinDA","FP","","12/1/2017 12:01 PM","216","216","C/In"
"MinDA","FP","","12/1/2017 5:00 PM","216","216","C/Out"
"MinDA","FP","","12/5/2017 7:09 AM","216","216","C/In"
"MinDA","FP","","12/5/2017 12:08 PM","216","216","C/Out"
"MinDA","FP","","12/5/2017 12:09 PM","216","216","C/In"
"MinDA","FP","","12/5/2017 5:01 PM","216","216","C/Out"
"MinDA","FP","","12/6/2017 7:11 AM","216","216","C/In"
"MinDA","FP","","12/6/2017 12:13 PM","216","216","C/Out"
"MinDA","FP","","12/6/2017 12:14 PM","216","216","C/In"
"MinDA","FP","","12/6/2017 5:00 PM","216","216","C/Out"
"MinDA","FP","","12/7/2017 7:02 AM","216","216","C/In"
"MinDA","FP","","12/8/2017 7:10 AM","216","216","C/In"
"MinDA","FP","","12/8/2017 7:10 AM","216","216","C/In"
"MinDA","FP","","12/8/2017 12:12 PM","216","216","C/Out"
"MinDA","FP","","12/8/2017 12:13 PM","216","216","C/In"
"MinDA","FP","","12/8/2017 5:00 PM","216","216","C/Out"
"MinDA","FP","","12/18/2017 7:10 AM","216","216","C/In"
"MinDA","FP","","12/18/2017 12:32 PM","216","216","C/Out"
"MinDA","FP","","12/18/2017 12:33 PM","216","216","C/In"
"MinDA","FP","","12/18/2017 5:00 PM","216","216","C/Out"
"MinDA","FP","","12/18/2017 5:00 PM","216","216","C/Out"
"MinDA","FP","","12/19/2017 6:54 AM","216","216","C/In"
"MinDA","FP","","12/19/2017 6:54 AM","216","216","C/In"
"MinDA","FP","","11/3/2017 7:48 AM","236","236","C/In"
"MinDA","FP","","11/3/2017 12:09 PM","236","236","C/Out"
"MinDA","FP","","11/3/2017 12:16 PM","236","236","C/In"
"MinDA","FP","","11/3/2017 5:05 PM","236","236","C/Out"
"MinDA","FP","","11/6/2017 7:38 AM","236","236","C/In"
"MinDA","FP","","11/6/2017 12:19 PM","236","236","C/Out"
"MinDA","FP","","11/6/2017 12:20 PM","236","236","C/In"
"MinDA","FP","","11/6/2017 6:58 PM","236","236","C/Out"
"MinDA","FP","","11/7/2017 8:07 AM","236","236","C/In"
"MinDA","FP","","11/7/2017 12:09 PM","236","236","C/Out"
"MinDA","FP","","11/7/2017 12:10 PM","236","236","C/In"
"MinDA","FP","","11/7/2017 5:00 PM","236","236","C/Out"
"MinDA","FP","","11/8/2017 12:11 PM","236","236","C/Out"
"MinDA","FP","","11/8/2017 12:13 PM","236","236","C/In"
"MinDA","FP","","11/8/2017 5:00 PM","236","236","C/Out"
"MinDA","FP","","11/9/2017 12:14 PM","236","236","C/Out"
"MinDA","FP","","11/9/2017 12:15 PM","236","236","C/In"
"MinDA","FP","","11/9/2017 5:01 PM","236","236","C/Out"
"MinDA","FP","","11/10/2017 12:06 PM","236","236","C/Out"
"MinDA","FP","","11/10/2017 12:08 PM","236","236","C/In"
"MinDA","FP","","11/10/2017 5:03 PM","236","236","C/Out"
"MinDA","FP","","11/13/2017 7:56 AM","236","236","C/In"
"MinDA","FP","","11/13/2017 12:19 PM","236","236","C/Out"
"MinDA","FP","","11/13/2017 12:20 PM","236","236","C/In"
"MinDA","FP","","11/13/2017 5:01 PM","236","236","C/Out"
"MinDA","FP","","11/14/2017 7:41 AM","236","236","C/In"
"MinDA","FP","","11/14/2017 12:30 PM","236","236","C/Out"
"MinDA","FP","","11/14/2017 12:31 PM","236","236","C/In"
"MinDA","FP","","11/14/2017 5:07 PM","236","236","C/Out"
"MinDA","FP","","11/14/2017 5:21 PM","236","236","C/Out"
"MinDA","FP","","11/15/2017 7:54 AM","236","236","C/In"
"MinDA","FP","","11/15/2017 12:38 PM","236","236","C/Out"
"MinDA","FP","","11/15/2017 12:39 PM","236","236","C/In"
"MinDA","FP","","11/15/2017 5:19 PM","236","236","C/Out"
"MinDA","FP","","11/16/2017 7:54 AM","236","236","C/In"
"MinDA","FP","","11/16/2017 12:00 PM","236","236","C/Out"
"MinDA","FP","","11/16/2017 12:01 PM","236","236","C/In"
"MinDA","FP","","11/16/2017 5:00 PM","236","236","C/Out"
"MinDA","FP","","11/17/2017 12:07 PM","236","236","C/Out"
"MinDA","FP","","11/17/2017 12:08 PM","236","236","C/In"
"MinDA","FP","","11/17/2017 5:00 PM","236","236","C/Out"
"MinDA","FP","","11/20/2017 8:09 AM","236","236","C/In"
"MinDA","FP","","11/20/2017 5:03 PM","236","236","C/Out"
"MinDA","FP","","11/21/2017 12:01 PM","236","236","C/Out"
"MinDA","FP","","11/21/2017 12:02 PM","236","236","C/In"
"MinDA","FP","","11/21/2017 5:00 PM","236","236","C/Out"
"MinDA","FP","","11/22/2017 8:27 AM","236","236","C/In"
"MinDA","FP","","11/22/2017 12:26 PM","236","236","C/Out"
"MinDA","FP","","11/22/2017 12:27 PM","236","236","C/In"
"MinDA","FP","","11/22/2017 12:28 PM","236","236","C/In"
"MinDA","FP","","11/22/2017 5:13 PM","236","236","C/Out"
"MinDA","FP","","11/23/2017 8:28 AM","236","236","C/In"
"MinDA","FP","","11/23/2017 5:01 PM","236","236","C/Out"
"MinDA","FP","","11/27/2017 8:16 AM","236","236","C/In"
"MinDA","FP","","11/27/2017 12:09 PM","236","236","C/Out"
"MinDA","FP","","11/27/2017 12:10 PM","236","236","C/In"
"MinDA","FP","","11/27/2017 5:15 PM","236","236","C/Out"
"MinDA","FP","","11/28/2017 8:00 AM","236","236","C/In"
"MinDA","FP","","11/28/2017 12:24 PM","236","236","C/Out"
"MinDA","FP","","11/28/2017 12:25 PM","236","236","C/In"
"MinDA","FP","","11/28/2017 5:14 PM","236","236","C/Out"
"MinDA","FP","","12/4/2017 8:34 AM","236","236","C/In"
"MinDA","FP","","12/4/2017 12:06 PM","236","236","C/Out"
"MinDA","FP","","12/4/2017 12:07 PM","236","236","C/In"
"MinDA","FP","","12/4/2017 5:01 PM","236","236","C/Out"
"MinDA","FP","","12/5/2017 7:40 AM","236","236","C/In"
"MinDA","FP","","12/5/2017 12:13 PM","236","236","C/Out"
"MinDA","FP","","12/5/2017 5:12 PM","236","236","C/Out"
"MinDA","FP","","12/6/2017 8:32 AM","236","236","C/In"
"MinDA","FP","","12/6/2017 12:06 PM","236","236","C/Out"
"MinDA","FP","","12/6/2017 12:07 PM","236","236","C/In"
"MinDA","FP","","12/6/2017 5:17 PM","236","236","C/Out"
"MinDA","FP","","12/7/2017 7:46 AM","236","236","C/In"
"MinDA","FP","","12/7/2017 12:32 PM","236","236","C/Out"
"MinDA","FP","","12/7/2017 12:33 PM","236","236","C/In"
"MinDA","FP","","12/7/2017 5:27 PM","236","236","C/Out"
"MinDA","FP","","12/12/2017 12:14 PM","236","236","C/Out"
"MinDA","FP","","12/12/2017 12:15 PM","236","236","C/In"
"MinDA","FP","","12/12/2017 5:01 PM","236","236","C/Out"
"MinDA","FP","","12/14/2017 12:09 PM","236","236","C/Out"
"MinDA","FP","","12/14/2017 12:10 PM","236","236","C/In"
"MinDA","FP","","12/15/2017 12:07 PM","236","236","C/Out"
"MinDA","FP","","12/15/2017 12:08 PM","236","236","C/In"
"MinDA","FP","","12/19/2017 7:29 AM","236","236","C/In"
