department,VerifyCode,CardNo,checktime,id_no,name,status
MinDA,Fingerpint,,2/1/2018 5:04 PM,174,BUHAT, RENATO JR. A,C/Out
MinDA,Fingerpint,,2/5/2018 8:02 AM,174,BUHAT, RENATO JR. A,C/In
MinDA,Fingerpint,,2/5/2018 12:03 PM,174,BUHAT, RENATO JR. A,C/Out
MinDA,Fingerpint,,2/5/2018 12:36 PM,174,BUHAT, RENATO JR. A,C/In
MinDA,Fingerpint,,2/1/2018 7:32 AM,291,291,C/In
MinDA,Fingerpint,,2/1/2018 12:03 PM,291,291,C/Out
MinDA,Fingerpint,,2/1/2018 12:23 PM,291,291,C/In
MinDA,Fingerpint,,2/1/2018 5:04 PM,291,291,C/Out
MinDA,Fingerpint,,2/2/2018 7:14 AM,291,291,C/In
MinDA,Fingerpint,,2/2/2018 12:17 PM,291,291,C/Out
MinDA,Fingerpint,,2/2/2018 12:26 PM,291,291,C/In
MinDA,Fingerpint,,2/2/2018 5:01 PM,291,291,C/Out
MinDA,Fingerpint,,2/5/2018 7:19 AM,291,291,C/In
MinDA,Fingerpint,,2/5/2018 12:21 PM,291,291,C/Out
MinDA,Fingerpint,,2/5/2018 12:29 PM,291,291,C/In
MinDA,Fingerpint,,2/5/2018 5:03 PM,291,291,C/Out
MinDA,Fingerpint,,2/6/2018 7:26 AM,291,291,C/In
MinDA,Fingerpint,,2/6/2018 12:02 PM,291,291,C/Out
MinDA,Fingerpint,,2/2/2018 12:48 PM,293,293,C/In
MinDA,Fingerpint,,2/2/2018 5:02 PM,293,293,C/Out
MinDA,Fingerpint,,2/5/2018 12:14 PM,293,293,C/In
MinDA,Fingerpint,,2/5/2018 5:03 PM,293,293,C/Out
MinDA,Fingerpint,,2/1/2018 7:34 AM,340,340,C/In
MinDA,Fingerpint,,2/1/2018 12:03 PM,340,340,C/Out
MinDA,Fingerpint,,2/1/2018 12:22 PM,340,340,C/In
MinDA,Fingerpint,,2/1/2018 5:03 PM,340,340,C/In
MinDA,Fingerpint,,2/1/2018 5:03 PM,340,340,C/Out
MinDA,Fingerpint,,2/2/2018 7:48 AM,340,340,C/In
MinDA,Fingerpint,,2/2/2018 12:05 PM,340,340,C/Out
MinDA,Fingerpint,,2/2/2018 12:18 PM,340,340,C/In
MinDA,Fingerpint,,2/2/2018 5:01 PM,340,340,C/Out
MinDA,Fingerpint,,2/5/2018 7:25 AM,340,340,C/In
MinDA,Fingerpint,,2/5/2018 12:02 PM,340,340,C/Out
MinDA,Fingerpint,,2/5/2018 12:21 PM,340,340,C/In
MinDA,Fingerpint,,2/5/2018 5:02 PM,340,340,C/Out
MinDA,Fingerpint,,2/6/2018 7:15 AM,340,340,C/In
MinDA,Fingerpint,,2/6/2018 12:05 PM,340,340,C/Out
MinDA,Fingerpint,,2/6/2018 12:22 PM,340,340,C/In
MinDA,Fingerpint,,2/6/2018 12:22 PM,340,340,C/In
MinDA,Fingerpint,,2/6/2018 5:03 PM,340,340,C/Out
MinDA,Fingerpint,,2/7/2018 7:33 AM,340,340,C/In
MinDA,Fingerpint,,2/7/2018 12:03 PM,340,340,C/Out
MinDA,Fingerpint,,2/7/2018 12:20 PM,340,340,C/In
MinDA,Fingerpint,,2/7/2018 5:01 PM,340,340,C/Out
MinDA,Fingerpint,,2/8/2018 7:43 AM,340,340,C/In
